<svg width="19" height="11" viewBox="0 0 19 11" fill="none" xmlns="http://www.w3.org/2000/svg">
<line x1="18.6581" y1="8.39746" x2="8.65811" y2="0.397461" stroke="black"/>
<line y1="-0.5" x2="12.8062" y2="-0.5" transform="matrix(-0.62563 0.78012 -0.781616 -0.62376 8.97046 0.00710106)" stroke="black"/>
</svg>
