<svg width="20" height="12" viewBox="0 0 20 12" fill="none" xmlns="http://www.w3.org/2000/svg">
<line x1="1.50191" y1="2.17489" x2="11.0778" y2="10.6779" stroke="black"/>
<line x1="10.372" y1="10.7198" x2="18.875" y2="1.14392" stroke="black"/>
</svg>
