<svg width="11" height="18" viewBox="0 0 11 18" fill="none" xmlns="http://www.w3.org/2000/svg">
<line x1="8.39043" y1="0.312348" x2="0.390434" y2="10.3123" stroke="black"/>
<line x1="0.312348" y1="9.60957" x2="10.3123" y2="17.6096" stroke="black"/>
</svg>
