<svg width="127" height="129" viewBox="0 0 127 129" fill="none" xmlns="http://www.w3.org/2000/svg">
<circle cx="63.0293" cy="64.3352" r="61" stroke="#7ACFC8"/>
<path d="M105.712 64.3759C105.712 87.848 86.9083 106.876 63.7124 106.876C40.5164 106.876 21.7124 87.848 21.7124 64.3759C21.7124 40.9038 40.5164 21.8759 63.7124 21.8759C86.9083 21.8759 105.712 40.9038 105.712 64.3759Z" fill="#7ACFC8"/>
<path d="M53.3512 37.4868C57.6394 39.5941 59.4633 43.1164 59.9074 47.5396L60.3005 47.4152C60.3854 45.97 60.4696 44.5243 60.5538 43.0788L60.5548 43.0785C60.5498 42.2613 60.5978 41.4455 60.698 40.6372C60.8895 39.9332 60.7438 39.173 60.3024 38.5706C59.8605 37.9809 59.4863 37.3412 59.0353 36.7586L59.035 36.7592C58.2842 35.8335 58.0431 34.609 58.3937 33.5001C58.8705 31.7288 59.2589 29.932 59.7202 28.1552L59.7192 28.1554C59.8012 27.9043 59.9734 27.6937 60.2035 27.5628C60.518 27.6701 60.7888 27.8805 60.9705 28.1583C62.3769 30.7071 62.7658 33.663 62.0591 36.4271C61.6496 38.2481 61.3552 40.0951 61.1756 41.958C61.1738 42.2522 61.2117 42.546 61.2878 42.8319L61.5591 42.872L61.5598 42.8724C61.7338 42.6104 61.8412 42.3097 61.8715 41.9948C61.1335 39.0473 62.6811 37.2404 64.9188 35.8525C66.2666 35.0163 67.7362 34.3665 69.1646 33.6579C69.3857 33.6015 69.6164 33.5865 69.8455 33.6149C69.8818 33.8233 69.8807 34.0351 69.8417 34.241C69.3101 35.5612 68.7662 36.8778 68.1966 38.1814C67.4499 39.8757 66.1749 41.2781 64.5531 42.1899C64.4015 42.3055 64.214 42.368 64.0198 42.3676C63.3754 42.1804 62.6962 42.4393 62.3605 42.9998C61.9004 43.6316 61.5594 44.3425 61.3541 45.0994C60.7509 48.1651 60.2554 51.2535 59.7186 54.3431C60.333 53.4725 60.9978 52.5928 61.584 51.6629C61.7785 51.342 61.8498 50.9601 61.7875 50.5852C61.453 49.3078 61.5374 47.9699 62.0277 46.7654C62.5179 45.561 63.3883 44.5538 64.5119 43.8888C65.4492 43.2918 66.3308 42.6124 67.2526 41.9919L67.2533 41.9922C67.5819 41.8164 67.9243 41.6639 68.2771 41.5379C68.1308 43.2861 68.3313 44.9549 67.7846 46.3124C67.1883 47.7731 66.1953 49.0347 64.9127 49.9588C62.391 51.758 60.4228 54.2076 59.2134 57.0512C59.0459 57.5235 58.9646 58.0236 58.9732 58.5287C58.9159 59.427 58.9073 60.33 58.8701 61.4955L58.8704 61.4948C59.6338 60.4112 60.4655 59.3771 61.3618 58.4001C63.7547 56.1104 66.2036 53.8788 68.7079 51.704C69.6673 50.8187 70.2857 49.6289 70.4616 48.3289C70.4629 47.9082 70.2894 47.5004 69.9814 47.2017C69.2752 46.5685 69.12 45.5357 69.6142 44.7576C70.014 44.0621 70.7763 43.6536 71.5943 43.695C72.5636 43.8822 73.6088 44.7603 73.4783 45.5252C73.386 46.1665 73.0117 46.7281 72.4556 47.0602C71.1165 47.4716 71.3371 48.4433 71.2727 49.5852C72.1717 49.0174 72.956 48.5533 73.7056 48.0401C74.5944 47.4319 75.4379 46.7604 76.3279 46.1547L76.3276 46.1553C77.5452 45.4083 77.9025 43.8153 77.128 42.5808C76.7271 41.9948 76.7652 41.2266 77.2211 40.7056C77.6355 40.1775 78.4138 40.093 78.96 40.5179C79.3007 40.613 79.6249 40.7644 79.9183 40.9646C80.3459 41.3788 80.626 41.9176 80.7143 42.4967C80.4874 42.9952 80.0299 43.348 79.4832 43.446C79.1265 43.4574 78.7975 43.6249 78.5857 43.9032C78.3732 44.1811 78.2995 44.5419 78.3834 44.8872C79.3928 44.4378 80.3704 44.0523 81.2895 43.564C81.5752 43.3252 81.7943 43.0174 81.926 42.669C82.2434 42.0317 82.8565 41.595 83.5725 41.4956C84.2887 41.3972 85.018 41.649 85.5296 42.1716C85.9598 42.68 86.1569 43.3398 86.0718 43.9861C85.7523 44.4697 85.2222 44.7764 84.6338 44.8195C83.8634 44.8166 83.0939 44.7322 82.3369 44.5688C82.0019 44.477 81.6519 44.4677 81.3176 44.5411C79.7438 45.2834 78.2023 46.0883 76.6836 46.998C78.531 47.0999 80.3067 47.8632 82.1773 47.1426C83.1238 46.778 83.8804 47.6965 84.4286 48.3818C84.6796 48.845 84.7085 49.3903 84.5076 49.8651C84.1389 50.5726 83.2985 50.8982 82.5228 50.6331C82.0337 50.6194 81.5682 50.4018 81.2419 50.0336C80.9146 49.6657 80.7576 49.1821 80.8087 48.7027C80.7297 48.4445 80.5238 48.2399 80.2631 48.1599C78.9906 47.9399 77.7069 47.7997 76.4212 47.7412C75.7697 47.7542 75.1419 47.9545 74.614 48.3174C72.8556 49.5116 71.1567 50.7915 69.4507 52.0573C68.85 52.5034 68.2909 53.0027 67.7131 53.4783L67.8181 53.7487C69.1809 53.4361 70.5669 53.1932 71.8971 52.784L71.8967 52.7846C72.5246 52.5392 73.2458 52.6479 73.7901 53.0685C74.5318 53.4766 74.9392 54.3017 74.8015 55.1166C74.5291 56.092 73.4696 56.0955 72.6382 56.213L72.6386 56.2124C72.3308 56.2672 72.0109 56.1905 71.7569 56.0011C71.5028 55.8118 71.339 55.5276 71.3049 55.218C71.2239 54.8464 71.1607 54.4717 71.0667 53.9764C68.5349 54.2443 65.9855 54.307 64.1814 56.5334C62.4555 58.6624 60.5213 60.6254 58.8275 62.7782L58.8279 62.7775C58.3631 63.5978 58.0544 64.4984 57.9177 65.4361C56.8448 69.3053 55.7842 73.1782 54.7367 77.0545C54.524 77.8366 54.3381 78.6266 54.094 79.5951C55.3838 78.5472 56.4784 77.5531 57.6818 76.7071C59.2551 75.6012 59.9409 73.7904 61.2512 72.4842C61.3674 72.2861 61.3808 72.0419 61.2877 71.8267C60.7837 70.9279 60.6075 69.8921 60.7903 68.8978C60.9724 67.9032 61.5014 67.012 62.2862 66.3776C62.9018 65.7882 63.616 65.29 64.1749 64.6546C64.7685 63.9797 65.2197 63.1837 65.7582 62.4587C65.8848 62.2272 66.096 62.0535 66.3501 61.9715C66.6162 62.0463 66.8321 62.2436 66.9291 62.5012C67.795 64.9374 67.5481 67.5979 66.2535 69.7806C65.6052 70.8213 64.1825 71.3755 63.1158 72.1565C62.465 72.6333 61.8228 73.1215 61.1766 73.6051L61.3513 73.8593C61.8543 73.5454 62.3356 73.1906 62.8642 72.9241C64.5936 72.0528 66.3383 71.21 68.0828 70.3677C68.4191 70.2052 68.8534 70.1665 68.5692 69.5885L68.5685 69.5881C68.5844 69.3724 68.6809 69.1721 68.8398 69.027C69.0821 68.7349 69.3459 68.4616 69.6285 68.2087C70.507 67.58 70.6876 66.3541 70.0334 65.4633C69.0884 63.7843 70.1945 61.7259 71.5467 60.8083C72.6944 60.0299 73.8856 59.3106 75.0834 58.6081C75.4636 58.3853 76.0754 58.212 76.0772 58.9437L76.0778 58.9441C76.1273 60.459 76.045 61.973 75.8332 63.4674C75.4758 64.8177 74.4131 65.8584 73.0444 66.1982C71.5906 66.7372 70.8991 67.9148 70.0304 68.9684L70.1972 69.1903C70.7003 68.9617 71.199 68.7242 71.7072 68.506C72.9654 67.9674 74.2785 67.5273 75.4741 66.881L75.4747 66.8813C76.1086 66.6147 76.6483 66.1725 77.0282 65.6068C77.4085 65.0404 77.6137 64.3737 77.6204 63.6854C77.5675 61.0384 79.0865 59.4039 81.1807 58.1591C82.3018 57.4927 83.4556 56.8759 84.6141 56.2733L84.6135 56.273C84.8725 56.1986 85.1437 56.1714 85.4151 56.1935C85.4548 56.4826 85.441 56.7757 85.375 57.0581C85.0156 57.8332 84.5389 58.5531 84.1908 59.3321C83.3226 61.0328 81.9639 62.4328 80.2812 63.3586C79.4453 63.9836 78.6598 64.6717 77.9318 65.4178L78.1356 65.7476C78.4329 65.7401 78.7292 65.7116 79.0215 65.6635C80.2055 65.3888 81.3971 65.1322 82.5547 64.7785L82.5551 64.7779C82.9162 64.5771 83.2392 64.3168 83.5105 64.0075C83.9899 63.4868 84.5617 63.0578 85.1987 62.739C87.7568 62.0012 90.4234 61.6475 93.1085 61.6896C93.4263 61.7519 93.7362 61.8492 94.0332 61.9802C91.7939 63.8404 89.9439 65.8364 86.9383 65.909L86.9377 65.9087C86.6798 65.918 86.4204 65.8732 86.1782 65.7767C84.0685 64.8746 82.0511 65.356 80.0647 66.0279C78.5031 66.5566 76.9733 67.1714 75.5052 67.7195C77.7299 68.1137 79.9954 68.6031 82.2821 68.8733L82.2811 68.8736C83.1386 68.8415 83.9788 68.6543 84.7601 68.3214C86.5897 67.9466 88.5026 68.0776 90.2894 68.7013C91.4761 69.0127 92.658 69.3477 93.8294 69.7144C94.1345 69.8549 94.4202 70.0344 94.6792 70.2479C94.3973 70.3601 94.1199 70.4838 93.8326 70.5815L93.833 70.5808C93.1742 70.7029 92.5402 70.9218 91.9523 71.2309C89.747 72.9135 87.448 72.3593 85.0951 71.5126L85.0948 71.5132C84.7038 71.4552 84.3169 71.3675 83.9376 71.2497C83.4066 70.9178 82.9039 70.5429 82.4339 70.1292C82.2697 69.8998 82.0636 69.7016 81.8269 69.5458C79.8291 69.1928 77.7879 69.0431 75.8295 68.5378C73.6482 67.9748 72.1665 69.1786 70.4959 70.0079C68.9276 70.787 67.3508 71.5498 65.7757 72.3168L65.7751 72.3165C65.4312 72.4549 65.117 72.6546 64.8479 72.906C65.7346 72.9373 66.6238 73.0002 67.5084 72.9769C67.7715 72.9041 68.0001 72.746 68.1588 72.5278C68.8526 71.745 69.8486 71.2879 70.9141 71.2632C73.395 71.1353 75.6791 72.0699 78.0569 72.478L78.0565 72.4787C78.222 72.5619 78.3741 72.6705 78.5068 72.8C78.2796 72.9662 78.0409 73.1184 77.7942 73.2564C76.5858 73.8233 75.3693 74.3748 74.158 74.9351C72.2374 75.8946 69.9786 76.0126 67.9194 75.2605C67.4534 75.1263 66.9982 74.9547 66.558 74.7474C66.3896 74.5509 66.2729 74.3165 66.2183 74.0657C66.4352 73.9945 66.6681 73.98 66.8947 74.0233C69.0611 75.4751 71.2484 75.2477 73.4359 74.3029L73.4365 74.3032C74.3673 73.8977 75.2642 73.4222 76.1186 72.8798C73.7841 72.1773 71.4876 71.416 68.989 72.6327C69.1914 72.7731 69.3824 72.9308 69.5585 73.103C69.6882 73.2258 69.7681 73.391 69.7815 73.5666C69.6805 73.7135 69.5129 73.802 69.3302 73.8049C67.5285 73.7822 65.726 73.7172 63.9249 73.7113L63.9253 73.7107C63.4891 73.6853 63.0587 73.7844 62.685 73.9971C60.8554 75.306 59.0215 76.6165 57.283 78.0377C55.464 79.3174 53.9316 80.9501 52.7745 82.84C52.3002 83.4088 51.7741 83.9318 51.2026 84.4052C49.4692 86.5281 48.7521 89.1502 47.7589 91.6419L47.7595 91.6422C47.4202 92.2556 46.981 92.8083 46.4586 93.2768C46.2969 93.3293 46.1228 93.3379 45.9541 93.3011C45.9209 93.1593 45.9178 93.0132 45.944 92.8722C47.0862 90.4062 48.1753 87.9116 49.4224 85.5003C50.0805 84.4618 50.8019 83.465 51.5818 82.5139C51.9648 82.0597 52.2295 81.5179 52.3539 80.9349C52.6657 77.037 52.9824 73.1351 53.1132 69.2238L53.1142 69.2235C53.1129 67.0545 52.9979 64.884 52.7686 62.7207C52.6915 61.6568 51.7351 61.2112 50.9948 60.6792C50.625 60.7079 50.2755 60.8489 49.9953 61.0826C48.7748 61.7926 48.2371 61.78 47.6419 60.9819L47.6416 60.9826C47.3131 60.5673 47.1674 60.0425 47.2377 59.5288C47.3084 59.0162 47.5891 58.5597 48.0144 58.2657C48.4115 57.8869 48.9761 57.7302 49.5256 57.8446C50.0755 57.9585 50.5412 58.3304 50.7728 58.84C51.1845 59.5404 51.6956 60.1808 52.2915 60.739C51.8502 57.9739 51.4877 55.2038 49.1092 53.2418C47.9882 54.5858 45.6413 54.1377 45.1912 52.9539C44.9776 52.5127 44.951 52.0096 45.1174 51.5588C45.2835 51.1086 45.6288 50.7486 46.0745 50.5606C46.485 50.3319 46.9803 50.2926 47.4333 50.4514C47.8867 50.6113 48.253 50.9547 48.4394 51.3935C48.7781 51.8729 49.1604 52.3213 49.5809 52.7331L49.9267 52.5055C49.5492 51.7892 49.1338 51.0924 48.6824 50.4178C48.1243 49.7802 47.8282 48.9625 47.8526 48.1317C47.838 47.8413 47.9478 47.5617 48.1558 47.3624C48.3637 47.1631 48.6503 47.0634 48.9435 47.0872C49.8608 46.8931 50.8083 47.368 51.209 48.2246C51.3564 48.7643 51.3353 49.3313 51.1484 49.8501C50.9609 50.3685 50.617 50.8145 50.1616 51.1275L52.1313 55.9317C52.4992 54.8145 52.8261 53.8365 53.1372 52.8535C53.1727 52.7424 53.069 52.5777 53.1144 52.4772L53.1151 52.4776C53.3035 51.899 53.5916 51.359 53.9661 50.8811C54.4192 50.8014 54.8902 50.9328 55.244 51.237C55.9154 51.6232 56.2434 52.4082 56.0364 53.1337C55.5597 54.4671 55.2534 54.6736 53.496 54.4055C52.5906 55.7284 52.3258 57.3921 52.771 58.9611C53.3868 61.4258 53.7393 63.9413 53.8213 66.4643C53.9663 69.7106 53.7929 72.963 53.7343 76.2118L53.7349 76.2122C53.6977 76.7823 53.6319 77.3494 53.536 77.9116L53.8313 77.9899C55.1504 72.8352 56.5789 67.7073 57.7439 62.5151C58.3452 59.8352 58.4462 57.0354 58.8361 54.3004L58.8367 54.3008C59.0102 53.302 59.2496 52.3178 59.5551 51.3538C59.8969 50.2727 59.8398 49.0969 59.3928 48.0321C58.2347 47.9517 57.1284 47.4834 56.2565 46.7045C55.3846 45.9255 54.7998 44.8824 54.5986 43.7487C54.3425 41.822 53.7411 39.9314 53.3004 38.0228L53.3008 38.0222C53.2967 37.8419 53.3136 37.662 53.3504 37.4869L53.3512 37.4868ZM62.3816 41.2138L62.7937 41.324C63.2258 40.7944 63.6393 40.2485 64.0982 39.7431C64.295 39.5637 64.5267 39.4254 64.7806 39.3376C64.8926 39.3782 64.9864 39.4585 65.0441 39.5627C64.9505 39.8088 64.8242 40.0413 64.6686 40.254C64.3523 40.6582 64.0033 41.0383 63.6678 41.4275C65.9769 40.956 68.5686 37.2055 68.4785 34.7719C67.4966 35.2984 66.5691 35.8256 65.6146 36.3003L65.614 36.2999C64.3372 36.9017 63.319 37.9219 62.7259 39.1925C62.5239 39.8462 62.4076 40.5256 62.3816 41.2137L62.3816 41.2138ZM63.0627 70.9908C66.0226 69.9735 67.6892 65.7535 66.2252 63.6296C65.2065 64.6011 64.222 65.6256 63.1452 66.5461L63.1455 66.5454C62.4714 67.1147 61.9989 67.8813 61.7941 68.7409C61.5886 69.6001 61.662 70.5086 62.0026 71.34L65.0078 65.9881L65.3389 66.1393C65.0486 66.9232 64.8066 67.7306 64.4538 68.4847C64.0753 69.2924 63.591 70.0499 63.0627 70.9906L63.0627 70.9908ZM72.7924 65.514C75.309 64.2427 75.9204 62.3305 75.1131 59.6685L75.1138 59.6688C74.7337 59.8179 74.3625 59.9885 74.0021 60.1775C73.3198 60.5813 72.6348 60.9886 71.9992 61.4577C70.4295 62.6157 70.1851 63.6463 71.0691 65.7534C71.5107 65.4227 71.9224 65.0554 72.3005 64.655C72.6523 64.2144 72.8549 63.6586 73.1791 63.1923C73.3576 63.0304 73.5667 62.904 73.7956 62.8216C73.8711 63.0711 73.8903 63.3322 73.8518 63.5867C73.5676 64.2068 73.2007 64.7882 72.7929 65.5145L72.7924 65.514ZM58.823 47.3777C59.0697 46.3476 58.3867 45.853 57.9563 45.2354C57.7701 44.8952 57.6241 44.5359 57.5203 44.1645C57.8446 44.4011 58.1669 44.6399 58.4953 44.8707C58.55 44.8903 58.6078 44.8969 58.6651 44.8909C57.7814 42.101 56.2066 39.9166 54.357 39.1286C54.7926 41.058 55.07 42.8975 55.6461 44.6485C56.1686 46.0302 57.3717 47.0637 58.8227 47.3784L58.823 47.3777ZM60.6433 29.9158C58.6862 31.9001 58.7332 36.1142 60.6724 37.4951C61.9548 35.1603 61.944 32.3109 60.6433 29.9158V29.9158ZM83.8657 69.7083C85.918 69.8142 87.9831 69.77 89.8441 70.7998L89.8047 71.0603L84.9402 70.3963C86.8687 71.5834 89.4951 72.4156 91.9549 69.9843C89.2734 68.9174 86.5743 68.2358 83.8658 69.7081L83.8657 69.7083ZM62.5365 50.3373C64.6031 48.3545 65.5063 45.8281 66.7411 43.3531C63.2325 45.3551 61.5874 48.0178 62.5365 50.3373ZM85.646 64.818C87.1931 65.7081 90.0494 64.6789 91.5666 62.6848C89.9675 62.2081 85.4766 63.1356 84.5851 64.2344L88.7909 63.6106L88.8953 63.9766C87.9633 64.6602 86.6744 64.39 85.6459 64.8179L85.646 64.818ZM78.789 63.4135C79.8156 62.1071 80.6869 60.9993 81.5578 59.8906L81.8677 60.0961C81.7579 60.4791 81.6491 60.8618 81.5045 61.3652C82.886 60.2201 83.7856 58.6988 83.6776 57.792C80.8772 58.912 78.2906 60.9154 78.789 63.4135L78.789 63.4135ZM64.455 49.374C65.5756 47.9257 67.6445 46.9749 67.1603 44.5562L64.455 49.374ZM72.2234 44.6369L72.1857 44.3637C71.7099 44.3878 71.2435 44.4896 70.8057 44.6666C70.492 45.0108 70.2517 45.4148 70.097 45.8551C70.9784 45.3502 71.6012 44.9937 72.2235 44.6368L72.2234 44.6369ZM81.7494 49.4801C83.1315 49.8829 83.3935 49.7372 83.3046 48.7379C82.8264 48.9657 82.4006 49.1692 81.7488 49.4797L81.7494 49.4801ZM73.9425 54.7384L72.1441 55.2375C72.4424 55.4651 72.8284 55.5408 73.1835 55.4423C73.5386 55.3438 73.8208 55.0826 73.9425 54.7384L73.9425 54.7384Z" fill="black"/>
<path d="M107.704 79.5786L108.033 78.103L113.966 74.7954L109.02 73.6899L109.295 72.4602L119.05 74.6408L118.775 75.8704L114.048 74.8138L117.813 80.1742L117.502 81.5678L113.707 76.2726L107.704 79.5786Z" fill="black"/>
<path d="M108.48 88.5891C107.912 88.3264 107.444 88.0169 107.074 87.6605C106.708 87.3166 106.438 86.9343 106.263 86.5136C106.083 86.1014 106.005 85.6591 106.028 85.1865C106.056 84.7263 106.182 84.2548 106.405 83.772C106.613 83.3231 106.882 82.9434 107.21 82.6328C107.548 82.3262 107.934 82.1037 108.368 81.9653C108.802 81.8269 109.273 81.7773 109.779 81.8163C110.29 81.8677 110.829 82.0248 111.397 82.2875C112.151 82.6364 112.727 83.0576 113.126 83.5508C113.534 84.048 113.763 84.5965 113.815 85.1963C113.875 85.8 113.754 86.4279 113.452 87.0801C113.165 87.6984 112.775 88.1758 112.28 88.5122C111.789 88.8611 111.22 89.0452 110.574 89.0647C109.932 89.0966 109.234 88.938 108.48 88.5891ZM110.862 83.4436C110.328 83.1966 109.831 83.0487 109.37 83C108.914 82.9636 108.511 83.0446 108.162 83.2431C107.813 83.4415 107.533 83.7694 107.321 84.2268C107.109 84.6841 107.041 85.11 107.115 85.5045C107.19 85.899 107.391 86.2541 107.717 86.57C108.049 86.8983 108.481 87.1859 109.015 87.4329C109.557 87.6839 110.052 87.8256 110.5 87.858C110.948 87.8905 111.342 87.8055 111.682 87.6032C112.027 87.4132 112.308 87.0853 112.523 86.6195C112.845 85.9249 112.849 85.3151 112.537 84.79C112.225 84.2649 111.666 83.8161 110.862 83.4436Z" fill="black"/>
<path d="M104.649 101.071L98.6003 96.6296L99.2549 95.7382L103.114 98.5721C103.272 98.6881 103.435 98.8134 103.602 98.9479C103.764 99.09 103.923 99.2294 104.077 99.366L104.102 99.3321L100.688 93.786L101.302 92.9509L107.574 94.6039L107.599 94.5701C107.422 94.4636 107.247 94.3468 107.074 94.2198C106.896 94.1002 106.716 93.9742 106.536 93.8416L102.71 91.0326L103.365 90.1411L109.413 94.5825L108.444 95.9028L102.18 94.2385L105.618 99.7508L104.649 101.071Z" fill="black"/>
<path d="M95.1381 109.33L90.369 103.536L91.2229 102.833L94.2659 106.53C94.3904 106.681 94.5173 106.843 94.6465 107.014C94.7686 107.192 94.8876 107.366 95.0037 107.536L95.0361 107.51L93.0928 101.294L93.8927 100.635L99.5651 103.781L99.5975 103.755C99.4526 103.608 99.3119 103.452 99.1755 103.286C99.0319 103.126 98.8889 102.96 98.7465 102.787L95.7302 99.1228L96.5841 98.4199L101.353 104.214L100.089 105.255L94.427 102.1L96.4027 108.289L95.1381 109.33Z" fill="black"/>
<path d="M88.2114 113.056C87.6456 113.363 87.095 113.503 86.5594 113.476C86.0157 113.453 85.5146 113.274 85.0562 112.939C84.594 112.617 84.2001 112.156 83.8746 111.558L83.5201 110.906L88.0337 108.451C87.6115 107.714 87.113 107.246 86.5382 107.049C85.9596 106.864 85.3424 106.95 84.6864 107.307C84.2683 107.535 83.9194 107.772 83.6398 108.02C83.3564 108.28 83.0827 108.578 82.8186 108.913L82.3035 107.966C82.5594 107.635 82.8335 107.348 83.1258 107.104C83.4136 106.852 83.783 106.603 84.234 106.358C84.8571 106.019 85.4797 105.845 86.1016 105.836C86.7154 105.832 87.2936 106.006 87.8362 106.359C88.3751 106.725 88.8429 107.272 89.2398 108.002C89.6322 108.724 89.85 109.407 89.8932 110.053C89.9282 110.703 89.8042 111.286 89.5213 111.801C89.2301 112.321 88.7935 112.739 88.2114 113.056ZM87.742 112.163C88.2586 111.882 88.5771 111.491 88.6977 110.99C88.8144 110.502 88.741 109.947 88.4773 109.325L85.1198 111.151C85.3249 111.528 85.5607 111.825 85.8271 112.041C86.0935 112.258 86.388 112.379 86.7105 112.406C87.0292 112.445 87.3731 112.364 87.742 112.163Z" fill="black"/>
<path d="M80.7401 116.272L79.7965 113.296L75.9131 114.527L76.8566 117.503L75.6822 117.876L73.4143 110.723L74.5887 110.35L75.6 113.54L79.4834 112.309L78.4722 109.119L79.6466 108.747L81.9145 115.9L80.7401 116.272Z" fill="black"/>
<path d="M61.3965 114.53C61.4074 114.419 61.4283 114.252 61.4594 114.03C61.4904 113.808 61.5261 113.586 61.5664 113.365C61.5975 113.143 61.624 112.967 61.6459 112.838L57.0365 118.704L55.5317 118.558L56.2603 111.089L57.4029 111.201L56.9733 115.604C56.9588 115.752 56.9398 115.947 56.9162 116.189C56.8834 116.429 56.851 116.665 56.819 116.897C56.7862 117.137 56.7592 117.318 56.7382 117.437L61.3183 111.583L62.8371 111.731L62.1085 119.199L60.952 119.086L61.3965 114.53Z" fill="black"/>
<path d="M14.8474 86.9975L15.9877 89.1659L21.7124 86.1554L22.2793 87.2334L16.5546 90.2439L17.6819 92.3876L16.765 92.8698L13.9305 87.4796L14.8474 86.9975Z" fill="black"/>
<path d="M13.9078 78.3786C13.3085 76.5223 13.6838 75.3762 15.0338 74.9403C15.7 74.7253 16.306 74.7797 16.8519 75.1036C17.389 75.4304 17.8167 76.0867 18.135 77.0726L19.1803 80.31L12.0394 82.6157L11.6608 81.4433L14.5918 80.497L13.9078 78.3786ZM15.479 76.0912C15.0438 76.2318 14.8009 76.4818 14.7503 76.8414C14.6879 77.195 14.7456 77.6472 14.9234 78.1979L15.5644 80.1829L17.8559 79.443L17.2063 77.4313C17.0457 76.9339 16.825 76.554 16.5441 76.2917C16.2604 76.0204 15.9053 75.9536 15.479 76.0912Z" fill="black"/>
<path d="M12.808 66.4704C12.388 66.4704 12.178 66.1857 12.178 65.6164L12.164 61.2204C12.192 61.0897 12.3367 61.0244 12.598 61.0244C13.018 61.0244 13.228 61.3091 13.228 61.8784L13.242 66.2744C13.214 66.4051 13.0694 66.4704 12.808 66.4704Z" fill="black"/>
<path d="M19.6987 49.4069L19.3265 50.8724L13.3013 54.0078L18.2134 55.2553L17.9032 56.4765L8.2148 54.016L8.52495 52.7947L13.2199 53.9871L9.61049 48.5204L9.962 47.1364L13.6022 52.5386L19.6987 49.4069Z" fill="black"/>
<path d="M19.3391 40.2277C19.9082 40.4869 20.3788 40.7936 20.7508 41.1477C21.1182 41.4894 21.3909 41.87 21.569 42.2896C21.751 42.7007 21.8317 43.1426 21.8113 43.6153C21.7862 44.0756 21.6634 44.5479 21.4429 45.032C21.2378 45.4822 20.9718 45.8635 20.6448 46.1761C20.3093 46.4848 19.9248 46.7097 19.4914 46.8507C19.0579 46.9917 18.5879 47.0442 18.0812 47.0083C17.5699 46.96 17.0297 46.8062 16.4606 46.547C15.7047 46.2027 15.1257 45.7851 14.7236 45.2943C14.3131 44.7996 14.0803 44.2525 14.0251 43.653C13.9615 43.0497 14.0786 42.4211 14.3766 41.767C14.659 41.147 15.0468 40.6673 15.5398 40.3278C16.0283 39.9759 16.5958 39.7883 17.2423 39.7649C17.8843 39.7291 18.5832 39.8834 19.3391 40.2277ZM16.9887 45.3876C17.5238 45.6314 18.0219 45.7762 18.483 45.8221C18.9395 45.8557 19.3416 45.7722 19.6894 45.5717C20.0371 45.3711 20.3155 45.0415 20.5244 44.5829C20.7333 44.1242 20.7993 43.6979 20.7224 43.3039C20.6455 42.9099 20.4426 42.5559 20.1138 42.2421C19.7804 41.9158 19.3461 41.6308 18.811 41.3871C18.2674 41.1395 17.7716 41.0008 17.3236 40.9711C16.8757 40.9414 16.482 41.0288 16.1428 41.2332C15.7989 41.4252 15.5205 41.7548 15.3077 42.222C14.9905 42.9185 14.9896 43.5283 15.3051 44.0515C15.6206 44.5747 16.1818 45.0201 16.9887 45.3876Z" fill="black"/>
<path d="M22.5056 28.5035L28.4301 33.109L27.7513 33.9822L23.9711 31.0436C23.8163 30.9233 23.6571 30.7936 23.4933 30.6545C23.3353 30.508 23.181 30.3644 23.0303 30.2237L23.0045 30.2568L26.2648 35.8944L25.629 36.7123L19.4044 34.8881L19.3786 34.9213C19.5522 35.0325 19.7237 35.1541 19.8932 35.2858C20.0684 35.4102 20.2444 35.5411 20.4213 35.6786L24.1683 38.5914L23.4895 39.4646L17.565 34.8591L18.5703 33.5659L24.7863 35.4012L21.5003 29.7968L22.5056 28.5035Z" fill="black"/>
<path d="M32.2515 19.2135L36.978 25.0419L36.1189 25.7385L33.1032 22.0196C32.9797 21.8674 32.854 21.705 32.726 21.5324C32.6053 21.3539 32.4875 21.179 32.3727 21.0078L32.3401 21.0342L34.2378 27.264L33.4331 27.9166L27.7839 24.729L27.7513 24.7554C27.8951 24.9032 28.0347 25.0604 28.1699 25.2271C28.3123 25.388 28.4541 25.5554 28.5952 25.7294L31.5845 29.4156L30.7255 30.1123L25.999 24.2839L27.2712 23.2521L32.9095 26.4485L30.9792 20.2452L32.2515 19.2135Z" fill="black"/>
<path d="M39.2567 14.9219C39.8347 14.6377 40.3906 14.5204 40.9246 14.5699C41.4669 14.6153 41.9602 14.8148 42.4044 15.1684C42.8529 15.5095 43.2275 15.9858 43.5281 16.5973L43.8555 17.2631L39.2446 19.53C39.636 20.284 40.1149 20.7714 40.681 20.9922C41.2515 21.2006 41.8718 21.1401 42.5418 20.8106C42.969 20.6006 43.3274 20.3776 43.617 20.1417C43.9108 19.8932 44.1966 19.6071 44.4743 19.2834L44.9499 20.2508C44.6806 20.5704 44.3949 20.846 44.0928 21.0778C43.7948 21.3179 43.4155 21.5511 42.9548 21.7776C42.3183 22.0906 41.6891 22.2387 41.0672 22.222C40.4538 22.2012 39.8833 22.0033 39.3557 21.6282C38.8323 21.2407 38.3874 20.6742 38.021 19.9287C37.6586 19.1917 37.4691 18.4996 37.4526 17.8525C37.4445 17.2013 37.5924 16.6242 37.8963 16.1211C38.2086 15.614 38.6621 15.2142 39.2567 14.9219ZM39.6889 15.8326C39.1612 16.0921 38.8268 16.4697 38.6858 16.9654C38.5489 17.4487 38.5995 18.0063 38.8373 18.6382L42.2672 16.9519C42.0778 16.5666 41.8545 16.2604 41.5972 16.0333C41.3399 15.8062 41.0507 15.6727 40.7296 15.633C40.4127 15.5808 40.0658 15.6473 39.6889 15.8326Z" fill="black"/>
<path d="M48.2934 11.7712L49.1514 14.7731L53.0685 13.6535L52.2106 10.6517L53.3952 10.3132L55.4573 17.5283L54.2727 17.8668L53.3532 14.6496L49.436 15.7692L50.3555 18.9864L49.171 19.3249L47.1089 12.1098L48.2934 11.7712Z" fill="black"/>
<path d="M63.9666 9.93679L61.5172 9.99067L61.6594 16.4571L60.4417 16.4839L60.2995 10.0175L57.8781 10.0707L57.8553 9.03496L63.9438 8.90105L63.9666 9.93679Z" fill="black"/>
<path d="M67.7764 14.0798C67.7648 14.163 67.7433 14.2825 67.7121 14.4384C67.6914 14.5863 67.6642 14.7474 67.6304 14.9217C67.5979 15.0868 67.566 15.2473 67.5348 15.4031C67.5049 15.5497 67.4788 15.6686 67.4567 15.7597L72.3065 10.0907L73.8039 10.3001L72.7647 17.7318L71.6278 17.5728L72.2404 13.1915C72.2611 13.0436 72.2882 12.8494 72.3219 12.6091C72.3647 12.3701 72.4069 12.1357 72.4485 11.9059C72.4913 11.6668 72.5258 11.4879 72.5518 11.369L67.7317 17.028L66.2204 16.8167L67.2596 9.38502L68.4104 9.54593L67.7764 14.0798Z" fill="black"/>
<path d="M83.2209 11.8932C84.0876 12.2137 84.6719 12.773 84.9738 13.5712C85.2845 14.3727 85.2149 15.3818 84.765 16.5987C84.4705 17.3953 84.0987 18.0241 83.6497 18.4849C83.2127 18.9403 82.7235 19.2272 82.1823 19.3455C81.653 19.4583 81.0951 19.4062 80.5085 19.1894C80.1496 19.0567 79.8479 18.8904 79.6033 18.6905C79.3588 18.4907 79.1634 18.2791 79.0171 18.0558C78.8827 17.8271 78.7795 17.5949 78.7074 17.3592L78.6286 17.3301C78.5911 17.4854 78.539 17.6801 78.4724 17.9142C78.4057 18.1483 78.3417 18.3485 78.2802 18.5148L77.2121 21.4037L76.0566 20.9765L79.8239 10.7866L80.7694 11.1361L80.5725 12.153L80.6251 12.1724C80.8396 12.0228 81.0739 11.9005 81.328 11.8054C81.5908 11.7135 81.8757 11.6695 82.1827 11.6736C82.4984 11.6808 82.8445 11.7541 83.2209 11.8932ZM82.6516 12.7873C82.1789 12.6125 81.7641 12.5636 81.4072 12.6407C81.0536 12.7089 80.7448 12.8983 80.4808 13.2086C80.2167 13.519 79.9784 13.9483 79.7658 14.4966L79.6832 14.7199C79.4696 15.2976 79.3496 15.8105 79.3233 16.2585C79.297 16.7065 79.3894 17.089 79.6007 17.4059C79.8206 17.726 80.1845 17.98 80.6922 18.1677C81.1212 18.3263 81.515 18.3376 81.8738 18.2015C82.2413 18.0687 82.5652 17.8253 82.8454 17.4711C83.1376 17.1115 83.3808 16.669 83.5749 16.1437C83.8727 15.3384 83.953 14.6367 83.8159 14.0387C83.6875 13.4439 83.2994 13.0268 82.6516 12.7873Z" fill="black"/>
<path d="M93.1535 22.8541C92.803 23.3719 92.4222 23.7848 92.011 24.0925C91.6128 24.3978 91.192 24.6033 90.7486 24.7089C90.3129 24.8197 89.8638 24.8257 89.4011 24.7267C88.9514 24.6252 88.5062 24.4253 88.0656 24.1271C87.656 23.8499 87.3243 23.524 87.0706 23.1494C86.8222 22.7672 86.6646 22.3506 86.5979 21.8997C86.5311 21.4488 86.5577 20.9766 86.6777 20.483C86.8106 19.9869 87.0522 19.4799 87.4027 18.962C87.8683 18.2741 88.3766 17.7728 88.9276 17.4583C89.4838 17.136 90.0621 16.9976 90.6623 17.0433C91.2678 17.0811 91.8681 17.3015 92.4633 17.7043C93.0276 18.0862 93.4359 18.5485 93.6884 19.0913C93.9539 19.6316 94.0442 20.2224 93.9595 20.8638C93.8877 21.5027 93.6191 22.1661 93.1535 22.8541ZM88.4578 19.6761C88.1282 20.163 87.9024 20.63 87.7802 21.077C87.6709 21.5215 87.6862 21.9319 87.8259 22.3082C87.9657 22.6845 88.2442 23.014 88.6616 23.2964C89.079 23.5789 89.4884 23.7151 89.8897 23.705C90.291 23.6948 90.6738 23.5538 91.0381 23.282C91.4154 23.0076 91.7688 22.627 92.0984 22.14C92.4332 21.6453 92.6526 21.1796 92.7566 20.7428C92.8606 20.3061 92.8401 19.9034 92.6952 19.5348C92.5631 19.1637 92.2846 18.8343 91.8594 18.5466C91.2256 18.1176 90.6245 18.015 90.056 18.2389C89.4875 18.4627 88.9548 18.9418 88.4578 19.6761Z" fill="black"/>
<path d="M114.302 59.0362C114.722 59.0362 114.932 59.3209 114.932 59.8902L114.946 64.2862C114.918 64.4169 114.773 64.4822 114.512 64.4822C114.092 64.4822 113.882 64.1976 113.882 63.6282L113.868 59.2322C113.896 59.1016 114.041 59.0362 114.302 59.0362Z" fill="black"/>
<path d="M100.961 27.9422C100.62 28.2603 100.258 28.406 99.8757 28.3792C99.4937 28.3525 99.119 28.2104 98.7517 27.9531L98.7107 27.9912C98.981 28.3772 99.1348 28.7888 99.1721 29.226C99.2163 29.6568 99.0335 30.0631 98.6237 30.4448C98.3915 30.6611 98.1351 30.8171 97.8543 30.9128C97.5799 31.0153 97.2883 31.0446 96.9795 31.0007C96.6707 30.9567 96.3449 30.8329 96.0021 30.6292C95.6661 30.4192 95.3137 30.1161 94.9447 29.72L92.7403 27.3537L98.2311 22.2388L100.426 24.595C100.789 24.9842 101.069 25.3739 101.266 25.7639C101.477 26.1544 101.562 26.5338 101.523 26.9022C101.497 27.2711 101.309 27.6178 100.961 27.9422ZM97.7554 29.5126C98.0695 29.2199 98.1835 28.8905 98.0975 28.5242C98.0114 28.158 97.7521 27.7426 97.3195 27.2783L96.0694 25.9363L94.3074 27.5776L95.5766 28.9401C95.9965 29.3908 96.3826 29.6752 96.735 29.7934C97.0943 29.9052 97.4344 29.8116 97.7554 29.5126ZM99.9991 27.1355C100.259 26.8937 100.357 26.6232 100.295 26.3238C100.246 26.0249 100.025 25.6638 99.6304 25.2403L98.323 23.8369L96.8172 25.2397L97.9718 26.4792C98.3854 26.9231 98.7617 27.2039 99.101 27.3216C99.4402 27.4393 99.7395 27.3772 99.9991 27.1355Z" fill="black"/>
<path d="M107.503 31.6695C108.053 32.4003 108.3 33.0616 108.243 33.6534C108.186 34.2452 107.807 34.805 107.106 35.3326L103.023 38.4057L102.485 37.6899L103.191 36.8598L103.158 36.8151C102.812 36.8064 102.495 36.7649 102.206 36.6908C101.929 36.6184 101.668 36.4882 101.421 36.3001C101.18 36.1195 100.933 35.8614 100.68 35.5258C100.411 35.1679 100.23 34.7958 100.138 34.4096C100.051 34.0308 100.077 33.6611 100.214 33.3006C100.359 32.9345 100.633 32.5999 101.036 32.2968C101.632 31.8478 102.268 31.7374 102.942 31.9659C103.624 32.1887 104.347 32.7773 105.112 33.7317L105.912 34.7243L106.27 34.4549C106.77 34.0788 107.035 33.7097 107.066 33.3475C107.097 32.9853 106.964 32.6066 106.667 32.2114C106.431 31.8982 106.158 31.6364 105.848 31.426C105.545 31.21 105.241 31.0238 104.937 30.8676L105.448 30.0099C105.786 30.1642 106.138 30.3839 106.504 30.6688C106.878 30.9482 107.211 31.2817 107.503 31.6695ZM104.523 34.3683C103.932 33.6451 103.422 33.2166 102.994 33.083C102.572 32.9568 102.171 33.0368 101.791 33.3231C101.455 33.5757 101.285 33.8616 101.28 34.1808C101.281 34.5074 101.402 34.8311 101.643 35.1517C102.025 35.6588 102.48 35.9763 103.008 36.1042C103.544 36.2264 104.103 36.0686 104.685 35.6308L105.221 35.2267L104.523 34.3683Z" fill="black"/>
<path d="M113.628 43.1799L112.393 41.0638L106.806 44.3231L106.192 43.2711L111.779 40.0117L110.559 37.9197L111.454 37.3976L114.522 42.6579L113.628 43.1799Z" fill="black"/>
<path d="M114.452 51.4546C114.624 52.0849 114.69 52.628 114.65 53.0839C114.61 53.5399 114.465 53.9132 114.216 54.2038C113.977 54.501 113.629 54.7122 113.17 54.8375C112.719 54.9603 112.299 54.9636 111.91 54.8474C111.523 54.7402 111.181 54.4996 110.886 54.1255C110.59 53.7514 110.351 53.2312 110.17 52.5649L109.274 49.2829L116.514 47.3078L116.838 48.4964L113.867 49.307L114.452 51.4546ZM112.778 53.6673C113.219 53.547 113.473 53.3083 113.54 52.9514C113.619 52.6011 113.582 52.1467 113.43 51.5885L112.881 49.576L110.557 50.2098L111.114 52.2493C111.251 52.7535 111.454 53.1431 111.723 53.4182C111.994 53.7022 112.346 53.7853 112.778 53.6673Z" fill="black"/>
<path d="M47.4681 116.196C46.5813 115.936 45.9598 115.419 45.6034 114.643C45.238 113.865 45.2376 112.854 45.6023 111.609C45.841 110.794 46.1684 110.141 46.5845 109.65C46.989 109.165 47.4571 108.845 47.9889 108.69C48.5092 108.541 49.0693 108.554 49.6695 108.73C50.0367 108.837 50.3492 108.982 50.607 109.165C50.8647 109.347 51.0743 109.545 51.2357 109.757C51.3856 109.976 51.5046 110.201 51.5928 110.431L51.6734 110.455C51.7001 110.297 51.7386 110.099 51.7889 109.861C51.8392 109.623 51.8893 109.419 51.9391 109.249L52.8048 106.293L53.9872 106.639L50.9335 117.065L49.9661 116.782L50.0922 115.754L50.0384 115.738C49.8348 115.902 49.6095 116.04 49.3626 116.153C49.1068 116.263 48.8256 116.326 48.519 116.343C48.2036 116.358 47.8532 116.309 47.4681 116.196ZM47.9743 115.265C48.4579 115.406 48.8751 115.426 49.2258 115.325C49.5738 115.232 49.8688 115.022 50.1107 114.694C50.3527 114.366 50.5607 113.922 50.735 113.36L50.8019 113.131C50.975 112.54 51.0592 112.02 51.0545 111.572C51.0498 111.123 50.9311 110.748 50.6985 110.446C50.4569 110.142 50.0764 109.914 49.5569 109.762C49.118 109.633 48.7243 109.649 48.3758 109.81C48.0183 109.968 47.7121 110.233 47.457 110.605C47.1904 110.984 46.9784 111.443 46.821 111.98C46.5796 112.804 46.548 113.51 46.7262 114.097C46.8954 114.681 47.3114 115.071 47.9743 115.265Z" fill="black"/>
<path d="M36.0614 107.045C36.3452 106.487 36.6721 106.031 37.042 105.674C37.3994 105.322 37.7916 105.066 38.2185 104.907C38.6372 104.743 39.0822 104.681 39.5535 104.722C40.0123 104.768 40.4788 104.911 40.9529 105.152C41.3937 105.377 41.7631 105.659 42.0611 106C42.3549 106.348 42.5628 106.742 42.6847 107.181C42.8067 107.62 42.8387 108.092 42.7807 108.597C42.7102 109.106 42.533 109.639 42.2492 110.196C41.8723 110.936 41.4299 111.496 40.922 111.877C40.4099 112.265 39.8532 112.474 39.2519 112.503C38.6464 112.54 38.0234 112.396 37.383 112.07C36.7759 111.76 36.3135 111.352 35.9958 110.845C35.6656 110.341 35.5029 109.766 35.5077 109.119C35.4999 108.476 35.6845 107.785 36.0614 107.045ZM41.114 109.618C41.3808 109.094 41.5472 108.602 41.6132 108.144C41.6667 107.689 41.6008 107.284 41.4156 106.928C41.2304 106.571 40.9132 106.279 40.4641 106.05C40.015 105.822 39.592 105.737 39.195 105.797C38.798 105.856 38.4355 106.044 38.1076 106.359C37.7672 106.677 37.4635 107.099 37.1967 107.623C36.9256 108.155 36.7655 108.644 36.7163 109.091C36.6671 109.537 36.7372 109.934 36.9266 110.282C37.1035 110.634 37.4207 110.926 37.8781 111.159C38.5601 111.506 39.1693 111.534 39.7058 111.241C40.2422 110.949 40.7116 110.408 41.114 109.618Z" fill="black"/>
<path d="M26.6914 102.868C27.0016 102.519 27.3481 102.34 27.731 102.331C28.1139 102.322 28.5003 102.428 28.89 102.65L28.9272 102.608C28.6221 102.249 28.4304 101.854 28.3524 101.422C28.2682 100.997 28.4122 100.576 28.7845 100.157C28.9954 99.9204 29.2362 99.7411 29.5068 99.6196C29.7704 99.4918 30.058 99.4354 30.3695 99.4503C30.6811 99.4652 31.0171 99.558 31.3774 99.7288C31.7315 99.9064 32.1108 100.175 32.5151 100.535L34.9311 102.685L29.9425 108.291L27.5371 106.15C27.1396 105.797 26.8244 105.435 26.5913 105.065C26.345 104.696 26.2243 104.326 26.2292 103.956C26.2209 103.586 26.3749 103.223 26.6914 102.868ZM29.7362 101.004C29.4508 101.325 29.368 101.664 29.488 102.02C29.6079 102.377 29.9049 102.766 30.3791 103.188L31.7491 104.407L33.3499 102.609L31.9589 101.371C31.4988 100.961 31.0877 100.714 30.7258 100.629C30.3577 100.552 30.0278 100.677 29.7362 101.004ZM27.7245 103.581C27.4888 103.846 27.4157 104.124 27.5055 104.417C27.5821 104.71 27.8365 105.049 28.2688 105.433L29.7016 106.708L31.0697 105.171L29.8042 104.045C29.351 103.641 28.9501 103.397 28.6013 103.312C28.2526 103.226 27.9603 103.316 27.7245 103.581Z" fill="black"/>
<path d="M20.1567 99.341C19.5884 98.6243 19.3252 97.9695 19.3671 97.3764C19.409 96.7833 19.7737 96.2142 20.4611 95.6691L24.465 92.494L25.0217 93.1961L24.3359 94.0437L24.3707 94.0876C24.7162 94.0876 25.0345 94.121 25.3258 94.1879C25.6039 94.2532 25.8686 94.3768 26.12 94.5586C26.3656 94.7331 26.6189 94.9849 26.8799 95.314C27.1582 95.665 27.3483 96.0324 27.4502 96.4162C27.5462 96.7927 27.5301 97.1629 27.4017 97.5267C27.266 97.8964 27.0007 98.2378 26.6058 98.5509C26.0208 99.0149 25.3883 99.1412 24.7085 98.9298C24.0214 98.7243 23.2834 98.1541 22.4944 97.2193L21.6699 96.2471L21.3189 96.5255C20.8289 96.914 20.573 97.2897 20.551 97.6526C20.529 98.0154 20.6717 98.3907 20.9791 98.7783C21.2226 99.0854 21.5021 99.3402 21.8176 99.5427C22.1257 99.751 22.434 99.9295 22.7423 100.078L22.2532 100.948C21.9113 100.803 21.5536 100.592 21.1802 100.316C20.7995 100.046 20.4583 99.7213 20.1567 99.341ZM23.0679 96.568C23.677 97.2761 24.1971 97.6915 24.628 97.8144C25.0532 97.9299 25.4522 97.8398 25.8252 97.544C26.1543 97.283 26.3173 96.9929 26.3143 96.6737C26.3055 96.3472 26.1764 96.0267 25.9271 95.7122C25.5327 95.2149 25.0698 94.909 24.5382 94.7945C23.9994 94.6858 23.4447 94.8576 22.8743 95.3099L22.3478 95.7275L23.0679 96.568Z" fill="black"/>
<path d="M65.6525 117.787L68.0952 117.597L67.5945 111.148L68.8089 111.054L69.3095 117.503L71.7242 117.315L71.8044 118.348L65.7327 118.819L65.6525 117.787Z" fill="black"/>
</svg>
