<svg width="127" height="130" viewBox="0 0 127 130" fill="none" xmlns="http://www.w3.org/2000/svg">
<circle cx="63.0293" cy="64.4468" r="61" stroke="#7ACFC8"/>
<path d="M105.712 64.4874C105.712 87.9595 86.9083 106.987 63.7124 106.987C40.5164 106.987 21.7124 87.9595 21.7124 64.4874C21.7124 41.0153 40.5164 21.9874 63.7124 21.9874C86.9083 21.9874 105.712 41.0153 105.712 64.4874Z" fill="#7ACFC8"/>
<path d="M53.3512 37.5984C57.6393 39.7057 59.4633 43.228 59.9073 47.6511L60.3005 47.5267C60.3854 46.0815 60.4696 44.6359 60.5538 43.1903L60.5548 43.1901C60.5497 42.3729 60.5977 41.5571 60.698 40.7487C60.8895 40.0448 60.7438 39.2846 60.3024 38.6821C59.8605 38.0925 59.4863 37.4527 59.0353 36.8702L59.035 36.8708C58.2842 35.945 58.043 34.7206 58.3937 33.6117C58.8704 31.8404 59.2588 30.0435 59.7201 28.2667L59.7192 28.267C59.8012 28.0159 59.9733 27.8053 60.2035 27.6744C60.518 27.7816 60.7888 27.992 60.9705 28.2699C62.3769 30.8187 62.7658 33.7745 62.059 36.5387C61.6496 38.3596 61.3551 40.2066 61.1756 42.0695C61.1738 42.3637 61.2117 42.6575 61.2877 42.9435L61.5591 42.9836L61.5597 42.9839C61.7338 42.7219 61.8412 42.4213 61.8715 42.1063C61.1334 39.1588 62.6811 37.352 64.9188 35.964C66.2666 35.1278 67.7361 34.4781 69.1645 33.7695C69.3857 33.713 69.6164 33.6981 69.8455 33.7265C69.8817 33.9348 69.8807 34.1466 69.8417 34.3525C69.31 35.6727 68.7661 36.9893 68.1966 38.2929C67.4499 39.9872 66.1749 41.3896 64.5531 42.3014C64.4015 42.4171 64.214 42.4795 64.0197 42.4791C63.3754 42.292 62.6962 42.5509 62.3604 43.1114C61.9004 43.7432 61.5593 44.4541 61.3541 45.211C60.7509 48.2766 60.2554 51.3651 59.7186 54.4546C60.3329 53.584 60.9978 52.7044 61.584 51.7744C61.7785 51.4535 61.8497 51.0717 61.7874 50.6968C61.453 49.4194 61.5374 48.0814 62.0277 46.877C62.5179 45.6725 63.3883 44.6653 64.5119 44.0003C65.4491 43.4033 66.3308 42.7239 67.2526 42.1034L67.2533 42.1038C67.5819 41.9279 67.9243 41.7755 68.2771 41.6495C68.1308 43.3976 68.3313 45.0664 67.7845 46.4239C67.1883 47.8846 66.1953 49.1463 64.9127 50.0704C62.391 51.8695 60.4228 54.3191 59.2134 57.1627C59.0458 57.6351 58.9646 58.1351 58.9732 58.6403C58.9159 59.5385 58.9073 60.4415 58.8701 61.607L58.8704 61.6064C59.6338 60.5228 60.4654 59.4886 61.3618 58.5116C63.7547 56.222 66.2035 53.9903 68.7079 51.8156C69.6673 50.9302 70.2856 49.7405 70.4616 48.4405C70.4629 48.0197 70.2894 47.612 69.9814 47.3132C69.2751 46.6801 69.12 45.6472 69.6141 44.8692C70.014 44.1736 70.7763 43.7652 71.5943 43.8065C72.5636 43.9937 73.6088 44.8719 73.4783 45.6367C73.386 46.2781 73.0117 46.8397 72.4556 47.1717C71.1165 47.5831 71.3371 48.5548 71.2727 49.6968C72.1717 49.1289 72.956 48.6648 73.7056 48.1516C74.5944 47.5435 75.4379 46.872 76.3279 46.2662L76.3275 46.2668C77.5452 45.5199 77.9025 43.9268 77.128 42.6924C76.7271 42.1063 76.7652 41.3382 77.2211 40.8172C77.6355 40.289 78.4138 40.2045 78.9599 40.6295C79.3006 40.7246 79.6249 40.8759 79.9183 41.0761C80.3458 41.4904 80.626 42.0292 80.7142 42.6082C80.4874 43.1068 80.0299 43.4596 79.4832 43.5575C79.1265 43.569 78.7975 43.7364 78.5857 44.0147C78.3732 44.2926 78.2995 44.6534 78.3834 44.9988C79.3927 44.5493 80.3704 44.1639 81.2895 43.6755C81.5752 43.4367 81.7943 43.129 81.9259 42.7806C82.2434 42.1432 82.8565 41.7066 83.5725 41.6072C84.2887 41.5088 85.018 41.7605 85.5295 42.2832C85.9598 42.7916 86.1568 43.4513 86.0718 44.0976C85.7522 44.5813 85.2222 44.8879 84.6338 44.931C83.8633 44.9281 83.0939 44.8438 82.3368 44.6804C82.0019 44.5886 81.6518 44.5792 81.3176 44.6526C79.7438 45.395 78.2023 46.1999 76.6835 47.1095C78.5309 47.2115 80.3066 47.9747 82.1773 47.2541C83.1238 46.8896 83.8804 47.808 84.4285 48.4933C84.6795 48.9565 84.7084 49.5019 84.5075 49.9766C84.1389 50.6841 83.2985 51.0097 82.5228 50.7447C82.0337 50.731 81.5681 50.5134 81.2419 50.1452C80.9146 49.7773 80.7576 49.2936 80.8087 48.8142C80.7297 48.5561 80.5238 48.3514 80.2631 48.2714C78.9905 48.0514 77.7068 47.9112 76.4211 47.8527C75.7697 47.8657 75.1419 48.0661 74.614 48.4289C72.8555 49.6231 71.1567 50.9031 69.4507 52.1688C68.8499 52.615 68.2908 53.1143 67.7131 53.5899L67.8181 53.8603C69.1809 53.5476 70.5669 53.3047 71.897 52.8956L71.8967 52.8962C72.5245 52.6508 73.2458 52.7594 73.7901 53.1801C74.5318 53.5882 74.9391 54.4133 74.8015 55.2282C74.5291 56.2036 73.4696 56.2071 72.6382 56.3245L72.6386 56.3239C72.3307 56.3787 72.0109 56.3021 71.7569 56.1127C71.5028 55.9233 71.339 55.6392 71.3049 55.3295C71.2239 54.9579 71.1606 54.5833 71.0666 54.0879C68.5349 54.3559 65.9855 54.4186 64.1813 56.645C62.4555 58.7739 60.5213 60.7369 58.8275 62.8897L58.8278 62.8891C58.363 63.7093 58.0544 64.6099 57.9177 65.5476C56.8448 69.4168 55.7842 73.2897 54.7367 77.166C54.524 77.9481 54.3381 78.7381 54.094 79.7066C55.3838 78.6587 56.4783 77.6647 57.6817 76.8187C59.255 75.7128 59.9409 73.9019 61.2512 72.5957C61.3674 72.3977 61.3807 72.1535 61.2877 71.9383C60.7837 71.0394 60.6075 70.0036 60.7902 69.0094C60.9724 68.0147 61.5014 67.1236 62.2862 66.4891C62.9018 65.8997 63.616 65.4016 64.1749 64.7661C64.7685 64.0912 65.2197 63.2953 65.7581 62.5703C65.8848 62.3387 66.096 62.1651 66.35 62.083C66.6162 62.1579 66.8321 62.3551 66.9291 62.6128C67.7949 65.049 67.548 67.7095 66.2535 69.8921C65.6051 70.9328 64.1825 71.487 63.1157 72.2681C62.4649 72.7448 61.8228 73.2331 61.1766 73.7166L61.3513 73.9708C61.8543 73.6569 62.3356 73.3021 62.8641 73.0356C64.5936 72.1644 66.3382 71.3215 68.0828 70.4792C68.419 70.3168 68.8534 70.278 68.5692 69.7L68.5685 69.6997C68.5844 69.484 68.6808 69.2837 68.8398 69.1386C69.0821 68.8465 69.3459 68.5731 69.6285 68.3203C70.5069 67.6915 70.6876 66.4656 70.0333 65.5749C69.0884 63.8958 70.1945 61.8374 71.5466 60.9199C72.6944 60.1415 73.8856 59.4221 75.0834 58.7197C75.4636 58.4969 76.0754 58.3235 76.0771 59.0552L76.0778 59.0556C76.1272 60.5705 76.045 62.0846 75.8331 63.5789C75.4757 64.9292 74.4131 65.9699 73.0443 66.3097C71.5906 66.8488 70.899 68.0264 70.0304 69.08L70.1972 69.3018C70.7002 69.0733 71.199 68.8358 71.7072 68.6176C72.9653 68.0789 74.2784 67.6389 75.4741 66.9925L75.4747 66.9929C76.1086 66.7263 76.6482 66.284 77.0282 65.7183C77.4085 65.1519 77.6136 64.4853 77.6204 63.7969C77.5675 61.1499 79.0865 59.5155 81.1806 58.2707C82.3017 57.6042 83.4556 56.9874 84.6141 56.3849L84.6135 56.3845C84.8725 56.3102 85.1437 56.283 85.4151 56.3051C85.4548 56.5942 85.4409 56.8873 85.375 57.1697C85.0156 57.9447 84.5389 58.6647 84.1907 59.4437C83.3225 61.1443 81.9638 62.5444 80.2812 63.4701C79.4452 64.0951 78.6597 64.7833 77.9318 65.5294L78.1356 65.8592C78.4328 65.8516 78.7292 65.8232 79.0214 65.7751C80.2055 65.5003 81.397 65.2437 82.5547 64.8901L82.555 64.8894C82.9162 64.6886 83.2392 64.4283 83.5105 64.1191C83.9899 63.5983 84.5616 63.1693 85.1987 62.8505C87.7568 62.1127 90.4234 61.7591 93.1085 61.8011C93.4262 61.8635 93.7362 61.9608 94.0332 62.0917C91.7938 63.9519 89.9438 65.948 86.9383 66.0206L86.9376 66.0202C86.6798 66.0296 86.4203 65.9848 86.1781 65.8882C84.0685 64.9862 82.0511 65.4676 80.0647 66.1395C78.5031 66.6681 76.9732 67.2829 75.5051 67.831C77.7299 68.2252 79.9954 68.7147 82.282 68.9849L82.2811 68.9851C83.1386 68.953 83.9787 68.7659 84.76 68.433C86.5897 68.0582 88.5025 68.1892 90.2894 68.8128C91.476 69.1242 92.6579 69.4592 93.8294 69.826C94.1345 69.9664 94.4202 70.1459 94.6792 70.3594C94.3973 70.4716 94.1198 70.5953 93.8326 70.693L93.8329 70.6924C93.1742 70.8144 92.5401 71.0333 91.9523 71.3424C89.747 73.025 87.448 72.4708 85.0951 71.6241L85.0947 71.6248C84.7038 71.5668 84.3169 71.4791 83.9376 71.3613C83.4066 71.0293 82.9039 70.6545 82.4339 70.2408C82.2697 70.0114 82.0636 69.8131 81.8269 69.6574C79.829 69.3043 77.7879 69.1547 75.8294 68.6494C73.6481 68.0863 72.1664 69.2902 70.4958 70.1194C68.9275 70.8985 67.3507 71.6614 65.7757 72.4284L65.775 72.428C65.4312 72.5665 65.117 72.7661 64.8478 73.0176C65.7346 73.0488 66.6238 73.1118 67.5083 73.0884C67.7715 73.0156 68 72.8575 68.1588 72.6394C68.8526 71.8565 69.8486 71.3994 70.9141 71.3747C73.395 71.2468 75.6791 72.1815 78.0569 72.5896L78.0565 72.5902C78.2219 72.6735 78.374 72.782 78.5068 72.9115C78.2796 73.0777 78.0408 73.23 77.7941 73.3679C76.5858 73.9348 75.3692 74.4864 74.1579 75.0466C72.2374 76.0061 69.9785 76.1241 67.9193 75.3721C67.4533 75.2378 66.9981 75.0662 66.558 74.8589C66.3896 74.6624 66.2729 74.428 66.2183 74.1772C66.4351 74.106 66.6681 74.0915 66.8946 74.1349C69.061 75.5866 71.2484 75.3592 73.4359 74.4144L73.4365 74.4148C74.3673 74.0093 75.2642 73.5337 76.1185 72.9914C73.784 72.2889 71.4876 71.5275 68.9889 72.7443C69.1914 72.8846 69.3824 73.0423 69.5585 73.2145C69.6882 73.3374 69.7681 73.5025 69.7814 73.6782C69.6805 73.825 69.5129 73.9136 69.3302 73.9165C67.5284 73.8937 65.726 73.8288 63.9249 73.8229L63.9252 73.8223C63.489 73.7968 63.0587 73.896 62.685 74.1086C60.8554 75.4176 59.0215 76.7281 57.283 78.1493C55.4639 79.4289 53.9316 81.0617 52.7744 82.9516C52.3001 83.5203 51.7741 84.0433 51.2026 84.5167C49.4692 86.6397 48.7521 89.2617 47.7589 91.7534L47.7595 91.7538C47.4201 92.3672 46.981 92.9198 46.4585 93.3884C46.2969 93.4409 46.1228 93.4495 45.954 93.4127C45.9208 93.2708 45.9178 93.1248 45.9439 92.9838C47.0861 90.5177 48.1753 88.0232 49.4224 85.6118C50.0804 84.5733 50.8018 83.5765 51.5817 82.6254C51.9647 82.1713 52.2294 81.6294 52.3538 81.0465C52.6657 77.1485 52.9824 73.2467 53.1132 69.3353L53.1142 69.3351C53.1129 67.166 52.9978 64.9956 52.7685 62.8323C52.6915 61.7683 51.7351 61.3227 50.9947 60.7907C50.625 60.8194 50.2755 60.9605 49.9953 61.1941C48.7748 61.9042 48.2371 61.8916 47.6419 61.0935L47.6415 61.0941C47.3131 60.6788 47.1674 60.154 47.2377 59.6404C47.3083 59.1277 47.5891 58.6713 48.0143 58.3773C48.4115 57.9984 48.976 57.8417 49.5256 57.9562C50.0755 58.07 50.5412 58.4419 50.7728 58.9515C51.1845 59.652 51.6955 60.2924 52.2914 60.8506C51.8502 58.0855 51.4876 55.3153 49.1091 53.3534C47.9882 54.6973 45.6413 54.2493 45.1912 53.0654C44.9775 52.6242 44.951 52.1212 45.1174 51.6703C45.2835 51.2201 45.6287 50.8602 46.0745 50.6721C46.4849 50.4435 46.9803 50.4041 47.4333 50.563C47.8866 50.7228 48.2529 51.0662 48.4393 51.505C48.7781 51.9844 49.1603 52.4328 49.5808 52.8446L49.9267 52.6171C49.5492 51.9008 49.1338 51.204 48.6824 50.5294C48.1243 49.8918 47.8281 49.0741 47.8526 48.2432C47.838 47.9528 47.9478 47.6732 48.1557 47.4739C48.3636 47.2746 48.6503 47.175 48.9434 47.1988C49.8608 47.0046 50.8083 47.4796 51.209 48.3361C51.3564 48.8758 51.3353 49.4428 51.1484 49.9616C50.9608 50.48 50.6169 50.926 50.1616 51.239L52.1312 56.0432C52.4992 54.9261 52.8261 53.9481 53.1372 52.965C53.1726 52.8539 53.0689 52.6892 53.1144 52.5888L53.1151 52.5891C53.3035 52.0106 53.5916 51.4705 53.966 50.9927C54.4192 50.9129 54.8902 51.0443 55.2439 51.3485C55.9154 51.7348 56.2434 52.5197 56.0364 53.2452C55.5597 54.5786 55.2534 54.7852 53.4959 54.5171C52.5906 55.8399 52.3258 57.5037 52.771 59.0726C53.3868 61.5374 53.7392 64.0528 53.8213 66.5759C53.9663 69.8221 53.7929 73.0746 53.7343 76.3233L53.7349 76.3237C53.6977 76.8938 53.6319 77.4609 53.536 78.0231L53.8313 78.1015C55.1503 72.9467 56.5789 67.8189 57.7439 62.6266C58.3452 59.9468 58.4462 57.147 58.836 54.4119L58.8367 54.4123C59.0102 53.4135 59.2496 52.4294 59.5551 51.4654C59.8969 50.3843 59.8397 49.2085 59.3927 48.1436C58.2346 48.0632 57.1284 47.5949 56.2565 46.816C55.3845 46.037 54.7998 44.994 54.5985 43.8603C54.3424 41.9336 53.741 40.0429 53.3004 38.1343L53.3007 38.1337C53.2967 37.9535 53.3135 37.7736 53.3504 37.5985L53.3512 37.5984ZM62.3816 41.3253L62.7937 41.4356C63.2258 40.906 63.6393 40.36 64.0982 39.8546C64.2949 39.6752 64.5267 39.537 64.7806 39.4491C64.8925 39.4897 64.9863 39.5701 65.0441 39.6742C64.9505 39.9204 64.8241 40.1529 64.6685 40.3655C64.3523 40.7698 64.0033 41.1498 63.6677 41.539C65.9769 41.0675 68.5686 37.3171 68.4785 34.8834C67.4966 35.41 66.5691 35.9371 65.6146 36.4118L65.614 36.4115C64.3372 37.0133 63.3189 38.0335 62.7259 39.304C62.5239 39.9577 62.4076 40.6371 62.3816 41.3253L62.3816 41.3253ZM63.0626 71.1023C66.0226 70.0851 67.6891 65.865 66.2252 63.7412C65.2065 64.7126 64.2219 65.7371 63.1452 66.6576L63.1455 66.657C62.4714 67.2263 61.9988 67.9928 61.794 68.8524C61.5886 69.7116 61.662 70.6202 62.0026 71.4516L65.0078 66.0997L65.3389 66.2508C65.0485 67.0348 64.8066 67.8421 64.4538 68.5963C64.0752 69.4039 63.5909 70.1614 63.0627 71.1022L63.0626 71.1023ZM72.7923 65.6255C75.3089 64.3542 75.9204 62.4421 75.1131 59.78L75.1137 59.7804C74.7336 59.9294 74.3625 60.1 74.0021 60.289C73.3198 60.6929 72.6347 61.1001 71.9992 61.5692C70.4295 62.7272 70.1851 63.7578 71.0691 65.8649C71.5107 65.5343 71.9224 65.1669 72.3005 64.7666C72.6523 64.3259 72.8549 63.7701 73.179 63.3039C73.3575 63.142 73.5666 63.0155 73.7956 62.9331C73.871 63.1826 73.8903 63.4437 73.8518 63.6982C73.5676 64.3184 73.2007 64.8998 72.7929 65.6261L72.7923 65.6255ZM58.823 47.4893C59.0697 46.4591 58.3866 45.9646 57.9562 45.347C57.7701 45.0067 57.6241 44.6474 57.5202 44.276C57.8446 44.5127 58.1668 44.7515 58.4953 44.9823C58.55 45.0019 58.6078 45.0084 58.665 45.0024C57.7813 42.2126 56.2066 40.0281 54.357 39.2402C54.7926 41.1696 55.0699 43.009 55.646 44.76C56.1686 46.1418 57.3717 47.1752 58.8226 47.4899L58.823 47.4893ZM60.6432 30.0273C58.6861 32.0117 58.7331 36.2257 60.6724 37.6067C61.9548 35.2719 61.944 32.4225 60.6432 30.0273V30.0273ZM83.8657 69.8198C85.918 69.9258 87.9831 69.8815 89.8441 70.9113L89.8047 71.1719L84.9402 70.5079C86.8687 71.695 89.495 72.5272 91.9549 70.0958C89.2734 69.0289 86.5743 68.3474 83.8658 69.8196L83.8657 69.8198ZM62.5365 50.4489C64.603 48.466 65.5063 45.9396 66.7411 43.4646C63.2325 45.4666 61.5873 48.1293 62.5365 50.4489ZM85.6459 64.9295C87.1931 65.8196 90.0494 64.7904 91.5666 62.7964C89.9675 62.3196 85.4766 63.2472 84.585 64.3459L88.7909 63.7222L88.8953 64.0882C87.9633 64.7718 86.6743 64.5015 85.6459 64.9294L85.6459 64.9295ZM78.789 63.5251C79.8156 62.2186 80.6868 61.1109 81.5578 60.0022L81.8677 60.2077C81.7579 60.5906 81.6491 60.9733 81.5045 61.4768C82.8859 60.3316 83.7856 58.8104 83.6776 57.9036C80.8772 59.0236 78.2906 61.0269 78.789 63.5251L78.789 63.5251ZM64.455 49.4856C65.5756 48.0373 67.6444 47.0865 67.1602 44.6678L64.455 49.4856ZM72.2234 44.7484L72.1857 44.4752C71.7098 44.4994 71.2435 44.6011 70.8056 44.7781C70.4919 45.1223 70.2516 45.5263 70.097 45.9666C70.9783 45.4617 71.6012 45.1052 72.2234 44.7484L72.2234 44.7484ZM81.7494 49.5917C83.1315 49.9944 83.3935 49.8488 83.3046 48.8494C82.8263 49.0773 82.4005 49.2808 81.7487 49.5913L81.7494 49.5917ZM73.9425 54.8499L72.1441 55.349C72.4423 55.5766 72.8284 55.6524 73.1835 55.5539C73.5385 55.4554 73.8208 55.1941 73.9425 54.8499L73.9425 54.8499Z" fill="black"/>
<path d="M109.931 99.6678L102.714 94.5009L101.972 95.5368L98.9216 93.3526L99.6225 92.3737L101.763 93.9058L105.764 88.3166L103.624 86.7844L104.325 85.8054L107.376 87.9896L106.927 88.6157C107.202 89.2257 107.545 89.8613 107.956 90.5225C108.361 91.1913 108.814 91.8488 109.316 92.4949C109.825 93.1464 110.358 93.7638 110.917 94.3471C111.475 94.9303 112.043 95.4517 112.621 95.9113L109.931 99.6678ZM111.055 96.1504C110.636 95.805 110.193 95.3732 109.726 94.8552C109.254 94.3447 108.791 93.7892 108.337 93.1887C107.885 92.6013 107.468 92.0046 107.087 91.3988C106.7 90.8006 106.389 90.2333 106.153 89.6971L103.439 93.4878L109.734 97.9946L111.055 96.1504Z" fill="black"/>
<path d="M96.5709 105.421C95.7377 104.501 95.3277 103.575 95.3408 102.644C95.3471 101.72 95.748 100.897 96.5436 100.177C97.0348 99.7318 97.5744 99.4447 98.1623 99.3153C98.7496 99.199 99.3481 99.2551 99.9579 99.4836C100.574 99.719 101.161 100.145 101.718 100.76C102.551 101.681 102.962 102.6 102.949 103.517C102.937 104.435 102.533 105.254 101.737 105.975C101.232 106.432 100.686 106.719 100.099 106.835C99.5108 106.965 98.9154 106.912 98.3125 106.677C97.709 106.456 97.1284 106.037 96.5709 105.421ZM100.774 101.615C100.179 100.958 99.5778 100.552 98.971 100.396C98.3635 100.254 97.7762 100.439 97.2088 100.953C96.6484 101.46 96.4091 102.023 96.4907 102.642C96.5786 103.267 96.9201 103.909 97.5153 104.566C98.1104 105.223 98.7086 105.62 99.3098 105.755C99.9109 105.891 100.495 105.702 101.063 105.188C101.63 104.674 101.872 104.115 101.79 103.509C101.708 102.904 101.369 102.273 100.774 101.615Z" fill="black"/>
<path d="M90.1459 114.779L85.766 108.686L86.7663 107.967L90.5334 113.208L93.6823 110.944L89.9152 105.704L90.9156 104.985L95.2955 111.078L90.1459 114.779Z" fill="black"/>
<path d="M75.9781 116.108C75.5851 114.931 75.5817 113.918 75.968 113.071C76.3454 112.227 77.0431 111.635 78.0612 111.295C78.6898 111.085 79.2993 111.039 79.8896 111.157C80.4741 111.286 80.9995 111.578 81.4661 112.033C81.9356 112.496 82.3018 113.121 82.5648 113.909C82.9579 115.087 82.9642 116.093 82.5839 116.929C82.2035 117.764 81.5043 118.352 80.4862 118.692C79.8399 118.907 79.2245 118.95 78.6401 118.821C78.0497 118.703 77.5257 118.415 77.068 117.958C76.6045 117.513 76.2412 116.896 75.9781 116.108ZM81.3564 114.313C81.0756 113.472 80.6887 112.858 80.1957 112.472C79.6967 112.097 79.0842 112.031 78.3583 112.273C77.6412 112.512 77.1957 112.932 77.0218 113.531C76.8509 114.139 76.9058 114.864 77.1866 115.705C77.4673 116.546 77.8557 117.149 78.3517 117.515C78.8477 117.881 79.4587 117.942 80.1847 117.7C80.9106 117.458 81.3576 117.043 81.5256 116.455C81.6935 115.868 81.6371 115.154 81.3564 114.313Z" fill="black"/>
<path d="M65.3581 112.725L66.604 112.739L66.5328 119.22L68.7446 119.245C68.8833 117.669 69.0653 116.397 69.2906 115.429C69.5158 114.47 69.8082 113.773 70.1677 113.338C70.5271 112.903 70.9775 112.689 71.5188 112.695C71.6401 112.696 71.7614 112.707 71.8825 112.727C71.9944 112.737 72.0874 112.762 72.1617 112.8L72.1515 113.724C72.0957 113.705 72.0352 113.69 71.97 113.68C71.9048 113.67 71.8395 113.664 71.7742 113.664C71.2702 113.658 70.863 114.19 70.5525 115.26C70.2328 116.33 69.981 118.003 69.7973 120.278L65.2756 120.229L65.3581 112.725Z" fill="black"/>
<path d="M57.7712 120.318L58.1349 117.217L54.0887 116.743L53.7249 119.843L52.5013 119.7L53.3755 112.247L54.5991 112.39L54.2093 115.714L58.2556 116.188L58.6454 112.865L59.869 113.009L58.9948 120.461L57.7712 120.318Z" fill="black"/>
<path d="M47.1943 112.888C47.2396 112.786 47.3117 112.634 47.4107 112.433C47.5097 112.231 47.6129 112.032 47.7205 111.835C47.8195 111.634 47.8996 111.475 47.9609 111.359L41.7467 115.488L40.3634 114.877L43.3937 108.012L44.444 108.476L42.6574 112.523C42.5971 112.659 42.518 112.839 42.42 113.061C42.3135 113.279 42.2088 113.493 42.106 113.703C41.9995 113.921 41.9175 114.084 41.8599 114.191L48.0429 110.064L49.439 110.68L46.4087 117.545L45.3456 117.076L47.1943 112.888Z" fill="black"/>
<path d="M31.2356 107.737L33.2808 109.086L36.8421 103.687L37.8588 104.358L34.2975 109.757L36.3193 111.091L35.7489 111.955L30.6652 108.602L31.2356 107.737Z" fill="black"/>
<path d="M26.1467 100.384C24.7806 98.992 24.6039 97.799 25.6165 96.8055C26.1162 96.3153 26.6826 96.093 27.3158 96.1386C27.9423 96.1908 28.6183 96.5867 29.3439 97.3262L31.7263 99.7546L26.3698 105.01L25.507 104.13L27.7056 101.973L26.1467 100.384ZM26.5293 97.6359C26.2029 97.9562 26.0974 98.2885 26.2129 98.6328C26.3152 98.977 26.569 99.3556 26.9742 99.7686L28.4351 101.258L30.154 99.5713L28.6735 98.0623C28.3075 97.6892 27.9402 97.4481 27.5716 97.339C27.1965 97.2232 26.8491 97.3222 26.5293 97.6359Z" fill="black"/>
<path d="M12.808 66.582C12.388 66.582 12.178 66.2973 12.178 65.728L12.164 61.332C12.192 61.2013 12.3367 61.136 12.598 61.136C13.018 61.136 13.228 61.4207 13.228 61.99L13.242 66.386C13.214 66.5167 13.0694 66.582 12.808 66.582Z" fill="black"/>
<path d="M21.7219 24.2343L28.5954 29.8502L29.4015 28.8637L32.307 31.2376L31.5453 32.1699L29.5071 30.5047L25.1578 35.8278L27.196 37.4931L26.4343 38.4255L23.5287 36.0516L24.0159 35.4553C23.7804 34.829 23.4789 34.1728 23.1113 33.4868C22.7496 32.7936 22.3391 32.1086 21.8796 31.4319C21.4128 30.7493 20.9196 30.0991 20.3997 29.4816C19.8798 28.864 19.3462 28.3075 18.7988 27.812L21.7219 24.2343ZM20.3768 27.673C20.7724 28.0445 21.1867 28.5035 21.6199 29.0503C22.0589 29.5898 22.4858 30.1736 22.9006 30.8018C23.3141 31.4168 23.6918 32.0387 24.0337 32.6676C24.3815 33.2893 24.6561 33.8752 24.8574 34.4253L27.8071 30.8151L21.8117 25.9167L20.3768 27.673Z" fill="black"/>
<path d="M37.4214 20.064C38.1425 21.0745 38.4425 22.0413 38.3217 22.9646C38.2084 23.8824 37.7149 24.653 36.8412 25.2765C36.3017 25.6614 35.7326 25.8841 35.1336 25.9446C34.5369 25.992 33.9489 25.8669 33.3696 25.5694C32.785 25.2642 32.2514 24.7736 31.7689 24.0974C31.0479 23.0869 30.7467 22.1266 30.8654 21.2163C30.9841 20.3061 31.4803 19.5392 32.3541 18.9158C32.9087 18.5201 33.4844 18.2985 34.0811 18.251C34.6801 18.1905 35.2653 18.3118 35.837 18.6148C36.4108 18.9047 36.9389 19.3878 37.4214 20.064ZM32.806 23.3574C33.321 24.0791 33.8708 24.5525 34.4555 24.7773C35.0424 24.9892 35.6473 24.8728 36.2703 24.4283C36.8857 23.9892 37.1887 23.4577 37.1792 22.8338C37.1643 22.2024 36.8994 21.5257 36.3844 20.804C35.8694 20.0822 35.3211 19.6192 34.7397 19.415C34.1582 19.2107 33.556 19.3308 32.933 19.7754C32.31 20.2199 32.0044 20.7476 32.016 21.3585C32.0276 21.9693 32.291 22.6356 32.806 23.3574Z" fill="black"/>
<path d="M45.3761 12.2643L49.0301 18.8186L47.954 19.4185L44.8113 13.7813L41.4241 15.6697L44.5669 21.3069L43.4908 21.9068L39.8368 15.3525L45.3761 12.2643Z" fill="black"/>
<path d="M58.3753 12.3618C58.5916 13.5841 58.4467 14.5861 57.9405 15.3676C57.4435 16.1475 56.6666 16.631 55.6097 16.8181C54.9571 16.9336 54.3475 16.8898 53.7808 16.6868C53.2216 16.473 52.7446 16.1072 52.3496 15.5895C51.953 15.0625 51.6823 14.3901 51.5376 13.5721C51.3212 12.3498 51.4623 11.3533 51.961 10.5826C52.4596 9.81188 53.2374 9.33298 54.2943 9.1459C54.9652 9.02715 55.5802 9.07467 56.1394 9.28849C56.7061 9.49148 57.1823 9.85267 57.5681 10.372C57.9614 10.8806 58.2305 11.5439 58.3753 12.3618ZM52.7921 13.3501C52.9466 14.2232 53.2395 14.887 53.6706 15.3414C54.1093 15.7851 54.7055 15.9402 55.4591 15.8068C56.2035 15.6751 56.7056 15.3255 56.9654 14.7582C57.2235 14.1818 57.2753 13.457 57.1208 12.5839C56.9662 11.7108 56.6704 11.057 56.2333 10.6225C55.7962 10.1881 55.2009 10.0375 54.4473 10.1709C53.6937 10.3043 53.1907 10.6493 52.9385 11.2057C52.6863 11.7622 52.6375 12.477 52.7921 13.3501Z" fill="black"/>
<path d="M68.8097 16.6132L67.5652 16.5519L67.8841 10.0778L65.6748 9.96894C65.476 11.5384 65.2455 12.8026 64.9834 13.7615C64.7217 14.7111 64.4029 15.3963 64.0271 15.817C63.6513 16.2376 63.193 16.4347 62.6524 16.408C62.5312 16.4021 62.4104 16.3868 62.2902 16.3622C62.1788 16.3473 62.0867 16.3194 62.014 16.2785L62.0594 15.3556C62.1144 15.377 62.1743 15.394 62.2391 15.4065C62.3039 15.419 62.3689 15.4269 62.4342 15.4301C62.9376 15.4549 63.3648 14.9387 63.716 13.8813C64.0764 12.8244 64.3919 11.1626 64.6624 8.89583L69.1789 9.11831L68.8097 16.6132Z" fill="black"/>
<path d="M76.7266 9.75793L75.8112 12.7427L79.7062 13.9372L80.6216 10.9525L81.7994 11.3137L79.5992 18.4879L78.4213 18.1266L79.4024 14.9277L75.5075 13.7332L74.5264 16.9321L73.3485 16.5709L75.5488 9.3967L76.7266 9.75793Z" fill="black"/>
<path d="M86.2176 17.7527C86.1637 17.8509 86.0788 17.996 85.9629 18.1879C85.847 18.3798 85.727 18.5694 85.6029 18.7569C85.487 18.9488 85.3935 19.0998 85.3225 19.2098L91.8684 15.6307L93.194 16.3578L89.5854 22.9371L88.5788 22.3851L90.7063 18.5062C90.7781 18.3753 90.8724 18.2034 90.9891 17.9907C91.114 17.7824 91.2366 17.5782 91.357 17.3781C91.4819 17.1698 91.5776 17.0148 91.6441 16.9129L85.1296 20.4932L83.7916 19.7593L87.4003 13.18L88.4191 13.7388L86.2176 17.7527Z" fill="black"/>
<path d="M101.13 24.198L99.2795 22.5919L95.0393 27.4762L94.1195 26.6777L98.3597 21.7934L96.5307 20.2057L97.2099 19.4233L101.809 23.4157L101.13 24.198Z" fill="black"/>
<path d="M104.595 32.0291C105.733 33.613 105.727 34.819 104.575 35.6471C104.007 36.0557 103.413 36.1893 102.794 36.0479C102.183 35.9011 101.575 35.4071 100.97 34.5659L98.9843 31.8036L105.077 27.4236L105.796 28.4239L103.296 30.2217L104.595 32.0291ZM103.799 34.6876C104.17 34.4206 104.325 34.1082 104.263 33.7504C104.214 33.3947 104.021 32.9819 103.683 32.512L102.466 30.8182L100.511 32.2238L101.744 33.9403C102.05 34.3647 102.376 34.6588 102.724 34.8227C103.077 34.9941 103.435 34.9491 103.799 34.6876Z" fill="black"/>
<path d="M114.302 59.1478C114.722 59.1478 114.932 59.4325 114.932 60.0018L114.946 64.3978C114.918 64.5285 114.773 64.5938 114.512 64.5938C114.092 64.5938 113.882 64.3092 113.882 63.7398L113.868 59.3438C113.896 59.2132 114.041 59.1478 114.302 59.1478Z" fill="black"/>
</svg>
