<svg width="149" height="349" viewBox="0 0 149 349" fill="none" xmlns="http://www.w3.org/2000/svg">
<ellipse cx="195.626" cy="174.562" rx="208.5" ry="157.5" transform="rotate(-32.9449 195.626 174.562)" fill="#C1B3D1" fill-opacity="0.27"/>
</svg>
