<svg width="142" height="181" viewBox="0 0 142 181" fill="none" xmlns="http://www.w3.org/2000/svg">
<ellipse cx="86.933" cy="90.4082" rx="107.5" ry="64" transform="rotate(-47.3059 86.933 90.4082)" fill="#E0EEF8" fill-opacity="0.79"/>
</svg>
