<svg width="101" height="116" viewBox="0 0 101 116" fill="none" xmlns="http://www.w3.org/2000/svg">
<ellipse cx="67.7357" cy="87.0876" rx="94.5" ry="54.5" transform="rotate(120.303 67.7357 87.0876)" fill="#D7A1C2" fill-opacity="0.48"/>
</svg>
