<svg width="116" height="98" viewBox="0 0 116 98" fill="none" xmlns="http://www.w3.org/2000/svg">
<path fill-rule="evenodd" clip-rule="evenodd" d="M15.9062 30.1903C20.8505 27.2962 22.4076 24.4746 23.0352 22.166C19.3126 22.4129 16.5338 26.4347 15.9062 30.1903ZM20.7642 17.5199C20.2468 17.9893 19.7054 18.5459 19.1545 19.3396C18.6083 20.1333 18.0525 21.1739 17.5591 22.5968C17.8944 22.4371 21.8422 20.385 22.6711 19.6348C23.8353 18.5798 25.0857 16.6729 25.4978 15.6421C23.6868 15.4969 22.1297 16.2954 20.7642 17.5247V17.5199ZM100.103 30.1903C95.1591 27.2962 93.602 24.4746 92.9744 22.166C96.697 22.4129 99.4758 26.4347 100.103 30.1903ZM95.2453 17.5199C95.7675 17.9893 96.3041 18.5459 96.8551 19.3396C97.4013 20.1333 97.957 21.1739 98.4505 22.5968C98.1151 22.4371 94.1674 20.385 93.3337 19.6348C92.1695 18.5798 90.919 16.6729 90.507 15.6421C92.318 15.4969 93.8751 16.2954 95.2405 17.5247L95.2453 17.5199ZM58.0048 4.13314C73.0629 4.13314 85.2657 16.4648 85.2657 31.6713C85.2657 46.8826 73.0582 59.2094 58.0048 59.2094C42.9466 59.2094 30.7439 46.8778 30.7439 31.6713C30.7439 16.46 42.9514 4.13314 58.0048 4.13314ZM94.9052 84.7391C95.1783 85.3683 95.231 85.799 94.7758 86.0071C94.6129 86.0797 94.4596 86.1523 94.2967 86.2249C94.1482 85.891 94.0092 85.557 93.8655 85.2182C93.7218 84.8843 93.5876 84.5455 93.4487 84.2116C93.602 84.139 93.7553 84.0664 93.9134 83.9938C94.359 83.7905 94.6369 84.1148 94.91 84.7391H94.9052ZM95.7532 84.3568C95.1687 83.0597 94.4931 82.658 93.5541 83.0984C93.396 83.171 93.2283 83.2533 93.0702 83.3307C92.8546 82.8129 92.6246 82.2902 92.3995 81.7723C92.9313 81.5255 93.4535 81.2738 93.9805 81.027C93.8511 80.7366 93.717 80.4462 93.5876 80.1559C92.8067 80.5285 92.0306 80.906 91.2305 81.2738C91.6617 82.3047 92.0881 83.3404 92.5097 84.3761C92.9361 85.4118 93.3673 86.4475 93.7984 87.4784C94.268 87.2848 94.7327 87.0767 95.2022 86.8686C96.1892 86.433 96.3425 85.6538 95.758 84.3568H95.7532ZM89.3093 82.116C88.9931 82.2418 88.6864 82.3628 88.3846 82.4838C88.4517 83.0065 88.514 83.534 88.5858 84.0519C88.6529 84.5697 88.7008 85.0972 88.7775 85.6151C88.4852 85.1795 88.2025 84.7488 87.9151 84.3132C87.6324 83.8825 87.3545 83.442 87.0671 83.0065C86.7509 83.1226 86.4347 83.2388 86.1185 83.3549C86.5592 83.9841 87.0048 84.6084 87.4504 85.2328C87.9007 85.8619 88.3702 86.4863 88.8206 87.1057C88.835 87.2945 88.8685 87.4784 88.8829 87.6623C88.9308 88.1995 88.7918 88.4076 88.2648 88.5867C88.3654 88.8771 88.4565 89.1675 88.5571 89.4579C89.5297 89.1288 89.8123 88.8142 89.75 87.8462C89.6926 86.8928 89.6255 85.9345 89.5488 84.9811C89.4722 84.0277 89.3859 83.0742 89.2997 82.116H89.3093ZM86.0226 90.2806C85.692 89.2449 85.3711 88.2092 85.0453 87.1735C84.7195 86.1378 84.4033 85.1021 84.0727 84.0664C83.172 84.3616 82.2617 84.6471 81.337 84.9133C81.4999 85.4893 81.6532 86.0652 81.8161 86.6363C81.979 87.2122 82.1371 87.7833 82.2952 88.3592C82.7839 90.1209 82.4102 90.358 81.9551 90.479C81.9263 90.4887 81.8928 90.4936 81.864 90.5032C81.9503 90.7985 82.0269 91.0937 82.1036 91.3841C82.2042 91.3599 82.3048 91.3308 82.4054 91.3066C82.851 91.1856 83.2534 91.0066 83.4307 90.5662C83.608 90.1257 83.6175 89.4095 83.2678 88.214C83.1384 87.7688 83.0139 87.3187 82.8845 86.8734C82.7552 86.4282 82.6306 85.9781 82.5012 85.5328C82.8174 85.4409 83.1336 85.3441 83.4403 85.2424C83.7086 86.1329 83.9769 87.0186 84.2404 87.9091C84.5039 88.7997 84.7722 89.6902 85.0405 90.5758C85.3711 90.479 85.6968 90.3774 86.0274 90.2758L86.0226 90.2806ZM77.3317 92.4488C77.1018 91.4131 76.8862 90.3774 76.6706 89.3417C76.455 88.306 76.2394 87.2703 76.0238 86.2394C75.6932 86.3072 75.3626 86.3701 75.0273 86.433C75.2333 87.4687 75.4489 88.5044 75.6501 89.5353C75.8561 90.571 76.0573 91.6019 76.2681 92.6376C76.6131 92.5747 76.9676 92.5117 77.3317 92.4488ZM80.1249 91.8584C79.6985 91.3792 79.2961 90.8953 78.8936 90.4064C78.4864 89.9176 78.0935 89.4288 77.6911 88.9448C77.83 88.4028 77.9546 87.8656 78.0839 87.3235C78.2085 86.7863 78.3379 86.2394 78.4528 85.6877C78.1127 85.7748 77.7677 85.8522 77.4276 85.9248C77.3126 86.4766 77.1832 87.0235 77.0634 87.5704C76.9437 88.1172 76.7951 88.669 76.661 89.2159C77.0299 89.6998 77.4084 90.1887 77.7869 90.6678C78.1702 91.1518 78.5582 91.6357 78.9607 92.1149C79.344 92.0326 79.732 91.9552 80.1249 91.8632V91.8584ZM67.6826 86.1039C67.4575 86.1281 67.2275 86.1523 67.0119 86.1765C67.0215 86.4766 66.825 86.5976 66.5663 86.6218C66.3124 86.6411 66.0968 86.554 66.0489 86.2588C65.8189 86.2781 65.5842 86.2975 65.3686 86.3169C65.4548 87.0815 66.0154 87.2848 66.6238 87.2316C67.2275 87.1783 67.7401 86.8734 67.6778 86.1039H67.6826ZM66.4274 93.8814C66.6286 93.2329 66.8442 92.5747 67.0311 91.9261C67.2179 91.2776 67.4239 90.6194 67.6108 89.9612C67.673 90.5952 67.7449 91.2292 67.812 91.8584C67.8791 92.4875 67.9414 93.1215 68.018 93.7555C68.3869 93.7217 68.7414 93.6829 69.1152 93.6442C68.9906 92.6134 68.8756 91.5777 68.751 90.5468C68.6265 89.5159 68.5019 88.4802 68.3821 87.4494C68.0803 87.4832 67.7737 87.5171 67.4622 87.5462C67.2946 88.2044 67.0981 88.8626 66.9161 89.5159C66.7292 90.1645 66.5376 90.8227 66.3459 91.4712C66.2932 90.842 66.2357 90.208 66.1783 89.574C66.1208 88.94 66.0633 88.3108 66.001 87.6768C65.6465 87.7059 65.3159 87.7349 64.9661 87.7591C65.0524 88.79 65.129 89.8257 65.2153 90.8565C65.3015 91.8874 65.3782 92.9231 65.4596 93.954C65.7854 93.9298 66.1064 93.9056 66.4322 93.8814H66.4274ZM62.3119 94.1088C62.264 93.078 62.2209 92.0423 62.173 91.0114C62.1251 89.9806 62.0819 88.9448 62.034 87.914C61.6795 87.9285 61.325 87.9382 60.9848 87.9479C61.0135 88.9787 61.0519 90.0144 61.0854 91.0453C61.1189 92.0762 61.1525 93.1119 61.186 94.1427C61.5549 94.133 61.9334 94.1185 62.3119 94.1088ZM59.4373 92.2891C59.4469 92.9134 59.2888 93.3006 58.6899 93.3055C58.4839 93.3055 58.2827 93.3103 58.0814 93.3103C58.0814 92.9763 58.0862 92.6424 58.091 92.3085C58.0958 91.9745 58.091 91.6406 58.091 91.3066C58.2827 91.3066 58.4839 91.3018 58.6851 91.3018C59.2792 91.297 59.4325 91.6696 59.4421 92.2939L59.4373 92.2891ZM60.5249 92.2746C60.4913 90.9775 59.9595 90.4016 58.7187 90.4161C58.4935 90.4161 58.2875 90.421 58.0862 90.421C58.0862 90.0144 58.0862 89.6127 58.0862 89.2062C58.0862 88.7996 58.0862 88.3979 58.0862 87.9914C57.7317 87.9866 57.3772 87.9817 57.0322 87.9769C57.0226 89.0078 57.0131 90.0435 57.0035 91.0743C56.9939 92.1052 56.9747 93.1409 56.9651 94.1718C57.5592 94.1766 58.1533 94.1814 58.7474 94.1766C60.041 94.1621 60.5632 93.5668 60.5297 92.2697L60.5249 92.2746ZM54.402 88.8045C54.4115 88.5093 54.4259 88.2189 54.4403 87.9237C53.3527 87.8801 52.2652 87.822 51.1776 87.7543C51.1536 88.0446 51.1297 88.3399 51.1105 88.6351C51.4794 88.6593 51.8531 88.6835 52.222 88.7029C52.1693 89.5885 52.1071 90.4742 52.0448 91.3599C51.9825 92.2456 51.9202 93.1312 51.8675 94.0169C52.2316 94.0363 52.6101 94.0556 52.9838 94.075C53.0317 93.1893 53.0796 92.3036 53.1323 91.418C53.1802 90.5323 53.2234 89.6466 53.2809 88.7609C53.6593 88.7803 54.0283 88.79 54.4067 88.8045H54.402ZM47.9389 93.7362C48.0539 92.7053 48.1736 91.6696 48.2838 90.6388C48.394 89.6079 48.509 88.5722 48.6144 87.5413C48.2742 87.5026 47.9293 87.4687 47.5891 87.43C47.4646 88.4609 47.3448 89.4966 47.2202 90.5274C47.0909 91.5631 46.9663 92.594 46.8417 93.6249C47.2058 93.6588 47.5748 93.6975 47.9389 93.7362ZM45.4092 91.5438C45.323 92.173 45.117 92.5359 44.5373 92.4633C44.336 92.4391 44.1348 92.4101 43.9288 92.3859C43.9815 92.052 44.0342 91.718 44.0917 91.3792C44.1444 91.0453 44.1923 90.7065 44.245 90.3726C44.4462 90.3968 44.6474 90.4258 44.8391 90.45C45.4092 90.5226 45.4955 90.9146 45.4092 91.5438ZM46.4824 91.6745C46.6501 90.3774 46.2189 89.7289 45.0116 89.574C44.8056 89.545 44.5947 89.5208 44.3887 89.4917C44.4558 89.0852 44.5181 88.6786 44.5804 88.277C44.6427 87.8704 44.7049 87.4639 44.7672 87.0622C44.4271 87.0089 44.0965 86.9509 43.7563 86.8976C43.5886 87.9333 43.4114 88.9642 43.2389 89.9999C43.0712 91.0356 42.8987 92.0665 42.7215 93.1022C43.3012 93.1893 43.8761 93.2716 44.4558 93.3442C45.7206 93.499 46.3195 92.9715 46.4824 91.6745ZM39.8037 88.1414C39.6744 88.7706 39.4588 89.1142 38.9174 88.9981C38.7258 88.9545 38.5389 88.9158 38.3473 88.8771C38.4143 88.5383 38.4958 88.2044 38.5772 87.8704C38.6587 87.5365 38.7305 87.1977 38.8024 86.8637C38.9893 86.9025 39.1665 86.9412 39.3582 86.9847C39.8852 87.1009 39.9379 87.5123 39.8037 88.1414ZM40.8194 88.335C41.0781 87.038 40.7092 86.3556 39.5786 86.1136C39.0515 86.0023 38.5389 85.8813 38.0311 85.7651C37.7819 86.8008 37.5424 87.8365 37.298 88.8722C37.0537 89.9079 36.8141 90.9437 36.5602 91.9794C36.9052 92.052 37.2549 92.1246 37.5999 92.1972C37.6909 91.7906 37.7867 91.3841 37.8778 90.9824C37.964 90.5807 38.0646 90.1693 38.146 89.7628C38.3473 89.8063 38.5533 89.8499 38.7545 89.8934C39.9427 90.1354 40.5607 89.6369 40.8194 88.3399V88.335ZM31.4434 90.6775C31.7596 89.6418 32.071 88.6061 32.3777 87.5655C32.6843 86.5298 32.9861 85.4893 33.2975 84.4536C32.9909 84.3519 32.6891 84.2551 32.3968 84.1535C32.0662 85.1892 31.7548 86.2297 31.4338 87.2654C31.1128 88.3012 30.7918 89.3417 30.4613 90.3774C30.7918 90.4742 31.1176 90.5758 31.4482 90.6775H31.4434ZM34.1408 91.4083C34.0114 90.7888 33.8725 90.1693 33.7575 89.545C33.6425 88.9255 33.5419 88.3012 33.4317 87.6817C33.7958 87.2558 34.1599 86.8299 34.5288 86.4088C34.8977 85.9829 35.2523 85.5619 35.626 85.1408C35.3002 85.044 34.9696 84.9472 34.6486 84.8553C34.2845 85.286 33.906 85.7216 33.5467 86.1523C33.1826 86.5879 32.7993 87.0138 32.4304 87.4445C32.5166 88.0592 32.6028 88.669 32.6987 89.2788C32.7945 89.8886 32.9143 90.4984 33.0245 91.113C33.3934 91.2147 33.7718 91.3163 34.1503 91.4131L34.1408 91.4083ZM27.51 87.067C27.1794 86.9412 26.8536 86.8154 26.523 86.6895C26.7674 86.2878 27.0021 85.8861 27.2465 85.4796C27.486 85.0779 27.7256 84.6713 27.9651 84.2745C27.8885 84.7391 27.8262 85.2086 27.74 85.6683C27.6537 86.1329 27.5867 86.5976 27.51 87.0622V87.067ZM28.1903 89.6611C28.2909 88.5383 28.3963 87.4155 28.5209 86.3023C28.6455 85.1844 28.7844 84.0664 28.9377 82.9436C28.6503 82.8274 28.3676 82.7209 28.0897 82.6096C27.4812 83.5534 26.868 84.502 26.2547 85.4505C25.6367 86.404 24.9995 87.3429 24.3575 88.2915C24.6881 88.4125 25.0139 88.5335 25.3349 88.6545C25.5648 88.2721 25.79 87.8898 26.0152 87.5074C26.4608 87.6768 26.9159 87.8462 27.3711 88.0108C27.3088 88.4463 27.2465 88.8868 27.1938 89.3272C27.5244 89.4385 27.8549 89.545 28.1903 89.6611ZM23.1071 85.7651C23.337 85.1892 23.3753 84.8698 23.3083 84.56C23.2699 84.3906 23.1981 84.2164 23.0831 84.0567C23.2747 84.0277 23.4281 83.9647 23.5909 83.8583C23.8592 83.684 24.0221 83.4517 24.2234 82.9629C24.4821 82.3434 24.5731 81.9369 24.4485 81.4916C24.3336 81.0851 24.0844 80.7996 23.6676 80.5963C23.2747 80.4075 22.901 80.3979 22.58 80.5624C22.2063 80.7512 21.8853 81.1286 21.6218 81.6901C21.8901 81.8159 22.1632 81.9417 22.4219 82.0676C22.5465 81.8062 22.6759 81.5981 22.8531 81.4916C22.9825 81.4142 23.1214 81.3997 23.2843 81.4771C23.4328 81.5449 23.5335 81.661 23.5622 81.8159C23.6053 82.0385 23.543 82.2708 23.3945 82.6241C23.2077 83.0646 23.0735 83.2339 22.901 83.3211C22.7669 83.3888 22.6232 83.3743 22.4938 83.3114C22.3549 83.2436 22.2159 83.1807 22.077 83.1178C21.962 83.3936 21.8374 83.6695 21.7225 83.9454C21.8614 84.0083 22.0003 84.0712 22.1393 84.139C22.283 84.2067 22.374 84.2987 22.4267 84.4584C22.489 84.6617 22.4507 84.8988 22.259 85.3489C22.1057 85.707 21.9668 85.9297 21.7656 86.0458C21.6362 86.1233 21.4877 86.1281 21.32 86.0507C21.1571 85.9781 21.0517 85.8522 21.0182 85.6974C20.9751 85.4941 21.0278 85.2521 21.1475 84.9859C20.8601 84.8553 20.587 84.7294 20.3091 84.6036C20.0648 85.1844 19.9929 85.678 20.1175 86.1039C20.2229 86.4669 20.496 86.7282 20.9415 86.9267C21.4062 87.1299 21.8183 87.1396 22.1968 86.9412C22.6088 86.7282 22.8579 86.3798 23.1071 85.7554V85.7651ZM84.1925 71.2991C84.3602 72.4219 87.0192 75.7178 87.4072 76.6712C89.8075 75.5823 92.3947 74.3869 94.7087 73.0608C91.5323 70.9797 88.0636 72.8043 84.1925 71.2991ZM27.9699 72.3493C27.6106 72.3493 27.2273 72.3251 26.8105 72.2816C26.0344 72.1993 25.3445 72.1606 24.7408 72.1606C22.81 72.1606 21.0325 72.7075 20.3953 73.0608C22.4746 74.2514 25.5505 75.771 27.9795 76.8358C28.473 75.621 30.1834 73.8594 30.49 71.817C30.3319 71.9041 30.1546 71.9815 29.9726 72.0493C29.4456 72.2429 28.7844 72.3542 27.9699 72.3542V72.3493ZM57.6455 84.4923C44.015 84.4923 30.8302 80.8334 19.4036 74.2465C18.0813 76.589 14.0952 83.6453 12.7776 85.9829C26.6812 93.9975 42.1657 98 57.6455 98C73.13 98 88.6098 93.9975 102.513 85.9829C101.881 84.8504 96.7258 75.7227 95.8921 74.2465C84.6716 80.7076 71.525 84.4923 57.6455 84.4923ZM61.646 0.19359C61.2435 0.145192 60.8411 0.106474 60.4338 0.0774359L60.3428 1.27769C60.7309 1.30673 61.1189 1.34545 61.507 1.38901L61.6412 0.18875L61.646 0.19359ZM64.051 0.57109C63.6534 0.493654 63.2557 0.421058 62.8533 0.358141L62.6712 1.54872C63.0593 1.61164 63.4426 1.67939 63.8259 1.75199L64.051 0.56625V0.57109ZM66.4226 1.13734C66.0297 1.02603 65.6369 0.924391 65.2392 0.832436L64.9709 2.00849C65.3494 2.10045 65.7279 2.19724 66.1016 2.30372L66.4226 1.14218V1.13734ZM68.7367 1.8875C68.3534 1.74715 67.9701 1.61648 67.5868 1.49064L67.2275 2.6425C67.6012 2.76349 67.9701 2.88933 68.3342 3.02484L68.7367 1.8875ZM70.9884 2.81673C70.6195 2.64734 70.2458 2.48763 69.8721 2.32792L69.4218 3.4459C69.7811 3.59593 70.1404 3.7508 70.4997 3.91535L70.9932 2.81673H70.9884ZM73.1636 3.92019C72.809 3.72176 72.4497 3.52817 72.0856 3.34426L71.5538 4.42353C71.9035 4.59776 72.2485 4.78167 72.5886 4.97526L73.1636 3.92019ZM75.2476 5.19305C74.9075 4.96558 74.5625 4.74779 74.2176 4.53484L73.6043 5.57055C73.9397 5.77382 74.2703 5.98193 74.5913 6.19971L75.2476 5.19305ZM77.2215 6.62077C76.9005 6.3691 76.5748 6.12712 76.249 5.88513L75.5591 6.8676C75.8753 7.09991 76.1915 7.33221 76.4981 7.5742L77.2263 6.61593L77.2215 6.62077ZM79.0852 8.20337C78.7834 7.9275 78.4816 7.66132 78.1702 7.39513L77.4036 8.31952C77.7054 8.57603 77.9977 8.83254 78.2851 9.09872L79.0805 8.20337H79.0852ZM80.8244 9.92632C80.5465 9.63109 80.2638 9.33587 79.9716 9.05032L79.1379 9.9118C79.4158 10.1877 79.6889 10.4684 79.9572 10.7588L80.8196 9.92632H80.8244ZM82.4246 11.7799C82.1707 11.4605 81.9072 11.1508 81.6436 10.841L80.7477 11.6347C81.0064 11.9348 81.2556 12.2349 81.4999 12.5398L82.4246 11.7799ZM83.8811 13.7497C83.6511 13.4109 83.4163 13.0818 83.172 12.7527L82.2138 13.4739C82.4485 13.7933 82.6737 14.1127 82.8941 14.437L83.8763 13.7497H83.8811ZM85.1794 15.8308C84.9782 15.4775 84.7674 15.129 84.5518 14.7806L83.5409 15.4243C83.7469 15.7582 83.9529 16.097 84.1493 16.4358L85.1794 15.826V15.8308ZM86.3149 18.0039C86.1424 17.636 85.9556 17.2634 85.7687 16.9052L84.7147 17.4763C84.892 17.8296 85.0692 18.1732 85.2417 18.5314L86.3149 18.0087V18.0039ZM87.2827 20.264C87.1389 19.8817 86.9808 19.4993 86.8227 19.1218L85.7304 19.6058C85.8837 19.964 86.0322 20.3318 86.1712 20.6996L87.2827 20.264ZM88.0684 22.5871C87.9534 22.1951 87.8288 21.8031 87.6995 21.4159L86.5688 21.8079C86.6934 22.1806 86.8131 22.5581 86.9281 22.9356L88.0684 22.5823V22.5871ZM88.6768 24.9682C88.5906 24.5665 88.4996 24.1697 88.399 23.7728L87.2443 24.0729C87.3402 24.4552 87.4312 24.8376 87.5126 25.2248L88.6768 24.9682ZM89.0985 27.3881C89.0458 26.9816 88.9835 26.5799 88.9116 26.1733L87.7378 26.3863C87.8049 26.7735 87.8624 27.1655 87.9199 27.5575L89.1032 27.3881H89.0985ZM89.3332 29.8322C89.3093 29.4257 89.2805 29.0143 89.2422 28.6077L88.054 28.7287C88.0923 29.1207 88.1211 29.5176 88.1451 29.9096L89.338 29.8322H89.3332ZM89.3811 32.2908C89.3859 31.8842 89.3907 31.468 89.3811 31.0615L88.1882 31.0905C88.2217 31.4245 88.193 31.9278 88.1882 32.2714L89.3811 32.2859V32.2908ZM89.2422 34.7494C89.2805 34.3428 89.3093 33.9315 89.3332 33.5249L88.1403 33.4572C88.1163 33.8492 88.0876 34.246 88.0492 34.6381L89.2374 34.7542L89.2422 34.7494ZM88.9164 37.1838C88.9883 36.7821 89.0458 36.3755 89.1032 35.969L87.9199 35.8093C87.8672 36.2013 87.8097 36.5885 87.7426 36.9805L88.9212 37.1838H88.9164ZM88.4038 39.5843C88.5044 39.1874 88.5954 38.7906 88.6816 38.3889L87.5126 38.142C87.4312 38.5292 87.3402 38.9116 87.2443 39.2939L88.4038 39.5891V39.5843ZM87.7043 41.9412C87.8336 41.5541 87.9582 41.162 88.0732 40.77L86.9281 40.4264C86.8131 40.8039 86.6982 41.1814 86.5688 41.5541L87.6995 41.9412H87.7043ZM86.8275 44.2353C86.9904 43.8578 87.1437 43.4754 87.2875 43.0931L86.1712 42.6624C86.0322 43.0302 85.8837 43.3932 85.7304 43.7561L86.8275 44.2304V44.2353ZM85.7783 46.4519C85.9651 46.0889 86.1472 45.7259 86.3245 45.3533L85.2465 44.8354C85.0788 45.1935 84.9015 45.542 84.7195 45.8953L85.7783 46.4519ZM84.5614 48.5814C84.777 48.2329 84.9878 47.8844 85.189 47.5311L84.1541 46.931C83.9577 47.2746 83.7565 47.6086 83.5457 47.9425L84.5566 48.5814H84.5614ZM83.1816 50.6092C83.4211 50.2801 83.6607 49.9462 83.8906 49.6122L82.9037 48.9298C82.6833 49.2541 82.4533 49.5735 82.2234 49.8929L83.1816 50.6092ZM81.6532 52.5209C81.9215 52.2112 82.1802 51.9014 82.4342 51.582L81.5047 50.827C81.2604 51.1319 81.0064 51.4368 80.7525 51.732L81.6532 52.5209ZM79.9812 54.3068C80.2686 54.0212 80.5513 53.726 80.834 53.4308L79.9668 52.6032C79.6985 52.8887 79.4254 53.1694 79.1475 53.4501L79.986 54.3068H79.9812ZM78.1797 55.962C78.4912 55.7006 78.793 55.4296 79.0948 55.1537L78.2899 54.2632C77.9977 54.5294 77.7054 54.7859 77.4084 55.0424L78.1797 55.962ZM76.2585 57.472C76.5843 57.2348 76.9197 56.988 77.2359 56.7363L76.4981 55.7877C76.1819 56.0152 75.8801 56.262 75.5591 56.4943L76.2585 57.472ZM74.2272 58.8271C74.5769 58.6142 74.9171 58.3964 75.2572 58.1689L74.5961 57.1671C74.2751 57.3849 73.9397 57.593 73.6091 57.7962L74.2272 58.8271ZM72.0952 60.0177C72.4593 59.8338 72.8186 59.6402 73.1731 59.4418L72.5886 58.3867C72.2485 58.5754 71.9035 58.7642 71.5538 58.9384L72.0904 60.0177H72.0952ZM69.8817 61.034C70.2554 60.8792 70.6291 60.7146 70.998 60.5452L70.4997 59.4514C70.1452 59.616 69.7859 59.7709 69.4218 59.9209L69.8817 61.034ZM67.5916 61.8761C67.9797 61.7503 68.3582 61.6196 68.7414 61.4793L68.3294 60.3468C67.9605 60.4823 67.5916 60.6081 67.2227 60.7291L67.5916 61.8761ZM65.244 62.5343C65.6369 62.4424 66.0345 62.3359 66.4274 62.2294L66.1016 61.0679C65.7279 61.1744 65.3494 61.2712 64.9709 61.3631L65.2488 62.5343H65.244ZM62.8581 63.0038C63.2605 62.9409 63.6582 62.8683 64.0558 62.7909L63.8259 61.61C63.4426 61.6874 63.0593 61.7551 62.6712 61.8132L62.8581 63.0038ZM60.4434 63.2894C60.8459 63.2555 61.2531 63.2216 61.6555 63.1732L61.5118 61.9778C61.1237 62.0213 60.7357 62.0601 60.3476 62.0891L60.4434 63.2894ZM58.0144 63.3861C58.4168 63.3861 58.8241 63.3813 59.2313 63.3619L59.1786 62.1568C58.7905 62.1762 58.3977 62.1762 58.0096 62.181L58.0192 63.3861H58.0144ZM55.5805 63.2942C55.983 63.3281 56.395 63.3523 56.7975 63.3668L56.8358 62.1617C56.4477 62.1472 56.0596 62.123 55.6716 62.0939L55.5805 63.2942ZM53.1659 63.0135C53.5683 63.0764 53.966 63.1296 54.3732 63.178L54.5074 61.9778C54.1193 61.9294 53.7312 61.881 53.3479 61.8181L53.1659 63.0086V63.0135ZM50.7799 62.544C51.1728 62.636 51.5705 62.7231 51.9681 62.8005L52.1933 61.6148C51.81 61.5374 51.4267 61.4551 51.0482 61.368L50.7799 62.544ZM48.4324 61.8858C48.8204 62.0117 49.2085 62.1278 49.5966 62.2391L49.9176 61.0776C49.5391 60.9711 49.1654 60.8598 48.7965 60.7388L48.4371 61.8907L48.4324 61.8858ZM46.1422 61.0437C46.5207 61.1986 46.8944 61.3486 47.2777 61.489L47.6802 60.3516C47.3113 60.2161 46.9519 60.0709 46.5926 59.9257L46.1422 61.0437ZM43.9288 60.0274C44.2929 60.2113 44.657 60.3855 45.0259 60.5597L45.5194 59.4611C45.1649 59.2966 44.8103 59.1272 44.4606 58.9481L43.9288 60.0274ZM41.7968 58.8368C42.1465 59.0497 42.4963 59.253 42.8508 59.4514L43.4257 58.3964C43.0856 58.2028 42.7454 58.0092 42.41 57.8059L41.7968 58.8416V58.8368ZM39.7654 57.4865C40.096 57.7236 40.4314 57.9559 40.7667 58.1834L41.4231 57.1768C41.0973 56.959 40.7763 56.7363 40.4553 56.504L39.7654 57.4865ZM37.8442 55.9813C38.1556 56.2427 38.4718 56.504 38.7928 56.7557L39.5211 55.7974C39.2144 55.5554 38.9078 55.3086 38.6108 55.0569L37.8442 55.9813ZM36.0428 54.331C36.3302 54.6165 36.6273 54.9021 36.9291 55.1779L37.7292 54.2826C37.4418 54.0164 37.1543 53.7502 36.8812 53.4743L36.0476 54.3358L36.0428 54.331ZM34.3707 52.5451C34.639 52.8549 34.9121 53.1598 35.19 53.455L36.0524 52.6226C35.7841 52.337 35.5206 52.0466 35.2666 51.7466L34.3707 52.5403V52.5451ZM32.8424 50.6334C33.0819 50.9625 33.3359 51.2868 33.5898 51.6062L34.5145 50.8464C34.2701 50.5415 34.0306 50.2269 33.7958 49.9123L32.8376 50.6334H32.8424ZM31.4626 48.6056C31.6782 48.954 31.9034 49.2976 32.1333 49.6316L33.1155 48.9443C32.8951 48.6201 32.6795 48.291 32.4735 47.957L31.4626 48.6007V48.6056ZM30.2457 46.4809C30.4373 46.8439 30.6289 47.202 30.835 47.5553L31.865 46.9455C31.6686 46.6019 31.4817 46.2583 31.2997 45.9098L30.2457 46.4809ZM29.1916 44.2643C29.3545 44.6418 29.5222 45.0145 29.6947 45.3823L30.7679 44.8596C30.6002 44.5015 30.4373 44.1433 30.284 43.7803L29.1916 44.2643ZM28.3149 41.9703C28.4442 42.3574 28.588 42.7398 28.7317 43.1221L29.8432 42.6866C29.7043 42.3187 29.5701 41.9461 29.4408 41.5734L28.3101 41.9654L28.3149 41.9703ZM27.6154 39.6133C27.7064 40.0053 27.8262 40.4119 27.9412 40.7991L29.0814 40.4458C28.9713 40.0731 28.8563 39.6859 28.77 39.3084L27.6154 39.6085V39.6133ZM27.1028 37.2128C27.1746 37.6145 27.2513 38.0162 27.3375 38.4179L28.5017 38.1614C28.4203 37.7742 28.3436 37.387 28.2766 36.9999L27.1028 37.2128ZM26.777 34.7784C26.8153 35.1849 26.8632 35.5915 26.9159 35.998L28.0993 35.8286C28.0466 35.4366 28.0035 35.0446 27.9651 34.6526L26.777 34.7736V34.7784ZM26.638 32.3247C26.6476 32.736 26.662 33.1426 26.6859 33.554L27.8789 33.4765C27.8549 33.0845 27.8406 32.6876 27.8358 32.2956L26.6428 32.3247H26.638ZM26.6811 29.8661C26.6572 30.2774 26.6428 30.684 26.6332 31.0954L27.8262 31.1099C27.8358 30.713 27.8502 30.321 27.8693 29.929L26.6764 29.8661H26.6811ZM26.9111 27.4172C26.8584 27.8237 26.8105 28.2302 26.7722 28.6368L27.9603 28.7529C27.9987 28.3609 28.0418 27.9689 28.0945 27.5769L26.9111 27.4172ZM27.3279 24.9973C27.2417 25.399 27.165 25.8007 27.0932 26.2024L28.2718 26.4057C28.3388 26.0185 28.4155 25.6313 28.4969 25.2441L27.3279 24.9973ZM27.9316 22.6161C27.8166 23.0082 27.7064 23.405 27.6058 23.8019L28.7652 24.0971C28.8611 23.7148 28.9665 23.3373 29.0767 22.9598L27.9316 22.6161ZM28.7173 20.2931C28.5736 20.6754 28.4347 21.0577 28.3005 21.4498L29.4312 21.8369C29.5558 21.4643 29.6899 21.0916 29.8336 20.7238L28.7173 20.2931ZM29.6803 18.0329C29.5031 18.4007 29.3402 18.7734 29.1773 19.1509L30.2744 19.6252C30.4325 19.2622 30.5906 18.904 30.7583 18.5459L29.6803 18.0281V18.0329ZM30.8158 15.8598C30.6146 16.2131 30.4133 16.5761 30.2265 16.9391L31.2853 17.4957C31.477 17.1521 31.6542 16.8036 31.8507 16.4648L30.8158 15.8647V15.8598ZM32.1142 13.7788C31.8842 14.1175 31.659 14.4612 31.4434 14.8096L32.4543 15.4485C32.6603 15.1145 32.8759 14.7854 33.0963 14.4612L32.1094 13.7788H32.1142ZM33.5658 11.809C33.3119 12.1284 33.0628 12.4527 32.8184 12.7818L33.7766 13.4981C34.0066 13.1835 34.2462 12.8689 34.4953 12.564L33.5658 11.809ZM35.166 9.95536C34.8882 10.2506 34.6151 10.5603 34.3468 10.8652L35.2475 11.6541C35.5014 11.3589 35.7649 11.0637 36.0332 10.7781L35.166 9.95052V9.95536ZM36.9004 8.23241C36.5985 8.49859 36.3015 8.79382 36.014 9.07936L36.8525 9.936C37.1256 9.66497 37.413 9.38427 37.7005 9.12292L36.8956 8.23241H36.9004ZM38.7593 6.65465C38.4383 6.90632 38.1269 7.16282 37.8155 7.42417L38.5868 8.34372C38.8839 8.08722 39.1905 7.84039 39.4971 7.5984L38.7593 6.64981V6.65465ZM40.738 5.22209C40.3978 5.44955 40.0672 5.68186 39.7367 5.91901L40.4361 6.89664C40.7524 6.66433 41.0781 6.4417 41.4039 6.22391L40.7428 5.22209H40.738ZM42.8221 3.94923C42.4675 4.14766 42.1178 4.35093 41.768 4.56388L42.3861 5.59475C42.7215 5.39148 43.0568 5.19305 43.4018 4.99946L42.8173 3.94439L42.8221 3.94923ZM44.9972 2.84093C44.6283 3.01032 44.2642 3.18939 43.9001 3.3733L44.4366 4.45257C44.7864 4.2735 45.1361 4.1041 45.4955 3.93955L44.9972 2.84577V2.84093ZM47.249 1.90686C46.8657 2.04721 46.4872 2.19724 46.1135 2.35212L46.5734 3.46526C46.9328 3.31523 47.2969 3.17487 47.661 3.03936L47.249 1.90686ZM49.563 1.1567C49.1702 1.26801 48.7821 1.38417 48.3988 1.51L48.7677 2.65702C49.1414 2.53603 49.5151 2.42471 49.8888 2.31824L49.563 1.1567ZM51.9346 0.590449C51.5369 0.667885 51.1393 0.755 50.7464 0.851795L51.0243 2.02301C51.4028 1.93106 51.7861 1.84878 52.1693 1.77135L51.9394 0.590449H51.9346ZM54.3397 0.212949C53.9372 0.261346 53.5348 0.314583 53.1323 0.3775L53.3192 1.56808C53.7073 1.50516 54.0905 1.45676 54.4786 1.40837L54.3349 0.212949H54.3397ZM58 0H57.9808L57.9904 1.2051C58.3833 1.2051 58.7809 1.20994 59.1738 1.2293L59.2169 0.0241987C58.8097 0.00967949 58.4072 0 58 0ZM56.7639 0.0241987C56.3567 0.038718 55.9542 0.0629167 55.5518 0.0967949L55.6476 1.29705C56.0357 1.26801 56.4286 1.24381 56.8166 1.2293L56.7639 0.0241987ZM62.5419 78.1425C61.5166 77.0487 60.247 76.105 58.8672 75.2871C60.1607 74.6144 61.7226 73.932 63.6486 73.2399C64.5685 74.2514 69.6038 77.523 73.59 77.6779C75.08 77.7408 76.4406 77.5569 77.3222 77.4408C74.735 74.6918 72.9048 73.0705 64.9134 72.7995C66.9113 72.1267 69.1391 71.4685 70.9932 70.9071C71.8796 71.9525 76.6754 75.1806 81.3945 74.7983C82.9851 74.6724 84.4176 74.2804 85.3375 74.0094C83.5696 72.7462 81.9072 71.7976 80.2926 71.304C78.7978 70.849 73.7576 70.6022 72.2053 70.5344C74.2894 69.9004 76.3352 69.2422 78.3762 68.4727C79.0948 69.189 83.0522 71.8267 88.4948 70.7232C89.3763 70.6748 90.1237 70.5974 90.4735 70.5974C93.0654 70.5974 95.8442 71.2653 97.1282 73.5448C97.6169 74.4062 100.281 79.125 100.798 80.0445C105.977 78.7281 111.065 76.9471 116 74.6821C110.289 73.2399 105.522 71.5121 105.522 71.5121C107.084 69.2374 108.981 65.5689 110.375 62.423C104.276 65.201 97.9139 67.1418 91.4365 68.2404C87.2635 67.016 86.2574 67.6451 79.4733 68.042C81.543 67.2144 83.5169 66.2948 85.4477 65.1526C87.4599 66.5223 94.0236 68.0371 99.9693 61.4841C93.8943 61.5132 93.6499 62.2682 89.017 63.7975C87.9342 64.1557 86.7604 64.4799 86.3772 64.5816C88.2505 63.3958 90.0088 62.0117 91.6473 60.3323C91.7479 60.3661 91.8629 60.3952 91.9779 60.4194C92.1024 60.4436 92.2318 60.4629 92.3707 60.4775C97.684 61.0292 101.608 57.714 104.209 52.9323C98.508 54.3697 98.3691 55.449 94.6465 58.0624C94.2584 58.348 93.8559 58.6093 93.5014 58.8561C93.1325 59.0933 92.7971 59.3159 92.5001 59.4998C92.4378 59.5337 92.3851 59.5724 92.3276 59.6063C93.8799 57.893 95.1974 55.9717 96.261 53.9535C99.0159 53.997 104.324 51.3061 106.475 44.0707C101.833 46.4954 101.287 47.5892 98.9296 50.4737C98.7811 50.6576 98.6326 50.8464 98.4793 51.0254C97.7846 51.8724 97.1234 52.6419 96.6539 53.184C97.7031 51.0496 98.5463 48.8524 99.1931 46.66C100.899 46.3115 106.48 43.1173 106.959 34.972C102.293 39.018 102.892 39.6424 99.3943 45.9534C100.036 43.6255 100.444 41.2879 100.65 38.9357C102.964 37.9097 106.672 33.2878 105.704 26.0911C102.082 30.9453 102.743 31.4003 100.698 38.3695C100.875 35.9641 100.817 33.4281 100.559 31.0857C101.867 30.1323 105.278 24.8715 102.964 17.757C100.501 22.8968 101.057 23.1775 100.515 30.7227C100.233 28.3415 99.7728 25.9991 99.0159 23.405C100.07 22.287 100.664 19.2573 100.832 17.7038C101.153 14.8967 100.209 12.3897 99.0063 10.086C98.4793 12.0606 98.1199 13.8078 98.0768 15.3614C98.0577 15.9179 98.1343 16.6584 98.2301 17.4715C98.326 18.2846 98.4505 19.1702 98.5655 20.0027C98.7715 21.5127 98.9296 22.8533 98.9919 23.3034C98.5463 21.7837 97.9858 20.2156 97.5163 19.0492C97.4204 18.7976 97.3342 18.5991 97.2719 18.4491C97.2432 17.9555 97.0994 17.1085 96.8695 16.1938C96.582 15.0322 96.1508 13.7691 95.7867 13.0044C94.5698 10.4055 93.0175 8.98257 91.1203 7.58388C91.6137 9.2052 92.1791 11.417 93.923 14.2918C94.335 14.9645 95.0824 15.9954 95.758 16.9198C96.2658 17.607 96.7353 18.241 97.0324 18.5604C97.0899 18.7008 97.1665 18.8895 97.2528 19.117C99.1787 24.0051 100.314 29.2708 100.41 34.5655C100.429 35.577 100.4 36.6224 100.333 37.6919C100.319 36.5401 100.079 35.4269 99.7393 34.4493C98.8194 31.8552 97.042 29.4741 94.335 28.8739C94.9195 33.0216 97.5881 35.3253 98.2062 35.9593C99.0159 36.7724 99.8303 37.5903 100.319 37.963C100.147 40.4651 99.7585 42.7591 99.15 45.0871C99.2746 44.1288 99.2123 43.0689 99.0398 42.0816C98.5703 39.2891 97.1426 36.6127 94.4979 35.514C94.4979 38.7857 95.8682 42.4542 99.0159 45.5952C98.4026 47.836 97.5594 50.0817 96.5245 52.2741C97.3869 49.0073 96.8072 44.153 93.4008 41.9025C92.8402 45.5856 93.7122 49.4428 96.261 52.821C95.2262 54.9166 93.9182 56.9154 92.3659 58.6964C92.3659 58.6964 92.3659 58.6916 92.3707 58.6916C92.4953 58.4544 92.6199 58.1979 92.73 57.9124C94.0667 54.5391 93.8416 50.6141 91.0963 47.9038C89.6351 52.3322 91.2305 57.6123 91.9347 59.1852C91.9108 59.2094 91.8916 59.2336 91.8677 59.2578C90.2531 61.0098 88.5187 62.4375 86.5736 63.7056C88.5187 61.4648 90.5501 56.8476 87.8576 52.8839C85.7304 57.1622 85.5339 61.6971 86.0178 64.0637C84.02 65.3124 81.9551 66.3045 79.7416 67.1999C82.9133 64.4751 85.0213 60.7098 83.6511 56.4992C83.263 56.9299 82.6593 57.5978 81.9982 58.4738C79.2961 62.1133 79.0757 66.6094 79.1284 67.4418C76.9053 68.3082 74.7015 69.0099 72.4257 69.6923C77.8731 65.4479 78.5247 62.3456 78.3091 59.0933C77.7725 59.4853 76.9149 60.0903 75.9759 60.9276C75.0416 61.7648 74.0116 62.8393 73.2354 64.2234C72.9719 64.6977 72.5982 65.7673 72.2916 66.9143C72.0185 67.9597 71.8029 69.0728 71.8221 69.8714C69.393 70.5925 67.261 71.1926 64.9901 71.9283C66.3411 70.728 69.3691 67.9016 70.3464 66.3287C71.2184 64.9349 71.7167 63.1248 71.9035 61.0195C71.2328 61.4067 70.1548 61.9778 68.9906 62.8344C65.3734 65.4866 64.1517 69.1551 64.4343 72.1074C62.379 72.7898 60.0937 73.6561 57.9952 74.7838C55.8967 73.6561 53.6066 72.7898 51.5561 72.1074C51.8388 69.1551 50.6171 65.4866 46.9998 62.8344C45.8356 61.9778 44.7529 61.4067 44.0869 61.0195C44.269 63.1248 44.7672 64.9349 45.644 66.3287C46.6213 67.9016 49.6541 70.728 51.0003 71.9283C48.7294 71.1926 46.5974 70.5925 44.1683 69.8714C44.1875 69.0728 43.9767 67.9597 43.6988 66.9143C43.3922 65.7625 43.0185 64.6977 42.755 64.2234C41.9836 62.8441 40.9536 61.7697 40.0193 60.9276C39.0803 60.0903 38.2227 59.4853 37.6861 59.0933C37.4705 62.3456 38.1221 65.4479 43.5695 69.6923C41.2937 69.0099 39.0899 68.3082 36.8668 67.4418C36.9195 66.6094 36.6992 62.1133 33.997 58.4738C33.3359 57.593 32.7322 56.9251 32.3441 56.4992C30.9739 60.7098 33.0772 64.4799 36.2536 67.1999C34.0401 66.3093 31.9752 65.3124 29.9774 64.0637C30.4613 61.6971 30.26 57.1622 28.1376 52.8839C25.4499 56.8476 27.4812 61.4696 29.4216 63.7056C27.4765 62.4375 25.7421 61.0098 24.1275 59.2578C24.1036 59.2336 24.0844 59.2094 24.0605 59.1852C24.7647 57.6123 26.3602 52.3322 24.8989 47.9038C22.1489 50.6141 21.9285 54.5391 23.2652 57.9124C23.3706 58.1979 23.4999 58.4544 23.6245 58.6916C23.6245 58.6964 23.6245 58.6964 23.6293 58.6964C22.077 56.9154 20.769 54.9166 19.7342 52.821C22.283 49.4428 23.155 45.5856 22.5944 41.9025C19.188 44.153 18.6083 49.0073 19.4707 52.2741C18.4358 50.0817 17.5926 47.836 16.9793 45.5952C20.127 42.4542 21.4973 38.7857 21.4973 35.514C18.8526 36.6127 17.4249 39.2891 16.9554 42.0816C16.7829 43.0641 16.7206 44.1288 16.8452 45.0871C16.2415 42.764 15.8487 40.4651 15.6762 37.963C16.1601 37.5903 16.9793 36.7675 17.789 35.9593C18.4071 35.3253 21.0757 33.0216 21.6602 28.8739C18.9532 29.4741 17.1758 31.8552 16.2559 34.4493C15.9157 35.4269 15.6762 36.5401 15.6618 37.6919C15.5947 36.6224 15.566 35.577 15.5852 34.5655C15.681 29.2708 16.8165 24.0051 18.7424 19.117C18.8287 18.8895 18.9053 18.7056 18.9628 18.5604C19.2599 18.241 19.7246 17.6118 20.2372 16.9198C20.9128 15.9954 21.665 14.9597 22.0722 14.2918C23.8161 11.417 24.3815 9.21004 24.8749 7.58388C22.9777 8.98257 21.4254 10.4055 20.2085 13.0044C19.8492 13.7691 19.4132 15.0322 19.1257 16.1938C18.8958 17.1085 18.752 17.9555 18.7233 18.4491C18.661 18.5991 18.5748 18.7976 18.4789 19.0492C18.0094 20.2156 17.4537 21.7837 17.0033 23.3034C17.0656 22.8533 17.2237 21.5127 17.4297 20.0027C17.5399 19.1702 17.6693 18.2894 17.7651 17.4715C17.8609 16.6584 17.9328 15.9131 17.9184 15.3614C17.8753 13.8078 17.5159 12.0606 16.9889 10.086C15.7816 12.3849 14.8426 14.8967 15.1636 17.7038C15.3312 19.2573 15.9253 22.287 16.9793 23.405C16.2224 25.9991 15.7624 28.3464 15.4798 30.7227C14.9432 23.1775 15.4989 22.8968 13.0316 17.757C10.7223 24.8715 14.1287 30.1371 15.4366 31.0857C15.1779 33.4281 15.1204 35.9641 15.2977 38.3695C13.2519 31.4051 13.9131 30.9453 10.2911 26.0911C9.32331 33.2878 13.0316 37.9097 15.3456 38.9357C15.5516 41.283 15.9589 43.6206 16.6009 45.9534C13.1034 39.6375 13.7023 39.0132 9.03585 34.972C9.51495 43.1173 15.0965 46.3115 16.8021 46.66C17.4489 48.8524 18.2873 51.0496 19.3413 53.184C18.8718 52.6419 18.2106 51.8724 17.5159 51.0254C17.3626 50.8464 17.2141 50.6625 17.0656 50.4737C14.7084 47.5892 14.1622 46.4954 9.51974 44.0707C11.6709 51.3061 16.9841 53.997 19.7342 53.9535C20.7978 55.9717 22.1153 57.893 23.6676 59.6063C23.6101 59.5724 23.5526 59.5385 23.4951 59.4998C23.1933 59.3159 22.8627 59.0933 22.4938 58.8561C22.1393 58.6093 21.7368 58.348 21.3488 58.0624C17.6261 55.449 17.492 54.3697 11.7907 52.9323C14.3922 57.7188 18.316 61.034 23.6293 60.4775C23.7682 60.4629 23.8976 60.4436 24.0221 60.4194C24.1419 60.3952 24.2521 60.3661 24.3527 60.3323C25.9912 62.0117 27.7495 63.3958 29.6228 64.5816C29.2395 64.4799 28.0705 64.1508 26.983 63.7975C22.3501 62.2682 22.1057 61.518 16.0307 61.4841C21.9764 68.0323 28.5401 66.5223 30.5523 65.1526C32.4831 66.2948 34.457 67.2192 36.5267 68.042C29.1294 67.6064 28.5976 66.8998 23.3418 68.6179C17.3147 67.5483 11.6949 65.6657 5.62944 62.8973C7.01883 66.0432 8.92087 69.7117 10.4827 71.9864C10.4827 71.9864 5.71568 73.7142 0 75.1564C4.66165 77.2907 9.46704 78.9943 14.3443 80.2962C15.887 77.5666 16.62 76.2695 18.1627 73.5399C19.2982 71.5218 22.5609 70.8539 24.8174 70.8539C25.5026 70.8539 26.25 70.8974 27.0357 70.9845C27.3998 71.0233 27.7352 71.0426 28.0466 71.0426C28.4107 71.0426 28.7796 71.0136 29.1341 70.941C33.7287 71.2943 36.9818 69.1067 37.6238 68.463C39.66 69.2326 41.7106 69.8859 43.7946 70.5248C42.2424 70.5925 37.2022 70.8394 35.7074 71.2943C34.0928 71.7831 32.4352 72.7317 30.6625 73.9997C31.5824 74.2659 33.0101 74.6628 34.6055 74.7886C39.3246 75.1709 44.1204 71.9428 45.0068 70.8974C46.8561 71.4588 49.0887 72.1122 51.0866 72.7898C43.0952 73.0608 41.2698 74.6821 38.6778 77.4311C39.5594 77.5472 40.92 77.7263 42.41 77.6682C46.3962 77.5134 51.4315 74.2417 52.3514 73.2302C54.2774 73.9223 55.8393 74.6047 57.1328 75.2774C55.7482 76.0953 54.4786 77.0391 53.4581 78.1329C53.3383 78.762 53.2904 79.0814 53.2329 79.7203C54.354 78.3748 55.7003 77.073 58 75.7517C60.2997 77.073 61.646 78.3797 62.7671 79.7203C62.7048 79.0814 62.6617 78.7572 62.5419 78.1329V78.1425Z" fill="#AA95C4"/>
<path fill-rule="evenodd" clip-rule="evenodd" d="M73.8343 21.024L72.6126 17.8589L73.7433 14.9163H72.6989L72.0952 16.9587L71.4915 14.9163H70.4471L71.549 17.8589L70.3513 21.024H71.3957L72.0904 18.8268L72.7851 21.024H73.8295H73.8343ZM66.9065 16.7167C66.9065 16.2085 66.9832 15.7826 67.491 15.7826H68.0755V17.6507H67.491C66.9832 17.6507 66.9065 17.22 66.9065 16.7167ZM66.7532 21.024L67.5437 18.5171H68.0803V21.024H69.0337V14.9163H67.5054C66.4035 14.9163 65.9579 15.4583 65.9579 16.7167C65.9579 17.4717 66.1112 18.0137 66.6622 18.3138L65.7615 21.024H66.7532ZM64.6739 15.7826V14.9163H61.6939V15.7826H62.7048V21.024H63.6582V15.7826H64.6787H64.6739ZM60.5968 19.4027H59.6434C59.6338 19.6254 59.6002 19.848 59.4996 20.0029C59.4134 20.1384 59.2792 20.2255 59.0493 20.2255C58.8193 20.2255 58.6851 20.1335 58.5989 19.9932C58.4121 19.7028 58.3881 19.0833 58.3881 17.9702C58.3881 16.857 58.4121 16.2375 58.5989 15.9472C58.6851 15.8116 58.8193 15.7148 59.0493 15.7148C59.2792 15.7148 59.4134 15.802 59.4996 15.9375C59.6002 16.0827 59.6338 16.3053 59.6434 16.5279H60.5968C60.5776 15.9859 60.4195 15.5261 60.1129 15.2405C59.8398 14.984 59.5092 14.8437 59.0493 14.8437C58.4887 14.8437 58.1246 15.0663 57.8755 15.3664C57.4778 15.8455 57.4347 16.5182 57.4347 17.9653C57.4347 19.4172 57.4778 20.0851 57.8755 20.5643C58.1198 20.8643 58.4887 21.087 59.0493 21.087C59.5092 21.087 59.8206 20.9563 60.0937 20.6998C60.4003 20.4191 60.5776 19.9448 60.5968 19.3979V19.4027ZM55.0679 17.9702C55.0679 19.0833 55.044 19.7028 54.8619 19.9932C54.7757 20.1287 54.6319 20.2255 54.402 20.2255C54.172 20.2255 54.0379 20.1335 53.9516 19.9932C53.7744 19.7028 53.7408 19.0833 53.7408 17.9702C53.7408 16.857 53.7744 16.2375 53.9516 15.9472C54.0379 15.8116 54.172 15.7148 54.402 15.7148C54.6319 15.7148 54.7757 15.8068 54.8619 15.9472C55.0392 16.2375 55.0679 16.857 55.0679 17.9702ZM56.0213 17.9702C56.0213 16.5182 55.9878 15.8504 55.5806 15.3712C55.3362 15.0712 54.9673 14.8485 54.4068 14.8485C53.8462 14.8485 53.4821 15.0712 53.233 15.3712C52.8353 15.86 52.7922 16.5231 52.7922 17.9702C52.7922 19.4221 52.8353 20.0803 53.233 20.5691C53.4773 20.8692 53.8462 21.0918 54.4068 21.0918C54.9673 21.0918 55.3314 20.8692 55.5806 20.5691C55.9878 20.09 56.0213 19.4172 56.0213 17.9702ZM51.537 15.7826V14.9163H49.0408V21.024H49.9942V15.7826H51.5417H51.537ZM42.9131 16.6054C42.9131 17.191 42.7167 17.4378 42.2232 17.4378H41.7489V15.7826H42.2232C42.7167 15.7826 42.9131 16.0052 42.9131 16.6054ZM42.9323 19.2043C42.9323 19.9157 42.7215 20.1577 42.2088 20.1577H41.7489V18.2509H42.2088C42.7167 18.2509 42.9323 18.5267 42.9323 19.2043ZM43.8857 19.2721C43.8857 18.7058 43.8186 18.338 43.536 18.0476C43.4497 17.9605 43.3299 17.883 43.2054 17.825C43.3347 17.7717 43.4353 17.6943 43.5216 17.612C43.7995 17.3216 43.8713 16.9877 43.8713 16.5473C43.8713 15.8891 43.7707 15.5793 43.4881 15.2938C43.2437 15.0373 42.8748 14.9163 42.3143 14.9163H40.8003V21.024H42.3047C42.8748 21.024 43.2389 20.8934 43.4928 20.6369C43.7803 20.3368 43.8857 19.9932 43.8857 19.2721ZM44.4606 32.2958C44.4606 32.8766 44.3888 33.4138 44.2354 33.9365C44.0821 34.4447 43.8426 34.7012 43.5216 34.7012C43.1575 34.7012 42.9754 34.1059 42.9754 32.9347C42.9754 32.7798 42.9898 32.5378 43.0185 32.2135C43.0473 31.8893 43.0617 31.6618 43.0617 31.5069C43.0617 30.6455 42.8365 30.2196 42.3765 30.2196C41.5812 30.2196 41.1452 31.0084 41.0207 31.957C40.8674 33.075 40.7955 33.709 40.7811 33.8929C40.8099 34.1059 40.9057 34.2027 41.0878 34.2027C41.2411 34.2027 41.4087 34.0768 41.4087 33.8639C41.4087 33.4138 41.4375 32.8766 41.5333 32.1409C41.6435 31.3908 41.8974 30.8536 42.2472 30.8536C42.3717 30.8536 42.4436 31.0665 42.4436 31.5021C42.4436 31.9377 42.3478 32.7895 42.3478 32.7991C42.3478 33.4912 42.3765 33.859 42.5011 34.464C42.6257 35.0448 42.9467 35.3545 43.4497 35.3545C43.857 35.3545 44.1923 35.1271 44.4702 34.6915C44.4558 36.0321 44.4127 37.1501 44.3456 38.0648C44.3313 38.4616 44.2594 38.8537 44.0917 39.3764C43.9384 39.8845 43.6462 40.2523 43.2533 40.2523C43.0137 40.2523 42.8221 40.0539 42.6927 39.6571C42.5682 39.2602 42.4963 38.8101 42.4963 38.3019C42.4963 38.1471 42.5107 37.9777 42.5394 37.8228V37.697C42.4819 37.5276 42.3717 37.4405 42.2184 37.4405C42.0507 37.4405 41.9549 37.5372 41.9118 37.7212C41.9118 39.841 42.3717 40.9009 43.2964 40.9009C43.7036 40.9009 44.0534 40.746 44.2738 40.3927C44.5133 40.0394 44.6954 39.6716 44.8056 38.994C44.9158 38.3164 44.9733 37.8083 45.0164 36.8597C45.0308 36.3951 45.0451 35.9692 45.0451 35.5868C45.0595 35.2045 45.0595 34.7399 45.0595 34.1736C45.0595 33.7477 45.0595 33.1137 45.0739 32.2522C45.0882 31.3908 45.1026 30.7568 45.1026 30.3163C45.0451 30.147 44.9349 30.0598 44.7816 30.0598C44.6139 30.0598 44.5181 30.1566 44.475 30.3406L44.4606 32.2764V32.2958ZM69.8147 24.9297C71.7598 25.1765 72.7324 26.1203 72.7324 28.4724C72.7324 31.9425 69.8865 32.8572 69.8865 33.559C69.6805 34.2269 70.6483 34.2946 70.998 34.4011C72.1431 34.856 73.0103 35.732 73.6044 37.0678C74.1937 38.3987 74.4715 39.841 74.4715 41.3461C74.4715 45.1695 72.9767 48.1508 69.9584 48.5719C69.9584 45.2034 69.9249 41.0993 69.8913 36.2596C69.8578 31.3859 69.8195 27.6303 69.8195 24.9297H69.8147ZM68.4971 49.201C68.4971 49.8689 69.0529 50.077 69.4362 50.077C74.8548 50.077 76.0669 45.2373 76.0669 41.3074C76.0669 39.5893 75.722 37.9728 74.989 36.4677C74.2607 34.9577 73.2882 33.8736 72.0712 33.2734C73.4271 31.7634 74.1218 30.1518 74.1218 28.3998C74.1218 25.2782 72.282 23.4197 69.12 23.4197C68.5642 23.4197 68.2863 23.7004 68.2863 24.228L68.4923 49.201H68.4971ZM57.0754 49.3075C57.1424 49.835 57.3868 50.077 57.8371 50.077C58.3594 50.077 58.6708 49.9367 58.7378 49.6898C59.3271 47.5507 60.1608 44.3226 61.2723 39.9716C62.3838 35.6207 63.2174 32.4991 63.8067 30.6406C63.8067 31.8699 63.8403 34.7108 63.8738 39.0956C63.9073 43.4805 63.9409 46.8489 63.9409 49.1962C64.008 49.7237 64.2523 49.9657 64.7027 49.9657C65.0859 49.9657 65.5028 49.6511 65.5028 49.1236C65.5028 46.2827 65.4692 42.1108 65.4357 36.6371C65.4021 31.1294 65.3686 26.9576 65.3686 24.1166C65.2297 23.6956 64.9518 23.4875 64.5685 23.4875C64.1517 23.4875 63.9073 23.7343 63.8067 24.1892V24.2618C63.251 26.7543 62.4173 30.1179 61.2723 34.3285C60.1608 38.5391 59.3271 41.9027 58.7714 44.4678V25.4234C58.7714 24.0924 58.9103 23.4246 58.0431 23.4246C57.4539 23.4246 57.176 23.8456 57.176 24.6539L57.0706 49.3123L57.0754 49.3075ZM47.3544 49.2736C47.9437 45.5906 48.9163 41.593 50.2003 37.242L53.8462 49.0994C54.0522 49.7673 54.4355 50.0819 54.9913 50.0819C55.3362 50.0819 55.5135 49.8738 55.5135 49.4866C55.5135 49.2059 55.2356 48.296 54.7134 46.7521C53.8798 44.4 53.118 41.8398 52.04 38.3358C51.5178 36.5451 51.1393 35.2819 50.895 34.5463C51.7621 31.0714 52.9455 27.7416 54.4355 24.62C54.5409 24.5135 54.5745 24.3731 54.5745 24.1989C54.5745 23.744 54.2295 23.4294 53.8127 23.4294C53.5348 23.4294 53.2905 23.6762 53.0509 24.1989C52.4616 25.5686 51.9394 26.9721 51.489 28.3369L50.2051 32.1942L49.6828 30.2631L49.1271 28.1239C48.8827 27.1076 48.6049 25.4234 48.6049 24.1941C48.6049 23.773 48.2599 23.4584 47.8431 23.4584C47.3209 23.4584 47.0094 24.0198 47.0094 24.5813C47.0094 25.6702 47.2155 26.793 47.7712 28.8596L48.2934 30.7181C48.6767 32.2958 49.0217 33.6316 49.3714 34.7496C48.1928 38.573 47.0813 43.0642 46.0704 48.1508L45.8261 49.3075C45.8261 49.7624 46.0704 50.0093 46.5543 50.0093C47.0047 50.0093 47.2825 49.7624 47.3544 49.2736Z" fill="#FEFEFE"/>
</svg>
