<svg width="129" height="130" viewBox="0 0 129 130" fill="none" xmlns="http://www.w3.org/2000/svg">
<circle cx="63.5" cy="64.5" r="61" stroke="#7ACFC8"/>
<path d="M106.183 64.5407C106.183 88.0128 87.3791 107.041 64.1831 107.041C40.9871 107.041 22.1831 88.0128 22.1831 64.5407C22.1831 41.0686 40.9871 22.0407 64.1831 22.0407C87.3791 22.0407 106.183 41.0686 106.183 64.5407Z" fill="#7ACFC8"/>
<path d="M53.8218 37.6516C58.11 39.7589 59.9339 43.2812 60.3779 47.7044L60.7711 47.58C60.856 46.1348 60.9402 44.6891 61.0244 43.2436L61.0254 43.2433C61.0203 42.4261 61.0683 41.6103 61.1686 40.802C61.3601 40.098 61.2144 39.3378 60.773 38.7354C60.3311 38.1457 59.9569 37.506 59.5059 36.9234L59.5056 36.924C58.7548 35.9982 58.5136 34.7738 58.8643 33.6649C59.341 31.8936 59.7294 30.0968 60.1908 28.32L60.1898 28.3202C60.2718 28.0691 60.444 27.8585 60.6741 27.7276C60.9886 27.8349 61.2594 28.0453 61.4411 28.3231C62.8475 30.8719 63.2364 33.8277 62.5297 36.5919C62.1202 38.4129 61.8257 40.2599 61.6462 42.1228C61.6444 42.417 61.6823 42.7108 61.7584 42.9967L62.0297 43.0368L62.0303 43.0372C62.2044 42.7752 62.3118 42.4745 62.3421 42.1596C61.604 39.2121 63.1517 37.4052 65.3894 36.0173C66.7372 35.1811 68.2068 34.5313 69.6352 33.8227C69.8563 33.7663 70.087 33.7513 70.3161 33.7797C70.3523 33.9881 70.3513 34.1999 70.3123 34.4058C69.7807 35.726 69.2367 37.0426 68.6672 38.3462C67.9205 40.0405 66.6455 41.4429 65.0237 42.3547C64.8721 42.4703 64.6846 42.5328 64.4903 42.5324C63.846 42.3452 63.1668 42.6041 62.831 43.1646C62.371 43.7964 62.0299 44.5073 61.8247 45.2642C61.2215 48.3299 60.726 51.4183 60.1892 54.5079C60.8035 53.6373 61.4684 52.7576 62.0546 51.8277C62.2491 51.5068 62.3204 51.1249 62.258 50.75C61.9236 49.4726 62.008 48.1347 62.4983 46.9302C62.9885 45.7258 63.8589 44.7186 64.9825 44.0536C65.9198 43.4566 66.8014 42.7772 67.7232 42.1567L67.7239 42.157C68.0525 41.9812 68.3949 41.8287 68.7477 41.7027C68.6014 43.4509 68.8019 45.1197 68.2551 46.4772C67.6589 47.9379 66.6659 49.1995 65.3833 50.1236C62.8616 51.9228 60.8934 54.3724 59.684 57.216C59.5164 57.6883 59.4352 58.1884 59.4438 58.6935C59.3865 59.5918 59.3779 60.4948 59.3407 61.6603L59.341 61.6596C60.1044 60.576 60.936 59.5418 61.8324 58.5649C64.2253 56.2752 66.6741 54.0436 69.1785 51.8688C70.1379 50.9835 70.7563 49.7937 70.9322 48.4937C70.9335 48.073 70.76 47.6652 70.452 47.3665C69.7457 46.7333 69.5906 45.7005 70.0847 44.9224C70.4846 44.2269 71.2469 43.8184 72.0649 43.8598C73.0342 44.047 74.0794 44.9251 73.9489 45.69C73.8566 46.3313 73.4823 46.8929 72.9262 47.225C71.5871 47.6364 71.8077 48.6081 71.7433 49.75C72.6423 49.1821 73.4266 48.7181 74.1762 48.2049C75.065 47.5967 75.9085 46.9252 76.7985 46.3194L76.7981 46.3201C78.0158 45.5731 78.3731 43.9801 77.5986 42.7456C77.1977 42.1595 77.2358 41.3914 77.6917 40.8704C78.1061 40.3423 78.8844 40.2578 79.4306 40.6827C79.7712 40.7778 80.0955 40.9291 80.3889 41.1294C80.8164 41.5436 81.0966 42.0824 81.1848 42.6615C80.958 43.16 80.5005 43.5128 79.9538 43.6108C79.5971 43.6222 79.2681 43.7897 79.0563 44.068C78.8438 44.3459 78.7701 44.7067 78.854 45.052C79.8633 44.6026 80.841 44.2171 81.7601 43.7288C82.0458 43.49 82.2649 43.1822 82.3965 42.8338C82.714 42.1965 83.3271 41.7598 84.0431 41.6604C84.7593 41.562 85.4886 41.8138 86.0001 42.3364C86.4304 42.8448 86.6274 43.5046 86.5424 44.1509C86.2228 44.6345 85.6928 44.9412 85.1044 44.9843C84.3339 44.9814 83.5645 44.897 82.8075 44.7336C82.4725 44.6418 82.1224 44.6324 81.7882 44.7059C80.2144 45.4482 78.6729 46.2531 77.1541 47.1628C79.0015 47.2647 80.7773 48.028 82.6479 47.3074C83.5944 46.9428 84.351 47.8613 84.8991 48.5466C85.1502 49.0098 85.179 49.5551 84.9781 50.0299C84.6095 50.7374 83.7691 51.063 82.9934 50.7979C82.5043 50.7842 82.0387 50.5666 81.7125 50.1984C81.3852 49.8305 81.2282 49.3469 81.2793 48.8675C81.2003 48.6093 80.9944 48.4047 80.7337 48.3247C79.4611 48.1047 78.1775 47.9645 76.8918 47.906C76.2403 47.919 75.6125 48.1193 75.0846 48.4821C73.3261 49.6764 71.6273 50.9563 69.9213 52.2221C69.3205 52.6682 68.7615 53.1675 68.1837 53.6431L68.2887 53.9135C69.6515 53.6009 71.0375 53.358 72.3676 52.9488L72.3673 52.9494C72.9951 52.704 73.7164 52.8127 74.2607 53.2333C75.0024 53.6414 75.4098 54.4665 75.2721 55.2814C74.9997 56.2568 73.9402 56.2603 73.1088 56.3778L73.1092 56.3772C72.8013 56.432 72.4815 56.3553 72.2275 56.1659C71.9734 55.9766 71.8096 55.6924 71.7755 55.3828C71.6945 55.0112 71.6312 54.6365 71.5372 54.1411C69.0055 54.4091 66.4561 54.4718 64.6519 56.6982C62.9261 58.8272 60.9919 60.7902 59.2981 62.943L59.2984 62.9423C58.8337 63.7626 58.525 64.6632 58.3883 65.6009C57.3154 69.4701 56.2548 73.3429 55.2073 77.2193C54.9946 78.0014 54.8087 78.7914 54.5646 79.7599C55.8544 78.712 56.949 77.7179 58.1523 76.8719C59.7256 75.766 60.4115 73.9552 61.7218 72.649C61.838 72.4509 61.8514 72.2067 61.7583 71.9915C61.2543 71.0927 61.0781 70.0569 61.2608 69.0626C61.443 68.0679 61.972 67.1768 62.7568 66.5424C63.3724 65.953 64.0866 65.4548 64.6455 64.8194C65.2391 64.1445 65.6903 63.3485 66.2288 62.6235C66.3554 62.392 66.5666 62.2183 66.8206 62.1363C67.0868 62.2111 67.3027 62.4084 67.3997 62.666C68.2656 65.1022 68.0186 67.7627 66.7241 69.9454C66.0757 70.9861 64.6531 71.5403 63.5864 72.3213C62.9356 72.7981 62.2934 73.2863 61.6472 73.7699L61.8219 74.0241C62.3249 73.7102 62.8062 73.3554 63.3347 73.0889C65.0642 72.2176 66.8089 71.3748 68.5534 70.5325C68.8896 70.37 69.324 70.3313 69.0398 69.7533L69.0391 69.7529C69.055 69.5372 69.1514 69.3369 69.3104 69.1918C69.5527 68.8997 69.8165 68.6264 70.0991 68.3735C70.9775 67.7448 71.1582 66.5189 70.504 65.6281C69.559 63.9491 70.6651 61.8907 72.0173 60.9731C73.165 60.1947 74.3562 59.4754 75.554 58.7729C75.9342 58.5501 76.546 58.3768 76.5477 59.1085L76.5484 59.1089C76.5979 60.6238 76.5156 62.1378 76.3037 63.6322C75.9463 64.9825 74.8837 66.0232 73.5149 66.363C72.0612 66.902 71.3696 68.0796 70.501 69.1332L70.6678 69.3551C71.1708 69.1265 71.6696 68.889 72.1778 68.6708C73.4359 68.1322 74.749 67.6921 75.9447 67.0458L75.9453 67.0461C76.5792 66.7795 77.1189 66.3373 77.4988 65.7716C77.8791 65.2052 78.0842 64.5385 78.091 63.8502C78.0381 61.2032 79.5571 59.5687 81.6513 58.3239C82.7723 57.6575 83.9262 57.0407 85.0847 56.4381L85.0841 56.4378C85.3431 56.3634 85.6143 56.3362 85.8857 56.3583C85.9254 56.6474 85.9116 56.9405 85.8456 57.2229C85.4862 57.998 85.0095 58.7179 84.6613 59.4969C83.7931 61.1976 82.4344 62.5976 80.7518 63.5233C79.9159 64.1484 79.1303 64.8365 78.4024 65.5826L78.6062 65.9124C78.9034 65.9049 79.1998 65.8764 79.4921 65.8283C80.6761 65.5535 81.8677 65.297 83.0253 64.9433L83.0257 64.9427C83.3868 64.7419 83.7098 64.4816 83.9811 64.1723C84.4605 63.6516 85.0322 63.2226 85.6693 62.9038C88.2274 62.166 90.894 61.8123 93.5791 61.8543C93.8969 61.9167 94.2068 62.014 94.5038 62.145C92.2644 64.0052 90.4144 66.0012 87.4089 66.0738L87.4082 66.0735C87.1504 66.0828 86.8909 66.038 86.6488 65.9415C84.5391 65.0394 82.5217 65.5208 80.5353 66.1927C78.9737 66.7214 77.4438 67.3362 75.9757 67.8843C78.2005 68.2785 80.466 68.7679 82.7527 69.0381L82.7517 69.0384C83.6092 69.0063 84.4494 68.8191 85.2306 68.4862C87.0603 68.1114 88.9732 68.2424 90.76 68.866C91.9467 69.1775 93.1286 69.5125 94.3 69.8792C94.6051 70.0197 94.8908 70.1992 95.1498 70.4127C94.8679 70.5249 94.5904 70.6486 94.3032 70.7462L94.3036 70.7456C93.6448 70.8677 93.0107 71.0866 92.4229 71.3957C90.2176 73.0783 87.9186 72.5241 85.5657 71.6774L85.5654 71.678C85.1744 71.62 84.7875 71.5323 84.4082 71.4145C83.8772 71.0826 83.3745 70.7077 82.9045 70.294C82.7403 70.0646 82.5342 69.8664 82.2975 69.7106C80.2996 69.3576 78.2585 69.2079 76.3 68.7026C74.1188 68.1396 72.637 69.3434 70.9664 70.1727C69.3982 70.9518 67.8213 71.7146 66.2463 72.4816L66.2456 72.4812C65.9018 72.6197 65.5876 72.8194 65.3184 73.0708C66.2052 73.1021 67.0944 73.165 67.9789 73.1417C68.2421 73.0689 68.4706 72.9108 68.6294 72.6926C69.3232 71.9098 70.3192 71.4527 71.3847 71.428C73.8656 71.3001 76.1497 72.2347 78.5275 72.6428L78.5271 72.6435C78.6925 72.7267 78.8446 72.8353 78.9774 72.9648C78.7502 73.131 78.5114 73.2832 78.2647 73.4212C77.0564 73.9881 75.8398 74.5396 74.6285 75.0999C72.708 76.0594 70.4491 76.1774 68.39 75.4253C67.9239 75.2911 67.4688 75.1195 67.0286 74.9122C66.8602 74.7157 66.7435 74.4813 66.6889 74.2305C66.9057 74.1593 67.1387 74.1448 67.3652 74.1881C69.5316 75.6399 71.719 75.4125 73.9065 74.4677L73.9071 74.468C74.8379 74.0625 75.7348 73.587 76.5891 73.0446C74.2547 72.3421 71.9582 71.5808 69.4596 72.7975C69.662 72.9379 69.853 73.0956 70.0291 73.2678C70.1588 73.3906 70.2387 73.5558 70.252 73.7314C70.1511 73.8783 69.9835 73.9668 69.8008 73.9697C67.999 73.947 66.1966 73.882 64.3955 73.8761L64.3958 73.8755C63.9597 73.8501 63.5293 73.9492 63.1556 74.1618C61.326 75.4708 59.4921 76.7813 57.7536 78.2025C55.9345 79.4822 54.4022 81.1149 53.2451 83.0048C52.7707 83.5736 52.2447 84.0966 51.6732 84.57C49.9398 86.6929 49.2227 89.315 48.2295 91.8067L48.2301 91.807C47.8907 92.4204 47.4516 92.9731 46.9292 93.4416C46.7675 93.4941 46.5934 93.5027 46.4246 93.4659C46.3915 93.3241 46.3884 93.178 46.4145 93.037C47.5568 90.571 48.6459 88.0764 49.893 85.6651C50.551 84.6266 51.2724 83.6298 52.0524 82.6787C52.4354 82.2245 52.7 81.6827 52.8244 81.0997C53.1363 77.2018 53.453 73.2999 53.5838 69.3886L53.5848 69.3883C53.5835 67.2193 53.4684 65.0488 53.2392 62.8855C53.1621 61.8216 52.2057 61.376 51.4653 60.844C51.0956 60.8727 50.7461 61.0137 50.4659 61.2474C49.2454 61.9574 48.7077 61.9448 48.1125 61.1467L48.1121 61.1474C47.7837 60.732 47.638 60.2073 47.7083 59.6936C47.7789 59.181 48.0597 58.7245 48.4849 58.4305C48.8821 58.0517 49.4466 57.895 49.9962 58.0094C50.5461 58.1233 51.0118 58.4951 51.2434 59.0048C51.6551 59.7052 52.1661 60.3456 52.762 60.9038C52.3208 58.1387 51.9582 55.3686 49.5797 53.4066C48.4588 54.7506 46.1119 54.3025 45.6618 53.1187C45.4481 52.6775 45.4216 52.1744 45.588 51.7236C45.7541 51.2734 46.0993 50.9134 46.5451 50.7253C46.9555 50.4967 47.4509 50.4574 47.9039 50.6162C48.3572 50.7761 48.7235 51.1195 48.9099 51.5583C49.2487 52.0377 49.6309 52.486 50.0514 52.8979L50.3973 52.6703C50.0198 51.954 49.6044 51.2572 49.153 50.5826C48.5949 49.945 48.2987 49.1273 48.3232 48.2965C48.3086 48.0061 48.4184 47.7265 48.6263 47.5272C48.8342 47.3279 49.1209 47.2282 49.414 47.252C50.3314 47.0579 51.2789 47.5328 51.6796 48.3894C51.827 48.9291 51.8059 49.4961 51.619 50.0148C51.4314 50.5333 51.0876 50.9793 50.6322 51.2923L52.6019 56.0965C52.9698 54.9793 53.2967 54.0013 53.6078 53.0183C53.6433 52.9072 53.5395 52.7425 53.585 52.642L53.5857 52.6424C53.7741 52.0638 54.0622 51.5238 54.4366 51.0459C54.8898 50.9662 55.3608 51.0976 55.7145 51.4018C56.386 51.788 56.714 52.573 56.507 53.2985C56.0303 54.6319 55.724 54.8384 53.9665 54.5703C53.0612 55.8932 52.7964 57.5569 53.2416 59.1259C53.8574 61.5906 54.2099 64.106 54.2919 66.6291C54.4369 69.8754 54.2635 73.1278 54.2049 76.3766L54.2055 76.377C54.1683 76.9471 54.1025 77.5141 54.0066 78.0764L54.3019 78.1547C55.6209 73 57.0495 67.8721 58.2145 62.6798C58.8158 60 58.9168 57.2002 59.3067 54.4652L59.3073 54.4656C59.4808 53.4668 59.7202 52.4826 60.0257 51.5186C60.3675 50.4375 60.3103 49.2617 59.8633 48.1969C58.7052 48.1165 57.599 47.6482 56.7271 46.8692C55.8551 46.0903 55.2704 45.0472 55.0691 43.9135C54.813 41.9868 54.2116 40.0962 53.771 38.1876L53.7714 38.187C53.7673 38.0067 53.7841 37.8268 53.821 37.6517L53.8218 37.6516ZM62.8522 41.3786L63.2643 41.4888C63.6964 40.9592 64.1099 40.4133 64.5688 39.9079C64.7656 39.7285 64.9973 39.5902 65.2512 39.5024C65.3631 39.543 65.4569 39.6233 65.5147 39.7275C65.4211 39.9736 65.2947 40.2061 65.1391 40.4188C64.8229 40.823 64.4739 41.2031 64.1383 41.5923C66.4475 41.1208 69.0392 37.3703 68.9491 34.9367C67.9672 35.4632 67.0397 35.9904 66.0852 36.4651L66.0846 36.4647C64.8078 37.0665 63.7895 38.0867 63.1965 39.3573C62.9945 40.011 62.8782 40.6904 62.8522 41.3785L62.8522 41.3786ZM63.5332 71.1555C66.4932 70.1383 68.1598 65.9183 66.6958 63.7944C65.6771 64.7659 64.6925 65.7904 63.6158 66.7109L63.6161 66.7102C62.942 67.2795 62.4694 68.0461 62.2646 68.9057C62.0592 69.7649 62.1326 70.6734 62.4732 71.5048L65.4784 66.1529L65.8095 66.3041C65.5191 67.088 65.2772 67.8954 64.9244 68.6495C64.5458 69.4572 64.0616 70.2147 63.5333 71.1554L63.5332 71.1555ZM73.2629 65.6788C75.7795 64.4075 76.391 62.4953 75.5837 59.8332L75.5843 59.8336C75.2042 59.9827 74.8331 60.1533 74.4727 60.3422C73.7904 60.7461 73.1053 61.1534 72.4698 61.6225C70.9001 62.7805 70.6557 63.8111 71.5397 65.9182C71.9813 65.5875 72.393 65.2202 72.7711 64.8198C73.1229 64.3792 73.3255 63.8234 73.6497 63.3571C73.8281 63.1952 74.0372 63.0688 74.2662 62.9864C74.3416 63.2359 74.3609 63.497 74.3224 63.7515C74.0382 64.3716 73.6713 64.953 73.2635 65.6793L73.2629 65.6788ZM59.2936 47.5425C59.5403 46.5124 58.8572 46.0178 58.4268 45.4002C58.2407 45.06 58.0947 44.7007 57.9909 44.3293C58.3152 44.5659 58.6375 44.8047 58.9659 45.0355C59.0206 45.0551 59.0784 45.0617 59.1356 45.0557C58.2519 42.2658 56.6772 40.0814 54.8276 39.2934C55.2632 41.2228 55.5405 43.0622 56.1167 44.8133C56.6392 46.195 57.8423 47.2285 59.2932 47.5432L59.2936 47.5425ZM61.1139 30.0806C59.1567 32.0649 59.2037 36.279 61.143 37.6599C62.4254 35.3251 62.4146 32.4757 61.1139 30.0806ZM84.3363 69.8731C86.3886 69.979 88.4537 69.9348 90.3147 70.9646L90.2753 71.2251L85.4108 70.5611C87.3393 71.7482 89.9657 72.5804 92.4255 70.1491C89.744 69.0822 87.0449 68.4006 84.3364 69.8729L84.3363 69.8731ZM63.0071 50.5021C65.0736 48.5193 65.9769 45.9929 67.2117 43.5179C63.7031 45.5199 62.0579 48.1826 63.0071 50.5021ZM86.1166 64.9828C87.6637 65.8729 90.52 64.8437 92.0372 62.8496C90.4381 62.3729 85.9472 63.3004 85.0557 64.3991L89.2615 63.7754L89.3659 64.1414C88.4339 64.825 87.1449 64.5547 86.1165 64.9827L86.1166 64.9828ZM79.2596 63.5783C80.2862 62.2719 81.1575 61.1641 82.0284 60.0554L82.3383 60.2609C82.2285 60.6439 82.1197 61.0266 81.9751 61.53C83.3565 60.3849 84.2562 58.8636 84.1482 57.9568C81.3478 59.0768 78.7612 61.0802 79.2596 63.5783L79.2596 63.5783ZM64.9256 49.5388C66.0462 48.0905 68.1151 47.1397 67.6309 44.721L64.9256 49.5388ZM72.694 44.8017L72.6563 44.5285C72.1805 44.5526 71.7141 44.6544 71.2762 44.8313C70.9625 45.1756 70.7222 45.5796 70.5676 46.0199C71.4489 45.515 72.0718 45.1585 72.694 44.8016L72.694 44.8017ZM82.22 49.6449C83.6021 50.0477 83.8641 49.902 83.7752 48.9027C83.297 49.1305 82.8712 49.334 82.2194 49.6445L82.22 49.6449ZM74.4131 54.9032L72.6147 55.4023C72.913 55.6299 73.299 55.7056 73.6541 55.6071C74.0092 55.5086 74.2914 55.2474 74.4131 54.9032L74.4131 54.9032Z" fill="black"/>
<path d="M116.185 75.9755C115.157 75.8456 114.281 75.5562 113.557 75.1073C112.841 74.6687 112.312 74.0846 111.972 73.3548C111.631 72.625 111.524 71.7601 111.65 70.76C111.78 69.7322 112.102 68.9026 112.614 68.2712C113.125 67.649 113.786 67.2199 114.597 66.9836C115.408 66.7474 116.327 66.6942 117.355 66.824C118.373 66.9527 119.241 67.2317 119.958 67.661C120.676 68.0903 121.205 68.6698 121.545 69.3996C121.884 70.1386 121.989 71.0267 121.858 72.0638C121.732 73.0545 121.414 73.861 120.903 74.4832C120.401 75.1065 119.744 75.5409 118.932 75.7864C118.128 76.0423 117.212 76.1054 116.185 75.9755ZM117.174 68.1418C115.924 67.9838 114.905 68.1231 114.116 68.5597C113.336 68.9974 112.875 69.7765 112.734 70.8969C112.591 72.0266 112.844 72.8958 113.491 73.5044C114.148 74.1142 115.101 74.4981 116.351 74.656C117.601 74.8139 118.611 74.6781 119.38 74.2485C120.159 73.82 120.619 73.0455 120.76 71.9251C120.902 70.8047 120.65 69.9309 120.005 69.3038C119.368 68.687 118.424 68.2997 117.174 68.1418Z" fill="black"/>
<path d="M108.992 81.5929C109.211 80.9674 109.534 80.4527 109.962 80.0487C110.387 79.6535 110.918 79.4089 111.554 79.315C112.187 79.2298 112.922 79.3336 113.759 79.6264C114.631 79.9315 115.289 80.3249 115.734 80.8067C116.178 81.2885 116.442 81.8207 116.525 82.4034C116.605 82.995 116.534 83.6079 116.312 84.2422C116.185 84.6034 116.024 84.9375 115.828 85.2446C115.64 85.5547 115.456 85.797 115.277 85.9715L114.437 85.2772C114.59 85.0935 114.751 84.873 114.92 84.6158C115.089 84.3585 115.217 84.1065 115.303 83.8599C115.79 82.4679 115.14 81.4591 113.351 80.8336C112.497 80.5347 111.782 80.4725 111.206 80.647C110.637 80.8335 110.235 81.2614 110.001 81.931C109.865 82.3186 109.786 82.6717 109.764 82.9902C109.738 83.3174 109.74 83.6244 109.768 83.9112L108.737 83.5506C108.697 83.2696 108.697 82.973 108.737 82.6607C108.765 82.3541 108.85 81.9982 108.992 81.5929Z" fill="black"/>
<path d="M110.364 93.8816L111.536 91.7304L105.857 88.6346L106.44 87.5652L112.119 90.661L113.278 88.5345L114.188 89.0303L111.273 94.3774L110.364 93.8816Z" fill="black"/>
<path d="M107.258 100.063C106.685 100.775 106.104 101.177 105.516 101.267C104.928 101.357 104.293 101.127 103.61 100.576L99.6291 97.372L100.191 96.674L101.169 97.1559L101.204 97.1123C101.089 96.6003 101.069 96.1411 101.145 95.7346C101.215 95.3354 101.449 94.8887 101.847 94.3943C102.274 93.8636 102.766 93.5349 103.323 93.4083C103.888 93.2876 104.468 93.4672 105.064 93.9472C105.646 94.4154 105.909 95.0044 105.852 95.714C105.804 96.4296 105.41 97.2753 104.673 98.2511L103.907 99.2698L104.255 99.5507C104.743 99.9429 105.166 100.11 105.524 100.051C105.883 99.9923 106.218 99.7703 106.528 99.385C106.774 99.0796 106.96 98.7508 107.088 98.3984C107.223 98.0519 107.329 97.7119 107.406 97.3783L108.363 97.6633C108.296 98.029 108.17 98.4243 107.983 98.8494C107.804 99.2803 107.562 99.6848 107.258 100.063ZM103.911 97.8355C104.467 97.0851 104.758 96.4862 104.782 96.0387C104.801 95.5986 104.625 95.2293 104.254 94.9308C103.927 94.6674 103.608 94.5724 103.298 94.6458C102.981 94.7265 102.697 94.9231 102.445 95.2357C102.047 95.7301 101.851 96.2491 101.857 96.7928C101.87 97.3424 102.16 97.8455 102.727 98.302L103.25 98.7234L103.911 97.8355Z" fill="black"/>
<path d="M95.4058 108.69C95.1077 108.331 94.9828 107.961 95.0312 107.582C95.0797 107.202 95.2428 106.836 95.5207 106.484L95.4849 106.44C95.0841 106.688 94.6645 106.818 94.2259 106.831C93.7933 106.85 93.3981 106.645 93.0403 106.214C92.6348 105.726 92.481 105.168 92.5789 104.541C92.6755 103.927 93.1403 103.274 93.9732 102.582L96.4611 100.516L101.255 106.289L98.7781 108.346C98.3688 108.686 97.9639 108.943 97.5633 109.118C97.1614 109.307 96.7777 109.37 96.4121 109.31C96.0454 109.263 95.7099 109.056 95.4058 108.69ZM96.266 107.775C96.4926 108.048 96.7571 108.162 97.0595 108.117C97.3607 108.086 97.7339 107.885 98.179 107.515L99.6546 106.29L98.3397 104.707L97.0365 105.789C96.0816 106.582 95.8247 107.244 96.266 107.775ZM94.0204 105.4C94.2947 105.73 94.6171 105.863 94.9877 105.798C95.3582 105.733 95.7876 105.498 96.2759 105.092L97.6868 103.92L96.1484 102.068L94.7159 103.257C94.242 103.651 93.9361 104.02 93.7981 104.365C93.666 104.718 93.7401 105.063 94.0204 105.4Z" fill="black"/>
<path d="M89.3343 109.316C89.2826 109.217 89.2093 109.066 89.1143 108.863C89.0192 108.66 88.9283 108.454 88.8416 108.247C88.7466 108.044 88.6731 107.882 88.6211 107.762L87.955 115.193L86.6134 115.89L83.1526 109.232L84.1712 108.702L86.2115 112.628C86.2804 112.76 86.3708 112.934 86.4827 113.149C86.5864 113.369 86.6878 113.585 86.7872 113.796C86.8908 114.015 86.9665 114.181 87.0141 114.293L87.6618 106.888L89.0159 106.184L92.4767 112.842L91.4456 113.378L89.3343 109.316Z" fill="black"/>
<path d="M76.348 118.232L78.6979 117.539L76.8684 111.335L78.0366 110.99L79.8662 117.194L82.1893 116.509L82.4823 117.503L76.641 119.225L76.348 118.232Z" fill="black"/>
<path d="M68.1967 117.319C66.2546 117.501 65.2172 116.886 65.0846 115.474C65.0191 114.777 65.2037 114.197 65.6383 113.735C66.0739 113.281 66.8073 113.006 67.8388 112.909L71.2259 112.591L71.9276 120.062L70.701 120.177L70.413 117.111L68.1967 117.319ZM66.3046 115.289C66.3474 115.744 66.5388 116.036 66.8789 116.163C67.2105 116.301 67.6644 116.342 68.2406 116.288L70.3174 116.093L70.0922 113.696L67.9875 113.894C67.4671 113.942 67.0484 114.076 66.7313 114.293C66.405 114.511 66.2627 114.843 66.3046 115.289Z" fill="black"/>
<path d="M49.1788 114.721C49.4516 113.51 49.9724 112.642 50.7412 112.117C51.501 111.59 52.4044 111.444 53.4515 111.68C54.098 111.825 54.6434 112.101 55.0877 112.507C55.5208 112.921 55.8194 113.442 55.9837 114.073C56.1458 114.712 56.1357 115.437 55.9531 116.247C55.6804 117.458 55.1652 118.323 54.4074 118.841C53.6497 119.359 52.7473 119.5 51.7002 119.264C51.0355 119.115 50.4867 118.833 50.0535 118.42C49.6093 118.014 49.3096 117.496 49.1545 116.868C48.9882 116.247 48.9963 115.532 49.1788 114.721ZM54.7103 115.967C54.9051 115.102 54.8915 114.377 54.6694 113.791C54.4362 113.212 53.9463 112.839 53.1997 112.671C52.4621 112.504 51.864 112.633 51.4052 113.056C50.9443 113.488 50.6165 114.136 50.4217 115.001C50.2269 115.866 50.2471 116.583 50.4823 117.153C50.7176 117.723 51.2086 118.092 51.9552 118.26C52.7018 118.428 53.2989 118.304 53.7466 117.888C54.1942 117.472 54.5154 116.832 54.7103 115.967Z" fill="black"/>
<path d="M39.4149 113.616L41.6562 114.605L44.2682 108.688L45.3825 109.18L42.7705 115.097L44.9862 116.075L44.5679 117.023L38.9965 114.563L39.4149 113.616Z" fill="black"/>
<path d="M33.9095 111.655C33.1927 111.182 32.7191 110.663 32.4885 110.097C32.245 109.534 32.2979 108.987 32.6474 108.457C32.8992 108.076 33.2048 107.841 33.5642 107.754C33.9184 107.675 34.3121 107.705 34.7451 107.845L34.7759 107.799C34.5728 107.564 34.4072 107.315 34.2791 107.052C34.151 106.788 34.0914 106.514 34.1003 106.229C34.1015 105.939 34.2074 105.635 34.4181 105.315C34.7624 104.793 35.2709 104.497 35.9436 104.426C36.6034 104.358 37.393 104.628 38.3123 105.234C38.7642 105.532 39.1475 105.841 39.4623 106.16C39.7823 106.472 40.0219 106.77 40.1812 107.054L39.5722 107.977C39.3895 107.678 39.1524 107.359 38.8608 107.021C38.5614 106.678 38.1975 106.366 37.769 106.083C37.3015 105.775 36.8567 105.593 36.4345 105.538C35.9993 105.486 35.6533 105.655 35.3963 106.044C34.9338 106.745 35.2986 107.489 36.4906 108.275L37.3321 108.83L36.777 109.672L36.0992 109.225C35.5616 108.87 35.0869 108.658 34.6749 108.587C34.2501 108.519 33.922 108.661 33.6907 109.011C33.4955 109.308 33.4737 109.612 33.6253 109.924C33.7692 110.232 34.071 110.537 34.5307 110.84C34.8735 111.066 35.2005 111.232 35.5116 111.336C35.8098 111.443 36.1584 111.534 36.5575 111.607L36.3801 112.664C35.5355 112.52 34.712 112.184 33.9095 111.655Z" fill="black"/>
<path d="M33.0039 101.651L27.6473 106.906L26.7845 106.027L28.9831 103.87L27.6203 102.481C26.9405 101.788 26.5638 101.151 26.4902 100.569C26.4165 99.9878 26.6329 99.4487 27.1392 98.9519C27.6389 98.4617 28.1988 98.2327 28.8188 98.265C29.4323 98.3039 30.0985 98.6898 30.8175 99.4226L33.0039 101.651ZM27.9055 96.4545L22.549 101.71L21.6862 100.83L27.0427 95.5751L27.9055 96.4545ZM30.1864 100.199C29.8138 99.8189 29.4466 99.5712 29.0847 99.4556C28.7161 99.3465 28.3686 99.452 28.0422 99.7723C27.7157 100.093 27.6037 100.418 27.7061 100.749C27.8019 101.087 28.0524 101.462 28.4577 101.875L29.7126 103.154L31.4315 101.468L30.1864 100.199Z" fill="black"/>
<path d="M16.4394 89.4636C16.8389 89.2224 17.2229 89.1542 17.5913 89.2589C17.9597 89.3635 18.2972 89.5795 18.6038 89.9069L18.6518 89.8779C18.4666 89.4446 18.4006 89.0102 18.4539 88.5747C18.4992 88.144 18.7615 87.784 19.241 87.4946C19.7843 87.1666 20.3588 87.0979 20.9643 87.2884C21.5571 87.4757 22.1332 88.0328 22.6926 88.9597L24.3638 91.7285L17.9393 95.6062L16.2754 92.8494C16.0005 92.3939 15.8065 91.9551 15.6933 91.5328C15.5673 91.1073 15.5615 90.7184 15.6758 90.366C15.7773 90.0103 16.0319 89.7096 16.4394 89.4636ZM17.2151 90.4507C16.9114 90.634 16.7592 90.8785 16.7584 91.1843C16.7448 91.4868 16.8875 91.8858 17.1865 92.3812L18.1777 94.0233L19.9396 92.9598L19.0642 91.5095C18.4228 90.4468 17.8064 90.0938 17.2151 90.4507ZM19.8993 88.5853C19.5317 88.8072 19.3524 89.1062 19.3614 89.4823C19.3704 89.8584 19.5389 90.3182 19.8669 90.8616L20.8146 92.4317L22.8762 91.1874L21.914 89.5933C21.5957 89.0659 21.2762 88.7082 20.9556 88.5201C20.6269 88.3369 20.2748 88.3587 19.8993 88.5853Z" fill="black"/>
<path d="M14.8245 80.2192C14.4184 80.3264 14.1427 80.1047 13.9975 79.5542L12.8627 75.3071C12.8565 75.1737 12.9797 75.0736 13.2324 75.0069C13.6385 74.8998 13.9142 75.1215 14.0594 75.672L15.1942 79.919C15.2004 80.0525 15.0772 80.1526 14.8245 80.2192Z" fill="black"/>
<path d="M11.4405 57.4022C12.4754 57.4496 13.3717 57.6682 14.1293 58.0579C14.878 58.4379 15.4513 58.978 15.849 59.6783C16.2467 60.3786 16.4225 61.2322 16.3764 62.2391C16.329 63.274 16.0751 64.1266 15.6146 64.7969C15.1545 65.4579 14.5299 65.9385 13.7407 66.2387C12.9514 66.5389 12.0394 66.6653 11.0044 66.6179C9.97885 66.571 9.09147 66.3622 8.34231 65.9915C7.59315 65.6208 7.01971 65.0854 6.622 64.3851C6.22471 63.6755 6.04998 62.7986 6.0978 61.7544C6.14349 60.7568 6.39636 59.9275 6.85641 59.2665C7.30714 58.6051 7.92733 58.1196 8.71699 57.8101C9.49774 57.4908 10.4056 57.3549 11.4405 57.4022ZM11.0793 65.29C12.3379 65.3476 13.3431 65.1274 14.0947 64.6292C14.8369 64.1307 15.2339 63.3173 15.2855 62.1892C15.3376 61.0517 15.0167 60.2055 14.3227 59.6505C13.6193 59.095 12.6383 58.7885 11.3797 58.7309C10.121 58.6732 9.12538 58.8892 8.39288 59.3789C7.65105 59.8681 7.25431 60.6768 7.20264 61.805C7.15098 62.9331 7.47172 63.784 8.16487 64.3577C8.84912 64.9216 9.82059 65.2323 11.0793 65.29Z" fill="black"/>
<path d="M18.1249 51.3222C17.9583 51.9635 17.6783 52.5031 17.2849 52.941C16.8939 53.3698 16.3853 53.6571 15.7592 53.8031C15.1354 53.9399 14.3944 53.8969 13.5362 53.674C12.6419 53.4417 11.9534 53.1037 11.4708 52.6601C10.9881 52.2165 10.6815 51.7078 10.551 51.1338C10.4228 50.5509 10.4431 49.9342 10.6121 49.2838C10.7083 48.9134 10.8417 48.5671 11.0121 48.245C11.1736 47.9205 11.3366 47.6639 11.5014 47.4753L12.3955 48.0981C12.2579 48.2938 12.1154 48.5267 11.968 48.797C11.8207 49.0673 11.7141 49.329 11.6484 49.5819C11.2777 51.0092 12.0092 51.961 13.843 52.4374C14.7192 52.665 15.4368 52.6682 15.9957 52.447C16.548 52.2143 16.9132 51.7547 17.0916 51.0682C17.1948 50.6707 17.2445 50.3124 17.2407 49.9932C17.2392 49.6649 17.2125 49.359 17.1608 49.0756L18.2177 49.3502C18.2808 49.6269 18.3053 49.9226 18.2911 50.2371C18.2883 50.5449 18.2329 50.9066 18.1249 51.3222Z" fill="black"/>
<path d="M15.8612 38.9529L14.8581 41.1882L20.7592 43.8362L20.2605 44.9475L14.3594 42.2994L13.3678 44.5091L12.4226 44.085L14.916 38.5288L15.8612 38.9529Z" fill="black"/>
<path d="M18.408 32.6368C18.9228 31.8807 19.4695 31.4343 20.0481 31.2976C20.6268 31.1609 21.2787 31.3394 22.0039 31.8332L26.2277 34.7092L25.7234 35.4498L24.71 35.0477L24.6785 35.094C24.8341 35.5951 24.8904 36.0513 24.8476 36.4625C24.81 36.8659 24.6126 37.33 24.2554 37.8546C23.8719 38.4178 23.4075 38.7847 22.8622 38.9554C22.3092 39.1209 21.7164 38.9882 21.0838 38.5575C20.4666 38.1372 20.1576 37.5712 20.1568 36.8593C20.1483 36.1421 20.4727 35.2677 21.13 34.236L21.8123 33.1593L21.442 32.9072C20.9251 32.5552 20.4902 32.4228 20.1372 32.51C19.7843 32.5972 19.4687 32.8452 19.1903 33.2541C18.9696 33.5781 18.8097 33.9208 18.7103 34.2823C18.6033 34.6385 18.5248 34.9859 18.4749 35.3245L17.4984 35.1169C17.5357 34.7471 17.6303 34.3429 17.7821 33.9043C17.9262 33.4604 18.1349 33.0379 18.408 32.6368ZM21.9225 34.5894C21.4281 35.3819 21.1865 36.0021 21.1976 36.4501C21.214 36.8903 21.4189 37.2444 21.8124 37.5123C22.1596 37.7487 22.4851 37.8179 22.7889 37.7199C23.098 37.6142 23.3655 37.3954 23.5914 37.0637C23.9486 36.5391 24.1026 36.006 24.0536 35.4645C23.9968 34.9177 23.6675 34.4395 23.0658 34.0298L22.5103 33.6515L21.9225 34.5894Z" fill="black"/>
<path d="M29.3126 23.2807C29.6397 23.6135 29.795 23.9713 29.7785 24.3539C29.762 24.7366 29.6301 25.1149 29.3827 25.489L29.4219 25.5289C29.8005 25.2484 30.2078 25.0836 30.6439 25.0346C31.0733 24.9789 31.4843 25.1507 31.8769 25.5501C32.3218 26.0027 32.5217 26.5456 32.4767 27.1788C32.4317 27.7988 32.0232 28.4883 31.251 29.2472L28.9446 31.5142L23.6844 26.1626L25.9809 23.9054C26.3603 23.5325 26.7423 23.2421 27.1268 23.0342C27.5115 22.8131 27.8886 22.7173 28.2579 22.7469C28.6274 22.7633 28.9789 22.9412 29.3126 23.2807ZM28.5319 24.264C28.2833 24.011 28.0102 23.9196 27.7126 23.9896C27.4151 24.0464 27.06 24.2777 26.6473 24.6833L25.2795 26.0278L26.7221 27.4955L27.9302 26.3081C28.8155 25.4379 29.0161 24.7565 28.5319 24.264ZM30.9683 26.4431C30.6674 26.1369 30.335 26.0318 29.9711 26.1276C29.6073 26.2235 29.1991 26.4939 28.7465 26.9388L27.4385 28.2244L29.1265 29.9417L30.4544 28.6365C30.8937 28.2047 31.1677 27.811 31.2764 27.4556C31.3785 27.0935 31.2758 26.756 30.9683 26.4431Z" fill="black"/>
<path d="M35.4712 22.0058C35.5308 22.1007 35.6163 22.2454 35.7275 22.44C35.8388 22.6347 35.9461 22.8318 36.0495 23.0314C36.1607 23.226 36.2472 23.3812 36.3088 23.4968L36.3668 16.0366L37.6471 15.2322L41.6392 21.5861L40.6672 22.1969L38.3136 18.4509C38.2342 18.3244 38.1299 18.1585 38.0008 17.953C37.8796 17.7425 37.7609 17.5361 37.6446 17.3335C37.5234 17.1231 37.4345 16.964 37.3779 16.8563L37.3361 24.2898L36.044 25.1016L32.0518 18.7476L33.0357 18.1295L35.4712 22.0058Z" fill="black"/>
<path d="M47.5323 12.0969L45.2485 12.9839L47.5901 19.0132L46.4548 19.4541L44.1131 13.4249L41.8554 14.3017L41.4804 13.336L47.1573 11.1312L47.5323 12.0969Z" fill="black"/>
<path d="M55.8738 12.2729C57.7946 11.9329 58.8786 12.4614 59.1259 13.8583C59.2479 14.5476 59.1112 15.1405 58.7157 15.6371C58.3185 16.1244 57.6099 16.4584 56.5898 16.639L53.2398 17.2319L51.9319 9.84278L53.145 9.62805L53.6819 12.6609L55.8738 12.2729ZM57.925 14.142C57.8453 13.6917 57.6307 13.4169 57.2814 13.3176C56.9397 13.2074 56.4839 13.2028 55.9141 13.3037L53.86 13.6673L54.2797 16.0384L56.3614 15.6699C56.876 15.5788 57.2825 15.4121 57.5808 15.1697C57.8884 14.9257 58.0031 14.5832 57.925 14.142Z" fill="black"/>
<path d="M74.762 13.2406C74.5931 14.4704 74.148 15.3797 73.4266 15.9684C72.7144 16.5583 71.8266 16.7803 70.7633 16.6343C70.1067 16.5442 69.5399 16.3157 69.0627 15.9487C68.596 15.5737 68.2541 15.0793 68.0369 14.4654C67.821 13.8422 67.7695 13.1192 67.8825 12.2962C68.0513 11.0664 68.4912 10.1612 69.2021 9.58047C69.913 8.99976 70.8001 8.7824 71.8635 8.92837C72.5385 9.02103 73.1093 9.25484 73.576 9.62979C74.0532 9.99677 74.3958 10.4866 74.6037 11.0992C74.8222 11.7039 74.8749 12.4177 74.762 13.2406ZM69.1446 12.4695C69.024 13.3479 69.0993 14.0695 69.3703 14.6343C69.6519 15.1911 70.1718 15.5216 70.93 15.6256C71.679 15.7285 72.264 15.5497 72.6852 15.0894C73.1077 14.6198 73.3792 13.9458 73.4998 13.0674C73.6204 12.1889 73.5393 11.4759 73.2564 10.9284C72.9736 10.3808 72.4531 10.055 71.6949 9.95094C70.9366 9.84685 70.3522 10.021 69.9415 10.4733C69.5309 10.9257 69.2652 11.5911 69.1446 12.4695Z" fill="black"/>
<path d="M84.8207 13.558L82.5049 12.7582L80.3935 18.8719L79.2423 18.4743L81.3536 12.3606L79.0643 11.57L79.4025 10.5907L85.1589 12.5787L84.8207 13.558Z" fill="black"/>
<path d="M90.5379 15.0832C91.2908 15.4961 91.8051 15.9752 92.0809 16.5203C92.3694 17.0618 92.3611 17.6108 92.0559 18.1672C91.8359 18.5682 91.5504 18.8267 91.1993 18.9429C90.8527 19.0508 90.4579 19.0525 90.0149 18.9479L89.988 18.997C90.2095 19.2143 90.3948 19.449 90.5439 19.7011C90.693 19.9532 90.7747 20.2216 90.7889 20.5062C90.8114 20.7952 90.7306 21.1075 90.5465 21.443C90.2458 21.9913 89.7631 22.328 89.0983 22.4531C88.4463 22.5744 87.6375 22.3703 86.6718 21.8407C86.1972 21.5804 85.79 21.3038 85.4503 21.011C85.1061 20.7264 84.843 20.4491 84.6612 20.179L85.1931 19.2093C85.3995 19.4928 85.6617 19.791 85.9798 20.1039C86.3061 20.4212 86.6942 20.7033 87.1443 20.9502C87.6353 21.2195 88.0934 21.3643 88.5187 21.3847C88.9567 21.4013 89.2879 21.2051 89.5123 20.7959C89.9162 20.0594 89.4922 19.3478 88.2402 18.6611L87.3564 18.1763L87.8411 17.2926L88.5531 17.6831C89.1177 17.9928 89.6082 18.166 90.0245 18.2027C90.4535 18.2357 90.7689 18.0681 90.9709 17.6999C91.1415 17.3889 91.1385 17.0839 90.9619 16.7848C90.7935 16.4901 90.4679 16.2104 89.9851 15.9456C89.625 15.7481 89.2857 15.6099 88.967 15.5309C88.6611 15.4483 88.3063 15.3867 87.9027 15.3463L87.9934 14.2784C88.8469 14.3526 89.6951 14.6209 90.5379 15.0832Z" fill="black"/>
<path d="M92.2442 24.9575L97.1635 19.2909L98.0939 20.0986L96.0747 22.4244L97.5442 23.7001C98.2772 24.3364 98.7037 24.9415 98.8236 25.5152C98.9435 26.089 98.7709 26.6437 98.3059 27.1793C97.847 27.7079 97.3072 27.9809 96.6865 27.9983C96.072 28.0086 95.3771 27.6772 94.6018 27.0042L92.2442 24.9575ZM97.7417 29.73L102.661 24.0634L103.591 24.871L98.672 30.5376L97.7417 29.73ZM95.1688 26.1801C95.5706 26.5289 95.9564 26.7464 96.3264 26.8328C96.7025 26.9121 97.0404 26.7791 97.3403 26.4337C97.6401 26.0884 97.7257 25.7548 97.5971 25.4331C97.4747 25.1043 97.195 24.7503 96.758 24.3709L95.4048 23.1962L93.8262 25.0145L95.1688 26.1801Z" fill="black"/>
<path d="M109.683 35.6841C109.304 35.9564 108.927 36.0552 108.551 35.9804C108.175 35.9056 107.822 35.7173 107.49 35.4156L107.444 35.4483C107.664 35.8654 107.764 36.2931 107.746 36.7315C107.735 37.1644 107.503 37.5443 107.048 37.8712C106.533 38.2417 105.966 38.3562 105.347 38.2149C104.741 38.0757 104.122 37.5665 103.49 36.6874L101.602 34.0615L107.696 29.6814L109.575 32.296C109.886 32.7279 110.114 33.1499 110.261 33.5617C110.42 33.9757 110.457 34.3629 110.372 34.7234C110.299 35.086 110.069 35.4062 109.683 35.6841ZM108.831 34.7622C109.119 34.5552 109.251 34.2993 109.227 33.9945C109.216 33.6918 109.042 33.3055 108.704 32.8357L107.585 31.2783L105.914 32.4796L106.903 33.855C107.627 34.863 108.27 35.1654 108.831 34.7622ZM106.304 36.8368C106.653 36.5862 106.808 36.2738 106.769 35.8996C106.73 35.5254 106.525 35.0806 106.154 34.5653L105.084 33.0761L103.129 34.4816L104.216 35.9935C104.575 36.4937 104.922 36.8247 105.257 36.9864C105.599 37.1427 105.948 37.0928 106.304 36.8368Z" fill="black"/>
<path d="M112.082 44.7729C112.478 44.6328 112.771 44.831 112.961 45.3677L114.441 49.5071C114.458 49.6396 114.343 49.7495 114.097 49.8367C113.701 49.9768 113.408 49.7786 113.218 49.2419L111.738 45.1025C111.721 44.97 111.835 44.8601 112.082 44.7729Z" fill="black"/>
</svg>
