<svg width="129" height="130" viewBox="0 0 129 130" fill="none" xmlns="http://www.w3.org/2000/svg">
<circle cx="63.5" cy="64.5" r="61" stroke="#7ACFC8"/>
<path d="M106.183 64.5406C106.183 88.0128 87.3791 107.041 64.1831 107.041C40.9871 107.041 22.1831 88.0128 22.1831 64.5406C22.1831 41.0685 40.9871 22.0406 64.1831 22.0406C87.3791 22.0406 106.183 41.0685 106.183 64.5406Z" fill="#7ACFC8"/>
<path d="M53.8219 37.6516C58.1101 39.7589 59.9341 43.2812 60.3781 47.7044L60.7713 47.58C60.8561 46.1347 60.9404 44.6891 61.0246 43.2436L61.0255 43.2433C61.0205 42.4261 61.0685 41.6103 61.1687 40.802C61.3603 40.098 61.2145 39.3378 60.7731 38.7353C60.3313 38.1457 59.9571 37.5059 59.5061 36.9234L59.5057 36.924C58.755 35.9982 58.5138 34.7738 58.8644 33.6649C59.3412 31.8936 59.7296 30.0967 60.1909 28.32L60.1899 28.3202C60.272 28.0691 60.4441 27.8585 60.6742 27.7276C60.9887 27.8349 61.2596 28.0453 61.4412 28.3231C62.8476 30.8719 63.2365 33.8277 62.5298 36.5919C62.1203 38.4129 61.8259 40.2598 61.6464 42.1228C61.6445 42.4169 61.6825 42.7108 61.7585 42.9967L62.0299 43.0368L62.0305 43.0372C62.2046 42.7752 62.3119 42.4745 62.3422 42.1596C61.6042 39.2121 63.1519 37.4052 65.3896 36.0173C66.7373 35.181 68.2069 34.5313 69.6353 33.8227C69.8565 33.7663 70.0872 33.7513 70.3162 33.7797C70.3525 33.9881 70.3514 34.1999 70.3125 34.4057C69.7808 35.726 69.2369 37.0425 68.6674 38.3462C67.9206 40.0404 66.6456 41.4429 65.0239 42.3547C64.8722 42.4703 64.6847 42.5328 64.4905 42.5323C63.8462 42.3452 63.167 42.6041 62.8312 43.1646C62.3712 43.7964 62.0301 44.5073 61.8248 45.2642C61.2216 48.3299 60.7261 51.4183 60.1894 54.5079C60.8037 53.6373 61.4686 52.7576 62.0547 51.8277C62.2492 51.5068 62.3205 51.1249 62.2582 50.75C61.9238 49.4726 62.0082 48.1346 62.4984 46.9302C62.9887 45.7258 63.859 44.7186 64.9826 44.0536C65.9199 43.4566 66.8016 42.7771 67.7234 42.1567L67.724 42.157C68.0526 41.9812 68.395 41.8287 68.7479 41.7027C68.6015 43.4509 68.802 45.1197 68.2553 46.4772C67.6591 47.9379 66.666 49.1995 65.3834 50.1236C62.8618 51.9228 60.8935 54.3724 59.6841 57.216C59.5166 57.6883 59.4354 58.1884 59.4439 58.6935C59.3866 59.5918 59.3781 60.4947 59.3408 61.6602L59.3412 61.6596C60.1046 60.576 60.9362 59.5418 61.8325 58.5649C64.2254 56.2752 66.6743 54.0436 69.1786 51.8688C70.138 50.9834 70.7564 49.7937 70.9323 48.4937C70.9337 48.073 70.7601 47.6652 70.4521 47.3665C69.7459 46.7333 69.5908 45.7005 70.0849 44.9224C70.4847 44.2269 71.2471 43.8184 72.065 43.8598C73.0343 44.0469 74.0796 44.9251 73.9491 45.69C73.8567 46.3313 73.4824 46.8929 72.9263 47.225C71.5872 47.6364 71.8079 48.608 71.7434 49.75C72.6424 49.1821 73.4267 48.7181 74.1763 48.2048C75.0651 47.5967 75.9086 46.9252 76.7986 46.3194L76.7983 46.3201C78.0159 45.5731 78.3732 43.9801 77.5988 42.7456C77.1978 42.1595 77.2359 41.3914 77.6918 40.8704C78.1063 40.3423 78.8846 40.2578 79.4307 40.6827C79.7714 40.7778 80.0956 40.9291 80.389 41.1294C80.8166 41.5436 81.0967 42.0824 81.185 42.6615C80.9581 43.16 80.5007 43.5128 79.9539 43.6108C79.5972 43.6222 79.2683 43.7897 79.0564 44.0679C78.844 44.3458 78.7702 44.7066 78.8542 45.052C79.8635 44.6026 80.8411 44.2171 81.7603 43.7288C82.0459 43.49 82.265 43.1822 82.3967 42.8338C82.7141 42.1965 83.3273 41.7598 84.0432 41.6604C84.7595 41.562 85.4887 41.8138 86.0003 42.3364C86.4305 42.8448 86.6276 43.5045 86.5425 44.1509C86.223 44.6345 85.6929 44.9412 85.1046 44.9843C84.3341 44.9813 83.5647 44.897 82.8076 44.7336C82.4727 44.6418 82.1226 44.6324 81.7883 44.7059C80.2146 45.4482 78.673 46.2531 77.1543 47.1628C79.0017 47.2647 80.7774 48.028 82.648 47.3074C83.5945 46.9428 84.3511 47.8613 84.8993 48.5465C85.1503 49.0097 85.1792 49.5551 84.9783 50.0299C84.6097 50.7374 83.7692 51.063 82.9935 50.7979C82.5044 50.7842 82.0389 50.5666 81.7126 50.1984C81.3854 49.8305 81.2284 49.3469 81.2795 48.8674C81.2004 48.6093 80.9946 48.4047 80.7338 48.3246C79.4613 48.1047 78.1776 47.9645 76.8919 47.906C76.2405 47.919 75.6127 48.1193 75.0848 48.4821C73.3263 49.6764 71.6275 50.9563 69.9215 52.2221C69.3207 52.6682 68.7616 53.1675 68.1838 53.6431L68.2888 53.9135C69.6516 53.6008 71.0376 53.3579 72.3678 52.9488L72.3675 52.9494C72.9953 52.704 73.7165 52.8126 74.2609 53.2333C75.0026 53.6414 75.4099 54.4665 75.2722 55.2814C74.9999 56.2568 73.9403 56.2603 73.109 56.3778L73.1093 56.3772C72.8015 56.432 72.4816 56.3553 72.2276 56.1659C71.9736 55.9765 71.8098 55.6924 71.7757 55.3828C71.6947 55.0112 71.6314 54.6365 71.5374 54.1411C69.0057 54.4091 66.4562 54.4718 64.6521 56.6982C62.9262 58.8272 60.9921 60.7901 59.2982 62.9429L59.2986 62.9423C58.8338 63.7625 58.5251 64.6632 58.3885 65.6009C57.3155 69.4701 56.255 73.3429 55.2074 77.2192C54.9948 78.0014 54.8089 78.7913 54.5648 79.7599C55.8546 78.7119 56.9491 77.7179 58.1525 76.8719C59.7258 75.766 60.4117 73.9552 61.7219 72.649C61.8382 72.4509 61.8515 72.2067 61.7585 71.9915C61.2545 71.0926 61.0783 70.0568 61.261 69.0626C61.4431 68.0679 61.9721 67.1768 62.757 66.5424C63.3725 65.9529 64.0867 65.4548 64.6456 64.8193C65.2393 64.1445 65.6904 63.3485 66.2289 62.6235C66.3555 62.392 66.5667 62.2183 66.8208 62.1362C67.0869 62.2111 67.3029 62.4084 67.3998 62.666C68.2657 65.1022 68.0188 67.7627 66.7243 69.9453C66.0759 70.986 64.6532 71.5402 63.5865 72.3213C62.9357 72.7981 62.2936 73.2863 61.6474 73.7698L61.8221 74.0241C62.325 73.7102 62.8063 73.3553 63.3349 73.0888C65.0644 72.2176 66.809 71.3748 68.5535 70.5325C68.8898 70.37 69.3241 70.3313 69.0399 69.7533L69.0393 69.7529C69.0551 69.5372 69.1516 69.3369 69.3105 69.1918C69.5529 68.8997 69.8167 68.6264 70.0992 68.3735C70.9777 67.7448 71.1583 66.5189 70.5041 65.6281C69.5591 63.9491 70.6653 61.8907 72.0174 60.9731C73.1652 60.1947 74.3564 59.4754 75.5541 58.7729C75.9344 58.5501 76.5462 58.3768 76.5479 59.1085L76.5485 59.1088C76.598 60.6238 76.5158 62.1378 76.3039 63.6322C75.9465 64.9824 74.8838 66.0232 73.5151 66.3629C72.0614 66.902 71.3698 68.0796 70.5012 69.1332L70.668 69.355C71.171 69.1265 71.6698 68.889 72.178 68.6708C73.4361 68.1322 74.7492 67.6921 75.9448 67.0457L75.9455 67.0461C76.5793 66.7795 77.119 66.3373 77.4989 65.7716C77.8793 65.2052 78.0844 64.5385 78.0912 63.8501C78.0383 61.2032 79.5572 59.5687 81.6514 58.3239C82.7725 57.6575 83.9263 57.0407 85.0849 56.4381L85.0842 56.4378C85.3432 56.3634 85.6145 56.3362 85.8858 56.3583C85.9256 56.6474 85.9117 56.9405 85.8458 57.2229C85.4863 57.998 85.0097 58.7179 84.6615 59.4969C83.7933 61.1976 82.4346 62.5976 80.752 63.5233C79.916 64.1483 79.1305 64.8365 78.4025 65.5826L78.6063 65.9124C78.9036 65.9049 79.2 65.8764 79.4922 65.8283C80.6763 65.5535 81.8678 65.297 83.0255 64.9433L83.0258 64.9427C83.387 64.7418 83.71 64.4816 83.9813 64.1723C84.4606 63.6515 85.0324 63.2226 85.6695 62.9038C88.2275 62.166 90.8942 61.8123 93.5792 61.8543C93.897 61.9167 94.207 62.014 94.5039 62.1449C92.2646 64.0051 90.4146 66.0012 87.409 66.0738L87.4084 66.0735C87.1505 66.0828 86.8911 66.038 86.6489 65.9415C84.5392 65.0394 82.5218 65.5208 80.5354 66.1927C78.9739 66.7214 77.444 67.3362 75.9759 67.8843C78.2007 68.2785 80.4662 68.7679 82.7528 69.0381L82.7518 69.0384C83.6094 69.0063 84.4495 68.8191 85.2308 68.4862C87.0604 68.1114 88.9733 68.2424 90.7601 68.866C91.9468 69.1775 93.1287 69.5124 94.3002 69.8792C94.6052 70.0197 94.891 70.1992 95.15 70.4127C94.8681 70.5249 94.5906 70.6486 94.3034 70.7462L94.3037 70.7456C93.6449 70.8676 93.0109 71.0866 92.4231 71.3957C90.2178 73.0783 87.9188 72.524 85.5659 71.6774L85.5655 71.678C85.1746 71.62 84.7876 71.5323 84.4083 71.4145C83.8773 71.0826 83.3746 70.7077 82.9047 70.294C82.7405 70.0646 82.5344 69.8664 82.2976 69.7106C80.2998 69.3576 78.2587 69.2079 76.3002 68.7026C74.1189 68.1396 72.6372 69.3434 70.9666 70.1727C69.3983 70.9518 67.8215 71.7146 66.2464 72.4816L66.2458 72.4812C65.9019 72.6197 65.5878 72.8194 65.3186 73.0708C66.2054 73.1021 67.0946 73.165 67.9791 73.1417C68.2422 73.0689 68.4708 72.9108 68.6295 72.6926C69.3234 71.9098 70.3193 71.4527 71.3849 71.428C73.8658 71.3 76.1499 72.2347 78.5276 72.6428L78.5273 72.6434C78.6927 72.7267 78.8448 72.8353 78.9775 72.9648C78.7503 73.1309 78.5116 73.2832 78.2649 73.4211C77.0566 73.988 75.84 74.5396 74.6287 75.0998C72.7081 76.0594 70.4493 76.1774 68.3901 75.4253C67.9241 75.291 67.4689 75.1195 67.0288 74.9122C66.8604 74.7157 66.7436 74.4812 66.6891 74.2305C66.9059 74.1592 67.1389 74.1447 67.3654 74.1881C69.5318 75.6399 71.7191 75.4125 73.9066 74.4677L73.9073 74.468C74.838 74.0625 75.7349 73.5869 76.5893 73.0446C74.2548 72.3421 71.9583 71.5808 69.4597 72.7975C69.6621 72.9379 69.8531 73.0956 70.0293 73.2677C70.159 73.3906 70.2389 73.5557 70.2522 73.7314C70.1512 73.8783 69.9836 73.9668 69.801 73.9697C67.9992 73.947 66.1967 73.882 64.3956 73.8761L64.396 73.8755C63.9598 73.85 63.5294 73.9492 63.1557 74.1618C61.3261 75.4708 59.4922 76.7813 57.7538 78.2025C55.9347 79.4822 54.4024 81.1149 53.2452 83.0048C52.7709 83.5736 52.2448 84.0965 51.6734 84.57C49.9399 86.6929 49.2229 89.315 48.2296 91.8066L48.2303 91.807C47.8909 92.4204 47.4517 92.9731 46.9293 93.4416C46.7676 93.4941 46.5936 93.5027 46.4248 93.4659C46.3916 93.324 46.3886 93.178 46.4147 93.037C47.5569 90.5709 48.6461 88.0764 49.8931 85.6651C50.5512 84.6266 51.2726 83.6298 52.0525 82.6787C52.4355 82.2245 52.7002 81.6827 52.8246 81.0997C53.1365 77.2018 53.4532 73.2999 53.584 69.3886L53.5849 69.3883C53.5837 67.2193 53.4686 65.0488 53.2393 62.8855C53.1623 61.8215 52.2058 61.376 51.4655 60.844C51.0958 60.8727 50.7463 61.0137 50.466 61.2474C49.2455 61.9574 48.7078 61.9448 48.1126 61.1467L48.1123 61.1473C47.7839 60.732 47.6382 60.2073 47.7085 59.6936C47.7791 59.181 48.0598 58.7245 48.4851 58.4305C48.8822 58.0516 49.4468 57.895 49.9964 58.0094C50.5463 58.1233 51.0119 58.4951 51.2436 59.0048C51.6552 59.7052 52.1663 60.3456 52.7622 60.9038C52.3209 58.1387 51.9584 55.3685 49.5799 53.4066C48.459 54.7506 46.1121 54.3025 45.662 53.1187C45.4483 52.6775 45.4217 52.1744 45.5882 51.7236C45.7542 51.2733 46.0995 50.9134 46.5453 50.7253C46.9557 50.4967 47.451 50.4573 47.9041 50.6162C48.3574 50.7761 48.7237 51.1194 48.9101 51.5582C49.2488 52.0377 49.6311 52.486 50.0516 52.8979L50.3974 52.6703C50.0199 51.954 49.6045 51.2572 49.1531 50.5826C48.595 49.945 48.2989 49.1273 48.3233 48.2965C48.3087 48.0061 48.4186 47.7265 48.6265 47.5272C48.8344 47.3279 49.121 47.2282 49.4142 47.252C50.3315 47.0579 51.279 47.5328 51.6797 48.3894C51.8271 48.9291 51.806 49.4961 51.6191 50.0148C51.4316 50.5333 51.0877 50.9792 50.6324 51.2923L52.602 56.0964C52.97 54.9793 53.2968 54.0013 53.608 53.0183C53.6434 52.9072 53.5397 52.7425 53.5852 52.642L53.5858 52.6424C53.7743 52.0638 54.0624 51.5238 54.4368 51.0459C54.8899 50.9662 55.3609 51.0975 55.7147 51.4018C56.3861 51.788 56.7141 52.573 56.5072 53.2985C56.0304 54.6318 55.7241 54.8384 53.9667 54.5703C53.0614 55.8932 52.7966 57.5569 53.2417 59.1259C53.8576 61.5906 54.21 64.106 54.292 66.6291C54.437 69.8753 54.2636 73.1278 54.205 76.3766L54.2057 76.3769C54.1684 76.9471 54.1027 77.5141 54.0067 78.0764L54.3021 78.1547C55.6211 72.9999 57.0497 67.8721 58.2146 62.6798C58.8159 60 58.9169 57.2002 59.3068 54.4652L59.3074 54.4655C59.4809 53.4668 59.7203 52.4826 60.0258 51.5186C60.3677 50.4375 60.3105 49.2617 59.8635 48.1968C58.7054 48.1165 57.5992 47.6481 56.7272 46.8692C55.8553 46.0903 55.2706 45.0472 55.0693 43.9135C54.8132 41.9868 54.2118 40.0962 53.7712 38.1876L53.7715 38.1869C53.7675 38.0067 53.7843 37.8268 53.8211 37.6517L53.8219 37.6516ZM62.8523 41.3786L63.2645 41.4888C63.6966 40.9592 64.11 40.4133 64.569 39.9079C64.7657 39.7285 64.9974 39.5902 65.2514 39.5024C65.3633 39.543 65.4571 39.6233 65.5148 39.7274C65.4212 39.9736 65.2949 40.2061 65.1393 40.4187C64.823 40.823 64.4741 41.203 64.1385 41.5923C66.4477 41.1208 69.0394 37.3703 68.9493 34.9367C67.9674 35.4632 67.0398 35.9904 66.0854 36.4651L66.0847 36.4647C64.8079 37.0665 63.7897 38.0867 63.1967 39.3573C62.9946 40.011 62.8784 40.6904 62.8524 41.3785L62.8523 41.3786ZM63.5334 71.1555C66.4934 70.1383 68.1599 65.9182 66.6959 63.7944C65.6772 64.7659 64.6927 65.7904 63.6159 66.7108L63.6163 66.7102C62.9421 67.2795 62.4696 68.0461 62.2648 68.9056C62.0594 69.7649 62.1327 70.6734 62.4734 71.5048L65.4785 66.1529L65.8096 66.304C65.5193 67.088 65.2773 67.8953 64.9246 68.6495C64.546 69.4572 64.0617 70.2147 63.5335 71.1554L63.5334 71.1555ZM73.2631 65.6788C75.7797 64.4075 76.3911 62.4953 75.5838 59.8332L75.5845 59.8336C75.2044 59.9827 74.8333 60.1533 74.4729 60.3422C73.7905 60.7461 73.1055 61.1534 72.4699 61.6225C70.9002 62.7804 70.6558 63.8111 71.5398 65.9181C71.9814 65.5875 72.3931 65.2202 72.7712 64.8198C73.1231 64.3791 73.3257 63.8234 73.6498 63.3571C73.8283 63.1952 74.0374 63.0687 74.2663 62.9864C74.3418 63.2359 74.3611 63.497 74.3226 63.7515C74.0383 64.3716 73.6715 64.953 73.2637 65.6793L73.2631 65.6788ZM59.2938 47.5425C59.5405 46.5123 58.8574 46.0178 58.427 45.4002C58.2408 45.06 58.0948 44.7007 57.991 44.3292C58.3153 44.5659 58.6376 44.8047 58.9661 45.0355C59.0207 45.0551 59.0785 45.0617 59.1358 45.0557C58.2521 42.2658 56.6773 40.0814 54.8278 39.2934C55.2634 41.2228 55.5407 43.0622 56.1168 44.8133C56.6393 46.195 57.8425 47.2284 59.2934 47.5432L59.2938 47.5425ZM61.114 30.0805C59.1569 32.0649 59.2039 36.279 61.1431 37.6599C62.4255 35.3251 62.4147 32.4757 61.114 30.0805V30.0805ZM84.3364 69.8731C86.3887 69.979 88.4538 69.9347 90.3148 70.9645L90.2754 71.2251L85.4109 70.5611C87.3394 71.7482 89.9658 72.5804 92.4256 70.149C89.7441 69.0822 87.0451 68.4006 84.3366 69.8729L84.3364 69.8731ZM63.0072 50.5021C65.0738 48.5192 65.9771 45.9929 67.2119 43.5179C63.7032 45.5199 62.0581 48.1826 63.0072 50.5021ZM86.1167 64.9827C87.6638 65.8729 90.5201 64.8437 92.0373 62.8496C90.4383 62.3729 85.9474 63.3004 85.0558 64.3991L89.2617 63.7754L89.366 64.1414C88.434 64.825 87.1451 64.5547 86.1166 64.9827L86.1167 64.9827ZM79.2598 63.5783C80.2864 62.2719 81.1576 61.1641 82.0286 60.0554L82.3384 60.2609C82.2286 60.6439 82.1198 61.0266 81.9752 61.53C83.3567 60.3849 84.2564 58.8636 84.1483 57.9568C81.3479 59.0768 78.7614 61.0801 79.2598 63.5783L79.2598 63.5783ZM64.9257 49.5388C66.0463 48.0905 68.1152 47.1397 67.631 44.721L64.9257 49.5388ZM72.6942 44.8016L72.6564 44.5284C72.1806 44.5526 71.7143 44.6544 71.2764 44.8313C70.9627 45.1756 70.7224 45.5795 70.5678 46.0199C71.4491 45.515 72.072 45.1585 72.6942 44.8016L72.6942 44.8016ZM82.2202 49.6449C83.6023 50.0476 83.8642 49.902 83.7753 48.9027C83.2971 49.1305 82.8713 49.334 82.2195 49.6445L82.2202 49.6449ZM74.4133 54.9031L72.6149 55.4023C72.9131 55.6299 73.2992 55.7056 73.6542 55.6071C74.0093 55.5086 74.2916 55.2474 74.4133 54.9032L74.4133 54.9031Z" fill="black"/>
<path d="M118.823 76.201C118.147 76.1156 117.637 75.8348 117.293 75.3586C116.958 74.8835 116.779 74.2824 116.758 73.5554L116.703 73.5484C116.486 74.3677 116.147 74.9692 115.685 75.353C115.222 75.7367 114.662 75.887 114.005 75.804C113.134 75.694 112.468 75.2711 112.006 74.5354C111.544 73.7997 111.397 72.7651 111.566 71.4317C111.634 70.8947 111.74 70.386 111.885 69.9058C112.02 69.4336 112.216 69.0021 112.472 68.6111L113.611 68.755C113.353 69.1645 113.131 69.6163 112.946 70.1103C112.77 70.6149 112.653 71.094 112.595 71.5477C112.483 72.4366 112.565 73.129 112.841 73.6249C113.116 74.13 113.559 74.4211 114.17 74.4983C114.799 74.5779 115.292 74.3673 115.647 73.8665C116.002 73.3657 116.24 72.6338 116.362 71.6708L116.541 70.254L117.582 70.3856L117.412 71.7329C117.288 72.7145 117.358 73.4665 117.621 73.9889C117.892 74.5218 118.306 74.8233 118.861 74.8935C119.361 74.9567 119.769 74.82 120.084 74.4836C120.4 74.1471 120.595 73.6826 120.67 73.09C120.748 72.4696 120.735 71.9411 120.63 71.5045C120.524 71.0772 120.371 70.6533 120.17 70.2328L121.093 69.7426C121.33 70.1677 121.511 70.675 121.634 71.2645C121.765 71.8643 121.786 72.5207 121.696 73.2337C121.56 74.3078 121.226 75.0934 120.692 75.5905C120.159 76.0876 119.536 76.2911 118.823 76.201Z" fill="black"/>
<path d="M116.752 82.9415C116.45 83.8049 116.037 84.3773 115.513 84.6589C114.99 84.9404 114.314 84.9364 113.486 84.6467L108.662 82.9596L108.958 82.1138L110.041 82.2405L110.059 82.1876C109.78 81.7437 109.607 81.3176 109.543 80.9093C109.475 80.5098 109.545 80.0105 109.755 79.4114C109.98 78.7683 110.334 78.2938 110.816 77.9881C111.308 77.6854 111.915 77.6603 112.637 77.913C113.342 78.1596 113.787 78.6266 113.972 79.3141C114.165 80.0047 114.078 80.9333 113.709 82.0997L113.328 83.3161L113.751 83.464C114.341 83.6705 114.796 83.686 115.114 83.5107C115.433 83.3353 115.673 83.0141 115.837 82.5472C115.966 82.1772 116.032 81.8048 116.035 81.4299C116.046 81.0582 116.032 80.7023 115.993 80.3622L116.99 80.3105C117.049 80.6774 117.062 81.0923 117.029 81.5553C117.005 82.0213 116.912 82.4834 116.752 82.9415ZM112.852 81.9631C113.125 81.0698 113.198 80.4082 113.072 79.9783C112.942 79.5572 112.653 79.2681 112.204 79.111C111.807 78.9723 111.475 78.9895 111.207 79.1627C110.935 79.3447 110.733 79.6251 110.601 80.0039C110.391 80.603 110.38 81.1577 110.567 81.6682C110.764 82.1817 111.205 82.5587 111.892 82.7991L112.527 83.0209L112.852 81.9631Z" fill="black"/>
<path d="M111.79 94.4203L106.111 91.3244L105.588 92.2832L102.392 90.541L102.962 89.4961L105.248 90.7425L107.747 86.1575L105.461 84.9112L106.024 83.8786L109.22 85.6209L108.932 86.1494C109.402 87.1393 110.057 88.0438 110.897 88.8629C111.74 89.6948 112.668 90.3917 113.679 90.9539L111.79 94.4203ZM112.309 91.4503C111.769 91.1138 111.238 90.7128 110.716 90.2473C110.202 89.7864 109.735 89.2978 109.315 88.7817C108.89 88.2738 108.559 87.7693 108.322 87.268L106.68 90.2796L111.511 92.9131L112.309 91.4503Z" fill="black"/>
<path d="M105.256 101.063C104.683 101.775 104.102 102.177 103.514 102.267C102.927 102.357 102.291 102.127 101.608 101.576L97.6272 98.372L98.1891 97.674L99.1671 98.1558L99.2023 98.1122C99.0872 97.6002 99.0675 97.141 99.1431 96.7346C99.2128 96.3354 99.4467 95.8886 99.8447 95.3943C100.272 94.8635 100.764 94.5349 101.321 94.4083C101.886 94.2876 102.466 94.4672 103.062 94.9471C103.644 95.4154 103.907 96.0043 103.851 96.714C103.802 97.4296 103.408 98.2752 102.671 99.251L101.905 100.27L102.254 100.551C102.741 100.943 103.164 101.11 103.522 101.051C103.881 100.992 104.216 100.77 104.526 100.385C104.772 100.08 104.959 99.7507 105.086 99.3984C105.222 99.0519 105.328 98.7118 105.404 98.3783L106.361 98.6633C106.294 99.0289 106.168 99.4243 105.981 99.8493C105.802 100.28 105.561 100.685 105.256 101.063ZM101.909 98.8355C102.465 98.085 102.756 97.4861 102.78 97.0387C102.799 96.5986 102.623 96.2292 102.252 95.9307C101.925 95.6674 101.606 95.5724 101.296 95.6458C100.979 95.7264 100.695 95.9231 100.443 96.2357C100.045 96.7301 99.8492 97.2491 99.8548 97.7928C99.8677 98.3424 100.158 98.8454 100.725 99.3019L101.248 99.7233L101.909 98.8355Z" fill="black"/>
<path d="M95.5251 109.701L97.4099 108.136L93.2776 103.16L94.2146 102.382L98.3469 107.358L100.21 105.81L100.872 106.607L96.1869 110.498L95.5251 109.701Z" fill="black"/>
<path d="M87.3814 112.02C85.6505 112.919 84.458 112.74 83.8037 111.481C83.4809 110.86 83.4338 110.253 83.6624 109.661C83.8954 109.077 84.4715 108.546 85.3907 108.068L88.4093 106.499L91.8701 113.158L90.777 113.726L89.3565 110.993L87.3814 112.02ZM84.8646 110.851C85.0755 111.256 85.3625 111.454 85.7255 111.444C86.0845 111.447 86.5208 111.315 87.0342 111.048L88.8851 110.086L87.7746 107.95L85.8988 108.925C85.4351 109.166 85.0972 109.446 84.8851 109.767C84.6648 110.092 84.6579 110.453 84.8646 110.851Z" fill="black"/>
<path d="M65.4983 118.768C65.4547 118.303 65.56 117.928 65.8144 117.641C66.0687 117.355 66.4099 117.145 66.8379 117.011L66.8327 116.955C66.3619 116.934 65.942 116.804 65.5729 116.567C65.2046 116.339 64.9943 115.946 64.9419 115.389C64.8826 114.757 65.0702 114.21 65.5049 113.747C65.9311 113.295 66.6832 113.018 67.7611 112.916L70.9809 112.614L71.6826 120.085L68.4767 120.386C67.947 120.436 67.4675 120.42 67.038 120.339C66.6 120.267 66.2472 120.104 65.9794 119.847C65.7032 119.602 65.5428 119.242 65.4983 118.768ZM66.7245 118.498C66.7576 118.851 66.9117 119.094 67.1867 119.228C67.4533 119.372 67.8747 119.416 68.4508 119.362L70.3604 119.183L70.168 117.134L68.4814 117.292C67.2455 117.408 66.6599 117.81 66.7245 118.498ZM66.2103 115.27C66.2505 115.697 66.4419 115.989 66.7846 116.144C67.1273 116.299 67.6146 116.347 68.2465 116.288L70.0724 116.116L69.8473 113.719L67.9934 113.893C67.3801 113.951 66.9191 114.083 66.6105 114.29C66.3027 114.506 66.1693 114.833 66.2103 115.27Z" fill="black"/>
<path d="M53.182 115.725C53.4547 114.514 53.9755 113.646 54.7444 113.121C55.5041 112.593 56.4076 112.448 57.4547 112.684C58.1012 112.829 58.6465 113.105 59.0908 113.511C59.5239 113.924 59.8226 114.446 59.9868 115.076C60.149 115.716 60.1388 116.44 59.9563 117.251C59.6835 118.462 59.1683 119.326 58.4106 119.845C57.6529 120.363 56.7505 120.504 55.7034 120.268C55.0387 120.118 54.4898 119.837 54.0567 119.424C53.6124 119.017 53.3127 118.5 53.1576 117.872C52.9913 117.251 52.9995 116.535 53.182 115.725ZM58.7134 116.971C58.9082 116.106 58.8946 115.38 58.6726 114.795C58.4394 114.216 57.9494 113.843 57.2028 113.674C56.4653 113.508 55.8671 113.637 55.4083 114.059C54.9475 114.491 54.6197 115.14 54.4248 116.005C54.23 116.87 54.2502 117.587 54.4855 118.157C54.7208 118.726 55.2117 119.095 55.9583 119.264C56.705 119.432 57.3021 119.308 57.7497 118.892C58.1974 118.476 58.5186 117.836 58.7134 116.971Z" fill="black"/>
<path d="M41.8392 115.933L44.8695 109.068L45.9966 109.566L43.3903 115.47L46.938 117.036L49.5443 111.132L50.6714 111.629L47.641 118.494L41.8392 115.933Z" fill="black"/>
<path d="M33.0346 111.739C32.2633 111.231 31.8212 110.553 31.7083 109.707C31.5876 108.856 31.8845 107.889 32.5988 106.806C33.3028 105.739 34.0749 105.085 34.915 104.846C35.7474 104.601 36.5531 104.735 37.3322 105.249C37.8153 105.568 38.1574 105.922 38.3586 106.312C38.5469 106.705 38.651 107.081 38.6709 107.441L38.7411 107.487C38.8128 107.344 38.9077 107.166 39.0258 106.953C39.1438 106.741 39.2516 106.56 39.3493 106.412L41.0452 103.841L42.0736 104.519L36.0918 113.588L35.2503 113.033L35.6728 112.088L35.6261 112.057C35.2592 112.206 34.8622 112.274 34.435 112.261C34.0078 112.247 33.541 112.073 33.0346 111.739ZM33.792 110.998C34.4309 111.419 35.001 111.538 35.5023 111.355C35.9958 111.166 36.4918 110.71 36.9905 109.988L37.1215 109.79C37.6303 109.018 37.8988 108.34 37.927 107.755C37.9422 107.172 37.607 106.655 36.9214 106.203C36.5396 105.951 36.1586 105.85 35.7783 105.902C35.3903 105.947 35.0196 106.111 34.6664 106.392C34.3002 106.676 33.9629 107.052 33.6546 107.52C33.1818 108.236 32.9443 108.901 32.9421 109.515C32.9322 110.123 33.2155 110.618 33.792 110.998Z" fill="black"/>
<path d="M26.0541 99.9022C26.9402 99.0328 27.8487 98.5861 28.7795 98.562C29.7038 98.5312 30.5418 98.8989 31.2934 99.6651C31.7575 100.138 32.066 100.666 32.2188 101.248C32.3585 101.83 32.3263 102.43 32.1224 103.049C31.9118 103.674 31.5101 104.277 30.9171 104.859C30.031 105.728 29.1292 106.175 28.2115 106.199C27.2939 106.224 26.4593 105.853 25.7076 105.086C25.2304 104.6 24.922 104.066 24.7824 103.484C24.6296 102.901 24.6584 102.304 24.8688 101.693C25.0661 101.081 25.4611 100.484 26.0541 99.9022ZM30.0249 103.95C30.6579 103.329 31.0399 102.712 31.1712 102.099C31.2892 101.487 31.0803 100.907 30.5443 100.361C30.0149 99.8212 29.4427 99.6045 28.8279 99.7109C28.2064 99.8237 27.5792 100.191 26.9463 100.812C26.3134 101.433 25.9412 102.046 25.8298 102.652C25.7185 103.258 25.9307 103.835 26.4667 104.381C27.0027 104.927 27.5715 105.147 28.1731 105.041C28.7747 104.934 29.392 104.571 30.0249 103.95Z" fill="black"/>
<path d="M25.2364 92.9298C25.5789 93.4972 25.7693 94.0745 25.8076 94.6618C25.8412 95.2412 25.6914 95.8058 25.3583 96.3557C25.0204 96.8976 24.4719 97.3977 23.7128 97.8559C22.9217 98.3333 22.1989 98.5897 21.5443 98.6251C20.8897 98.6604 20.3115 98.5243 19.8097 98.2167C19.3031 97.9011 18.8761 97.4556 18.5289 96.8803C18.3311 96.5527 18.1766 96.2153 18.0652 95.8683C17.9459 95.526 17.8763 95.2301 17.8564 94.9805L18.9267 94.776C18.9705 95.0111 19.0377 95.2759 19.1281 95.5702C19.2185 95.8644 19.3312 96.1235 19.4662 96.3472C20.2283 97.6097 21.4203 97.7514 23.0424 96.7724C23.8175 96.3045 24.3212 95.7934 24.5534 95.239C24.7729 94.6814 24.6993 94.0989 24.3327 93.4916C24.1205 93.14 23.8989 92.8541 23.6678 92.6338C23.4319 92.4055 23.1945 92.2109 22.9556 92.0499L23.8905 91.4856C24.1326 91.6338 24.3612 91.8229 24.5763 92.0528C24.7945 92.2699 25.0146 92.5623 25.2364 92.9298Z" fill="black"/>
<path d="M14.8244 80.2192C14.4183 80.3263 14.1426 80.1047 13.9974 79.5541L12.8626 75.3071C12.8564 75.1736 12.9796 75.0736 13.2323 75.0069C13.6384 74.8998 13.914 75.1215 14.0593 75.672L15.194 79.919C15.2003 80.0525 15.0771 80.1526 14.8244 80.2192Z" fill="black"/>
<path d="M9.79049 59.4049C10.4711 59.4361 11.0021 59.6753 11.3833 60.1225C11.7553 60.5693 11.9807 61.1543 12.0598 61.8773L12.1157 61.8799C12.266 61.0459 12.5563 60.4192 12.9866 59.9997C13.4169 59.5803 13.9631 59.3858 14.625 59.4161C15.5015 59.4562 16.1993 59.8245 16.7187 60.521C17.238 61.2175 17.467 62.237 17.4055 63.5796C17.3807 64.1204 17.3151 64.6359 17.2085 65.1262C17.1117 65.6077 16.9512 66.0534 16.7268 66.4636L15.58 66.4111C15.8052 65.9823 15.9902 65.5143 16.1348 65.007C16.2706 64.49 16.349 64.0031 16.3699 63.5462C16.4109 62.6512 16.274 61.9675 15.9593 61.4953C15.645 61.0137 15.1802 60.7589 14.5648 60.7307C13.9308 60.7017 13.4569 60.9509 13.1431 61.4784C12.8293 62.006 12.6502 62.7546 12.6058 63.7242L12.5405 65.1507L11.4916 65.1027L11.5537 63.7461C11.599 62.7578 11.4696 62.0138 11.1654 61.514C10.8524 61.0045 10.4162 60.7369 9.85679 60.7113C9.35332 60.6882 8.95785 60.857 8.67039 61.2176C8.38292 61.5781 8.22553 62.0567 8.1982 62.6535C8.1696 63.2781 8.22493 63.8039 8.36422 64.2307C8.50393 64.6482 8.69069 65.0585 8.9245 65.4616L8.04385 66.0239C7.77275 65.6191 7.55233 65.1278 7.38258 64.5501C7.20393 63.9627 7.13105 63.31 7.16393 62.5921C7.21346 61.5105 7.48412 60.7007 7.97592 60.1627C8.46772 59.6246 9.07257 59.372 9.79049 59.4049Z" fill="black"/>
<path d="M10.2804 51.6145C10.5104 50.7292 10.8747 50.1247 11.3735 49.8011C11.8722 49.4774 12.5461 49.4259 13.3953 49.6464L18.3411 50.9312L18.1159 51.7985L17.0262 51.7613L17.0121 51.8155C17.3275 52.2349 17.5342 52.6454 17.6324 53.047C17.7329 53.4396 17.7034 53.943 17.5438 54.5573C17.3725 55.2167 17.0589 55.7186 16.603 56.0631C16.1381 56.4052 15.5352 56.48 14.7945 56.2876C14.0718 56.0998 13.5902 55.671 13.3496 55.001C13.0999 54.3286 13.1107 53.396 13.382 52.2032L13.6617 50.9596L13.2281 50.847C12.6228 50.6897 12.1687 50.7116 11.8658 50.9126C11.5629 51.1135 11.3492 51.4534 11.2249 51.9322C11.1263 52.3116 11.0912 52.6882 11.1194 53.062C11.1387 53.4334 11.1818 53.7869 11.2489 54.1226L10.2596 54.2561C10.1701 53.8954 10.1229 53.4829 10.1181 53.0188C10.1043 52.5524 10.1584 52.0842 10.2804 51.6145ZM14.2473 52.2689C14.0488 53.1816 14.0302 53.847 14.1916 54.265C14.3554 54.674 14.6676 54.9383 15.1283 55.058C15.5349 55.1636 15.8646 55.1191 16.1177 54.9245C16.3731 54.7208 16.5513 54.4248 16.6522 54.0363C16.8118 53.4221 16.7772 52.8682 16.5486 52.3749C16.3109 51.8792 15.8398 51.5399 15.1351 51.3568L14.4847 51.1879L14.2473 52.2689Z" fill="black"/>
<path d="M13.474 38.0197L19.3751 40.6677L19.8222 39.6714L23.1431 41.1617L22.6559 42.2474L20.2802 41.1813L18.1422 45.9456L20.518 47.0117L20.0365 48.0846L16.7155 46.5944L16.962 46.0451C16.4167 45.0946 15.6939 44.2433 14.7934 43.4915C13.8883 42.7272 12.9097 42.104 11.8577 41.6216L13.474 38.0197ZM13.1861 41.0208C13.7498 41.3147 14.31 41.6735 14.8667 42.0972C15.4148 42.5171 15.9183 42.9681 16.3771 43.4502C16.8398 43.9238 17.2086 44.4013 17.4836 44.8828L18.8879 41.7534L13.8681 39.5008L13.1861 41.0208Z" fill="black"/>
<path d="M19.4035 31.632C19.9183 30.876 20.465 30.4296 21.0436 30.2929C21.6223 30.1562 22.2742 30.3347 22.9994 30.8285L27.2232 33.7045L26.7189 34.4451L25.7055 34.043L25.674 34.0893C25.8296 34.5904 25.8859 35.0466 25.8431 35.4578C25.8055 35.8612 25.6081 36.3253 25.2509 36.8499C24.8674 37.4131 24.403 37.78 23.8577 37.9507C23.3047 38.1161 22.7119 37.9835 22.0793 37.5527C21.4621 37.1325 21.1531 36.5664 21.1523 35.8545C21.1438 35.1374 21.4682 34.263 22.1254 33.2313L22.8078 32.1546L22.4374 31.9025C21.9206 31.5505 21.4857 31.4181 21.1327 31.5053C20.7798 31.5924 20.4641 31.8405 20.1857 32.2493C19.9651 32.5734 19.8052 32.9161 19.7058 33.2775C19.5988 33.6337 19.5203 33.9812 19.4704 34.3198L18.4939 34.1122C18.5312 33.7424 18.6257 33.3382 18.7776 32.8996C18.9217 32.4557 19.1304 32.0332 19.4035 31.632ZM22.918 33.5847C22.4236 34.3772 22.1819 34.9974 22.1931 35.4453C22.2095 35.8856 22.4144 36.2397 22.8079 36.5076C23.155 36.7439 23.4805 36.8131 23.7844 36.7152C24.0935 36.6094 24.361 36.3907 24.5868 36.059C24.944 35.5344 25.0981 35.0013 25.049 34.4598C24.9923 33.913 24.663 33.4348 24.0612 33.025L23.5058 32.6468L22.918 33.5847Z" fill="black"/>
<path d="M28.1085 22.2832L26.3612 24.0006L30.8952 28.6134L30.0266 29.4672L25.4926 24.8544L23.7653 26.5522L23.0391 25.8133L27.3823 21.5443L28.1085 22.2832Z" fill="black"/>
<path d="M36.1962 19.1523C37.848 18.1145 39.0512 18.1962 39.8059 19.3975C40.1783 19.9902 40.2747 20.591 40.0951 21.1999C39.9105 21.8008 39.3796 22.3769 38.5024 22.928L35.6218 24.7379L31.6296 18.384L32.6728 17.7285L34.3114 20.3365L36.1962 19.1523ZM38.8 20.1122C38.5567 19.7249 38.2545 19.551 37.8935 19.5905C37.5354 19.617 37.1114 19.7843 36.6214 20.0921L34.8551 21.2019L36.1362 23.2408L37.9262 22.1162C38.3687 21.8381 38.6826 21.5307 38.8678 21.1939C39.0609 20.8521 39.0383 20.4915 38.8 20.1122Z" fill="black"/>
<path d="M58.4453 10.6092C58.5266 11.0688 58.4522 11.4516 58.222 11.7577C57.9919 12.0639 57.669 12.3011 57.2533 12.4695L57.263 12.5246C57.7339 12.5076 58.163 12.6023 58.5502 12.8086C58.9358 13.0057 59.1774 13.38 59.275 13.9315C59.3857 14.5564 59.2432 15.1172 58.8477 15.6137C58.4598 16.0994 57.7327 16.4366 56.6667 16.6253L53.4822 17.189L52.1742 9.79987L55.3449 9.23863C55.8688 9.14591 56.3481 9.12268 56.7828 9.16895C57.2251 9.2044 57.5901 9.33884 57.8779 9.57226C58.1732 9.79486 58.3623 10.1405 58.4453 10.6092ZM57.2452 10.978C57.1834 10.6288 57.01 10.3988 56.725 10.2882C56.4476 10.1667 56.0239 10.1563 55.4541 10.2572L53.5655 10.5915L53.9242 12.618L55.5923 12.3227C56.8146 12.1064 57.3656 11.6581 57.2452 10.978ZM58.0205 14.1535C57.9457 13.7308 57.7312 13.4559 57.377 13.3291C57.0228 13.2022 56.5332 13.1941 55.9083 13.3047L54.1023 13.6243L54.522 15.9955L56.3555 15.6709C56.9621 15.5636 57.4108 15.3941 57.7015 15.1626C57.9907 14.9218 58.097 14.5855 58.0205 14.1535Z" fill="black"/>
<path d="M69.7867 13.1788C69.6393 14.4114 69.21 15.3282 68.4989 15.9294C67.7971 16.5316 66.9133 16.769 65.8476 16.6416C65.1896 16.5629 64.6189 16.3442 64.1354 15.9856C63.6622 15.6188 63.3118 15.1304 63.0839 14.5204C62.8572 13.9011 62.7932 13.179 62.8918 12.3542C63.0392 11.1217 63.4633 10.2089 64.164 9.61592C64.8647 9.02293 65.7479 8.79017 66.8136 8.91763C67.4902 8.99854 68.065 9.22238 68.5381 9.58916C69.0216 9.94778 69.3726 10.4316 69.5912 11.0405C69.8202 11.6413 69.8853 12.354 69.7867 13.1788ZM64.1568 12.5055C64.0515 13.3859 64.1393 14.1061 64.4201 14.6661C64.7113 15.2179 65.2368 15.5392 65.9967 15.6301C66.7474 15.7199 67.3293 15.531 67.7424 15.0634C68.1566 14.5866 68.4164 13.9079 68.5217 13.0275C68.627 12.1471 68.5335 11.4357 68.2412 10.8931C67.9488 10.3506 67.4227 10.0339 66.6628 9.94297C65.9029 9.85209 65.3216 10.0364 64.9188 10.4958C64.5161 10.9552 64.2621 11.6251 64.1568 12.5055Z" fill="black"/>
<path d="M82.252 11.1383L80.0518 18.3125L78.8739 17.9513L80.7663 11.781L77.0587 10.6439L75.1663 16.8142L73.9885 16.453L76.1887 9.27882L82.252 11.1383Z" fill="black"/>
<path d="M91.4041 15.0114C92.2142 15.4558 92.71 16.0949 92.8912 16.9289C93.0807 17.7673 92.8635 18.7552 92.2396 19.8927C91.6247 21.0138 90.9083 21.728 90.0905 22.0352C89.2808 22.3469 88.4668 22.2783 87.6485 21.8295C87.1411 21.5512 86.7713 21.2259 86.539 20.8537C86.3194 20.4778 86.1851 20.1113 86.136 19.7544L86.0624 19.714C86.0024 19.8621 85.9223 20.047 85.822 20.2688C85.7216 20.4905 85.6288 20.6791 85.5435 20.8346L84.0624 23.5351L82.9822 22.9426L88.2067 13.4173L89.0905 13.9021L88.7463 14.8789L88.7954 14.9059C89.1489 14.7272 89.5391 14.6272 89.9659 14.6058C90.3928 14.5845 90.8722 14.7197 91.4041 15.0114ZM90.7095 15.812C90.0385 15.444 89.4606 15.3719 88.9759 15.5957C88.4994 15.824 88.042 16.3183 87.6037 17.0785L87.4893 17.2872C87.0449 18.0973 86.8325 18.7952 86.852 19.3807C86.8841 19.9625 87.2603 20.4509 87.9804 20.8459C88.3814 21.0658 88.7693 21.1349 89.1442 21.0531C89.5272 20.9758 89.8833 20.7826 90.2126 20.4735C90.5544 20.1607 90.86 19.7588 91.1293 19.2678C91.5423 18.5149 91.7249 17.8326 91.6772 17.221C91.6376 16.6138 91.315 16.1442 90.7095 15.812Z" fill="black"/>
<path d="M101.467 27.9769C100.653 28.9143 99.7834 29.4322 98.8575 29.5306C97.9386 29.6352 97.0739 29.3357 96.2634 28.632C95.763 28.1976 95.4133 27.6963 95.2144 27.1281C95.0287 26.559 95.0128 25.9581 95.1666 25.3253C95.3265 24.6855 95.6787 24.052 96.2233 23.4247C97.0371 22.4873 97.9003 21.9698 98.8131 21.8723C99.7258 21.7748 100.587 22.0779 101.398 22.7815C101.912 23.2282 102.263 23.736 102.448 24.3051C102.647 24.8733 102.666 25.4707 102.505 26.0974C102.358 26.7231 102.012 27.3496 101.467 27.9769ZM97.1854 24.2599C96.6041 24.9294 96.2725 25.5747 96.1907 26.1958C96.122 26.816 96.3766 27.3769 96.9545 27.8786C97.5254 28.3742 98.113 28.5445 98.7174 28.3893C99.3278 28.2271 99.9237 27.8113 100.505 27.1417C101.086 26.4721 101.408 25.8308 101.471 25.2177C101.533 24.6046 101.276 24.0472 100.698 23.5455C100.12 23.0438 99.5352 22.87 98.944 23.0242C98.3528 23.1784 97.7666 23.5903 97.1854 24.2599Z" fill="black"/>
<path d="M104.028 37.6751C103.641 37.1371 103.405 36.5768 103.32 35.9945C103.24 35.4197 103.344 34.8449 103.632 34.27C103.925 33.7028 104.432 33.1604 105.152 32.6428C105.902 32.1035 106.602 31.79 107.252 31.7023C107.901 31.6146 108.489 31.704 109.013 31.9704C109.544 32.2444 110.005 32.6542 110.397 33.1999C110.621 33.5106 110.802 33.8344 110.94 34.1714C111.087 34.503 111.18 34.7924 111.22 35.0397L110.169 35.3293C110.107 35.0984 110.019 34.8399 109.905 34.5538C109.791 34.2677 109.658 34.0185 109.506 33.8063C108.645 32.609 107.445 32.5632 105.907 33.6691C105.172 34.1976 104.711 34.7474 104.524 35.3187C104.35 35.8921 104.47 36.4668 104.884 37.0427C105.123 37.3762 105.367 37.6434 105.615 37.8445C105.869 38.0531 106.121 38.2281 106.372 38.3695L105.485 39.0069C105.232 38.8785 104.989 38.7084 104.756 38.4964C104.521 38.2975 104.278 38.0237 104.028 37.6751Z" fill="black"/>
<path d="M112.082 44.7729C112.478 44.6327 112.771 44.831 112.961 45.3677L114.441 49.5071C114.458 49.6396 114.343 49.7495 114.097 49.8367C113.701 49.9768 113.408 49.7785 113.218 49.2418L111.738 45.1025C111.721 44.9699 111.835 44.8601 112.082 44.7729Z" fill="black"/>
</svg>
